%!PS-Adobe-3.0 EPSF-3.0
%%Creator: cairo 1.14.6 (http://cairographics.org)
%%CreationDate: Sun Sep  3 16:28:50 2017
%%Pages: 1
%%DocumentData: Clean7Bit
%%LanguageLevel: 2
%%BoundingBox: 2 708 153 744
%%EndComments
%%BeginProlog
save
50 dict begin
/q { gsave } bind def
/Q { grestore } bind def
/cm { 6 array astore concat } bind def
/w { setlinewidth } bind def
/J { setlinecap } bind def
/j { setlinejoin } bind def
/M { setmiterlimit } bind def
/d { setdash } bind def
/m { moveto } bind def
/l { lineto } bind def
/c { curveto } bind def
/h { closepath } bind def
/re { exch dup neg 3 1 roll 5 3 roll moveto 0 rlineto
      0 exch rlineto 0 rlineto closepath } bind def
/S { stroke } bind def
/f { fill } bind def
/f* { eofill } bind def
/n { newpath } bind def
/W { clip } bind def
/W* { eoclip } bind def
/BT { } bind def
/ET { } bind def
/pdfmark where { pop globaldict /?pdfmark /exec load put }
    { globaldict begin /?pdfmark /pop load def /pdfmark
    /cleartomark load def end } ifelse
/BDC { mark 3 1 roll /BDC pdfmark } bind def
/EMC { mark /EMC pdfmark } bind def
/cairo_store_point { /cairo_point_y exch def /cairo_point_x exch def } def
/Tj { show currentpoint cairo_store_point } bind def
/TJ {
  {
    dup
    type /stringtype eq
    { show } { -0.001 mul 0 cairo_font_matrix dtransform rmoveto } ifelse
  } forall
  currentpoint cairo_store_point
} bind def
/cairo_selectfont { cairo_font_matrix aload pop pop pop 0 0 6 array astore
    cairo_font exch selectfont cairo_point_x cairo_point_y moveto } bind def
/Tf { pop /cairo_font exch def /cairo_font_matrix where
      { pop cairo_selectfont } if } bind def
/Td { matrix translate cairo_font_matrix matrix concatmatrix dup
      /cairo_font_matrix exch def dup 4 get exch 5 get cairo_store_point
      /cairo_font where { pop cairo_selectfont } if } bind def
/Tm { 2 copy 8 2 roll 6 array astore /cairo_font_matrix exch def
      cairo_store_point /cairo_font where { pop cairo_selectfont } if } bind def
/g { setgray } bind def
/rg { setrgbcolor } bind def
/d1 { setcachedevice } bind def
%%EndProlog
%%BeginSetup
%%EndSetup
%%Page: 1 1
%%BeginPageSetup
%%PageBoundingBox: 2 708 153 744
%%EndPageSetup
q 2 708 151 36 rectclip q
1 g
10.949 711.53 m 2.863 716.202 0.094 726.542 4.762 734.628 c 9.43 742.714
 19.773 745.487 27.859 740.816 c 35.945 736.148 38.715 725.808 34.047 717.722
 c 29.379 709.636 19.039 706.862 10.949 711.53 c h
10.949 711.53 m f
0 g
0.194856 w
0 J
0 j
[] 0.0 d
4 M q -0.57735 -1 -1 0.57735 0 841.889771 cm
93.028 -64.659 m 93.026 -56.572 86.47 -50.017 78.384 -50.017 c 70.299 -50.017
 63.74 -56.574 63.742 -64.661 c 63.742 -72.747 70.298 -79.301 78.383 -79.301
 c 86.469 -79.302 93.026 -72.748 93.028 -64.659 c h
93.028 -64.659 m S Q
1 g
11.859 713.105 m 4.641 717.273 2.164 726.503 6.332 733.722 c 10.5 740.941
 19.73 743.413 26.953 739.245 c 34.172 735.077 36.645 725.847 32.477 718.628
 c 28.309 711.409 19.078 708.937 11.859 713.105 c h
11.859 713.105 m f
0 g
q -0.57735 -1 -1 0.57735 0 841.889771 cm
91.454 -64.66 m 91.453 -57.441 85.603 -51.587 78.384 -51.587 c 71.165 -51.587
 65.314 -57.439 65.312 -64.661 c 65.313 -71.88 71.165 -77.731 78.384 -77.731
 c 85.602 -77.731 91.454 -71.879 91.454 -64.66 c h
91.454 -64.66 m S Q
0.178429 w
q 1 0 0 -1 0 841.889771 cm
19.406 108.105 m 19.406 100.566 l S Q
0.140316 w
q 1 -1 -1 -1 0 841.889771 cm
63.701 44.295 m 71.418 44.297 l 71.42 52.014 l 63.701 52.014 l h
63.701 44.295 m S Q
0.193413 w
q 1 0 0 -1 0 841.889771 cm
11.824 115.715 m 4.281 115.715 l S Q
0.162758 w
q 1 0 0 -1 0 841.889771 cm
27.102 115.715 m 34.445 115.715 l S Q
0.17797 w
q 1 0 0 -1 0 841.889771 cm
19.406 123.387 m 19.406 130.727 l S Q
0.501961 0 0 rg
4.445 726.55 m 4.461 726.691 4.488 727.05 4.504 727.355 c 4.637 729.734
 5.547 732.339 6.992 734.491 c 7.621 735.429 8.066 735.972 8.828 736.737
 c 11.336 739.249 14.641 740.78 18.215 741.081 c 18.59 741.112 18.98 741.14
 19.082 741.14 c 19.266 741.14 l 19.266 733.956 l 15.434 730.128 l 11.605
 726.296 l 4.418 726.296 l h
4.445 726.55 m f
0 g
0.0533917 w
q 1 0 0 -1 0 841.889771 cm
4.445 115.34 m 4.461 115.199 4.488 114.84 4.504 114.535 c 4.637 112.156
 5.547 109.551 6.992 107.398 c 7.621 106.461 8.066 105.918 8.828 105.152
 c 11.336 102.641 14.641 101.109 18.215 100.809 c 18.59 100.777 18.98 100.75
 19.082 100.75 c 19.266 100.75 l 19.266 107.934 l 15.434 111.762 l 11.605
 115.594 l 4.418 115.594 l h
4.445 115.34 m S Q
0 0 0.501961 rg
17.648 711.319 m 15.918 711.53 14.316 712.011 12.75 712.796 c 8.359 714.991
 5.34 719.14 4.613 723.984 c 4.57 724.273 4.52 724.749 4.504 725.042 c 4.484
 725.335 4.461 725.679 4.449 725.804 c 4.426 726.03 l 11.656 726.03 l 19.266
 718.421 l 19.266 711.241 l 18.746 711.245 l 18.457 711.249 17.965 711.284
 17.648 711.319 c h
17.648 711.319 m f
0 g
q 1 0 0 -1 0 841.889771 cm
17.648 130.57 m 15.918 130.359 14.316 129.879 12.75 129.094 c 8.359 126.898
 5.34 122.75 4.613 117.906 c 4.57 117.617 4.52 117.141 4.504 116.848 c 4.484
 116.555 4.461 116.211 4.449 116.086 c 4.426 115.859 l 11.656 115.859 l 
19.266 123.469 l 19.266 130.648 l 18.746 130.645 l 18.457 130.641 17.965
 130.605 17.648 130.57 c h
17.648 130.57 m S Q
0.501961 0.501961 0 rg
23.363 730.128 m 19.531 733.956 l 19.531 741.151 l 20.16 741.116 l 23.352
 740.925 26.348 739.776 28.824 737.796 c 29.406 737.327 30.566 736.171 31.031
 735.585 c 33.035 733.085 34.129 730.194 34.352 726.816 c 34.387 726.296
 l 27.195 726.296 l h
23.363 730.128 m f
0 g
q 1 0 0 -1 0 841.889771 cm
23.363 111.762 m 19.531 107.934 l 19.531 100.738 l 20.16 100.773 l 23.352
 100.965 26.348 102.113 28.824 104.094 c 29.406 104.562 30.566 105.719 31.031
 106.305 c 33.035 108.805 34.129 111.695 34.352 115.074 c 34.387 115.594
 l 27.195 115.594 l h
23.363 111.762 m S Q
0.168627 0 0 rg
19.531 714.831 m 19.531 718.421 l 23.363 722.253 l 27.195 726.081 l 34.387
 726.081 l 34.352 725.507 l 34.176 722.612 33.336 720.097 31.773 717.784
 c 29.352 714.198 25.438 711.827 21.102 711.319 c 20.723 711.276 20.215 
711.241 19.973 711.241 c 19.531 711.241 l h
19.531 714.831 m f
0 g
q 1 0 0 -1 0 841.889771 cm
19.531 127.059 m 19.531 123.469 l 23.363 119.637 l 27.195 115.809 l 34.387
 115.809 l 34.352 116.383 l 34.176 119.277 33.336 121.793 31.773 124.105
 c 29.352 127.691 25.438 130.062 21.102 130.57 c 20.723 130.613 20.215 130.648
 19.973 130.648 c 19.531 130.648 l h
19.531 127.059 m S Q
1 g
43.656 717.722 m 48.324 709.636 58.664 706.862 66.754 711.534 c 74.84 716.202
 77.609 726.542 72.941 734.628 c 68.273 742.714 57.93 745.487 49.844 740.816
 c 41.758 736.148 38.988 725.808 43.656 717.722 c h
43.656 717.722 m f
0 g
0.194856 w
q -1 -0.57735 0.57735 -1 0 841.889771 cm
21.024 112.03 m 21.024 120.115 14.471 126.673 6.38 126.672 c -1.706 126.672
 -8.26 120.117 -8.26 112.031 c -8.261 103.945 -1.704 97.386 6.384 97.389
 c 14.469 97.388 21.024 103.944 21.024 112.03 c h
21.024 112.03 m S Q
1 g
45.227 718.628 m 49.395 711.409 58.625 708.937 65.844 713.105 c 73.062 
717.273 75.539 726.503 71.371 733.722 c 67.203 740.941 57.973 743.413 50.75
 739.245 c 43.531 735.077 41.059 725.847 45.227 718.628 c h
45.227 718.628 m f
0 g
q -1 -0.57735 0.57735 -1 0 841.889771 cm
19.454 112.03 m 19.454 119.249 13.602 125.1 6.383 125.1 c -0.836 125.1 
-6.69 119.249 -6.69 112.031 c -6.69 104.812 -0.838 98.96 6.384 98.959 c 
13.603 98.959 19.454 104.811 19.454 112.03 c h
19.454 112.03 m S Q
0.178429 w
q 1 0 0 -1 0 841.889771 cm
65.906 115.715 m 73.449 115.715 l S Q
0.140316 w
q -1 1 -1 -1 0 841.889771 cm
-90.865 24.85 m -83.146 24.85 l -83.148 32.566 l -90.865 32.568 l h
-90.865 24.85 m S Q
0.193413 w
q 1 0 0 -1 0 841.889771 cm
58.297 123.297 m 58.297 130.836 l S Q
0.162758 w
q 1 0 0 -1 0 841.889771 cm
58.297 108.016 m 58.297 100.676 l S Q
0.17797 w
q 1 0 0 -1 0 841.889771 cm
50.629 115.715 m 43.285 115.715 l S Q
0.501961 0 0 rg
58.672 711.214 m 58.812 711.23 59.176 711.257 59.477 711.273 c 61.855 711.409
 64.465 712.316 66.613 713.761 c 67.551 714.39 68.094 714.835 68.859 715.597
 c 71.375 718.105 72.906 721.413 73.203 724.984 c 73.238 725.359 73.262 
725.749 73.262 725.851 c 73.262 726.034 l 66.082 726.034 l 62.25 722.206
 l 58.418 718.374 l 58.418 711.191 l h
58.672 711.214 m f
0 g
0.0533917 w
q 1 0 0 -1 0 841.889771 cm
58.672 130.676 m 58.812 130.66 59.176 130.633 59.477 130.617 c 61.855 130.48
 64.465 129.574 66.613 128.129 c 67.551 127.5 68.094 127.055 68.859 126.293
 c 71.375 123.785 72.906 120.477 73.203 116.906 c 73.238 116.531 73.262 
116.141 73.262 116.039 c 73.262 115.855 l 66.082 115.855 l 62.25 119.684
 l 58.418 123.516 l 58.418 130.699 l h
58.672 130.676 m S Q
0 0 0.501961 rg
43.445 724.417 m 43.652 722.691 44.137 721.089 44.918 719.523 c 47.113 
715.128 51.266 712.109 56.109 711.382 c 56.395 711.339 56.871 711.288 57.164
 711.273 c 57.457 711.257 57.801 711.234 57.926 711.218 c 58.152 711.194
 l 58.152 718.429 l 54.348 722.234 l 50.543 726.034 l 43.363 726.034 l 43.367
 725.515 l 43.371 725.23 43.406 724.734 43.445 724.417 c h
43.445 724.417 m f
0 g
q 1 0 0 -1 0 841.889771 cm
43.445 117.473 m 43.652 119.199 44.137 120.801 44.918 122.367 c 47.113 
126.762 51.266 129.781 56.109 130.508 c 56.395 130.551 56.871 130.602 57.164
 130.617 c 57.457 130.633 57.801 130.656 57.926 130.672 c 58.152 130.695
 l 58.152 123.461 l 54.348 119.656 l 50.543 115.855 l 43.363 115.855 l 43.367
 116.375 l 43.371 116.66 43.406 117.156 43.445 117.473 c h
43.445 117.473 m S Q
0.501961 0.501961 0 rg
62.25 730.132 m 66.082 726.304 l 73.277 726.304 l 73.238 726.929 l 73.051
 730.12 71.902 733.116 69.918 735.593 c 69.453 736.175 68.293 737.335 67.711
 737.8 c 65.207 739.804 62.32 740.898 58.941 741.12 c 58.418 741.155 l 58.418
 733.964 l h
62.25 730.132 m f
0 g
q 1 0 0 -1 0 841.889771 cm
62.25 111.758 m 66.082 115.586 l 73.277 115.586 l 73.238 114.961 l 73.051
 111.77 71.902 108.773 69.918 106.297 c 69.453 105.715 68.293 104.555 67.711
 104.09 c 65.207 102.086 62.32 100.992 58.941 100.77 c 58.418 100.734 l 
58.418 107.926 l h
62.25 111.758 m S Q
0.168627 0 0 rg
46.953 726.304 m 50.543 726.304 l 54.375 730.132 l 58.207 733.964 l 58.207
 741.155 l 57.633 741.12 l 54.738 740.944 52.223 740.105 49.906 738.542 
c 46.324 736.124 43.949 732.206 43.445 727.87 c 43.398 727.491 43.363 726.987
 43.363 726.745 c 43.363 726.304 l h
46.953 726.304 m f
0 g
q 1 0 0 -1 0 841.889771 cm
46.953 115.586 m 50.543 115.586 l 54.375 111.758 l 58.207 107.926 l 58.207
 100.734 l 57.633 100.77 l 54.738 100.945 52.223 101.785 49.906 103.348 
c 46.324 105.766 43.949 109.684 43.445 114.02 c 43.398 114.398 43.363 114.902
 43.363 115.145 c 43.363 115.586 l h
46.953 115.586 m S Q
1 g
88.645 740.816 m 80.559 736.148 77.785 725.808 82.453 717.722 c 87.125 
709.636 97.465 706.862 105.551 711.534 c 113.637 716.202 116.41 726.542 
111.738 734.628 c 107.07 742.714 96.73 745.487 88.645 740.816 c h
88.645 740.816 m f
0 g
0.194856 w
q -0.57735 1 -1 -0.57735 0 841.889771 cm
-114.19 -22.717 m -114.19 -14.631 -120.743 -8.074 -128.829 -8.074 c -136.917
 -8.076 -143.474 -14.63 -143.471 -22.718 c -143.472 -30.803 -136.918 -37.361
 -128.83 -37.358 c -120.745 -37.358 -114.187 -30.804 -114.19 -22.717 c h
-114.19 -22.717 m S Q
1 g
89.551 739.245 m 82.332 735.077 79.859 725.847 84.027 718.628 c 88.195 
711.409 97.426 708.937 104.645 713.105 c 111.863 717.273 114.336 726.503
 110.168 733.722 c 106 740.941 96.77 743.413 89.551 739.245 c h
89.551 739.245 m f
0 g
q -0.57735 1 -1 -0.57735 0 841.889771 cm
-115.76 -22.717 m -115.76 -15.498 -121.612 -9.646 -128.831 -9.647 c -136.05
 -9.647 -141.901 -15.499 -141.901 -22.718 c -141.901 -29.937 -136.049 -35.788
 -128.83 -35.788 c -121.611 -35.788 -115.76 -29.936 -115.76 -22.717 c h
-115.76 -22.717 m S Q
0.178429 w
q 1 0 0 -1 0 841.889771 cm
97.098 123.324 m 97.098 130.863 l S Q
0.140316 w
q 1 1 -1 1 0 841.889771 cm
-13.168 -110.266 m -5.449 -110.266 l -5.449 -102.547 l -13.168 -102.547
 l h
-13.168 -110.266 m S Q
0.193413 w
q 1 0 0 -1 0 841.889771 cm
89.516 115.715 m 81.977 115.715 l S Q
0.162758 w
q 1 0 0 -1 0 841.889771 cm
104.797 115.715 m 112.137 115.715 l S Q
0.17797 w
q 1 0 0 -1 0 841.889771 cm
97.098 108.043 m 97.098 100.703 l S Q
0.501961 0 0 rg
82.137 725.8 m 82.152 725.659 82.18 725.3 82.195 724.995 c 82.332 722.616
 83.238 720.011 84.684 717.859 c 85.312 716.921 85.758 716.378 86.52 715.612
 c 89.027 713.101 92.336 711.569 95.906 711.269 c 96.281 711.237 96.672 
711.21 96.773 711.21 c 96.957 711.21 l 96.957 718.39 l 93.129 722.222 l 
89.297 726.054 l 82.113 726.054 l h
82.137 725.8 m f
0 g
0.0533917 w
q 1 0 0 -1 0 841.889771 cm
82.137 116.09 m 82.152 116.23 82.18 116.59 82.195 116.895 c 82.332 119.273
 83.238 121.879 84.684 124.031 c 85.312 124.969 85.758 125.512 86.52 126.277
 c 89.027 128.789 92.336 130.32 95.906 130.621 c 96.281 130.652 96.672 130.68
 96.773 130.68 c 96.957 130.68 l 96.957 123.5 l 93.129 119.668 l 89.297 
115.836 l 82.113 115.836 l h
82.137 116.09 m S Q
0 0 0.501961 rg
95.34 741.03 m 93.613 740.819 92.012 740.339 90.445 739.554 c 86.051 737.359
 83.031 733.206 82.305 728.366 c 82.262 728.077 82.211 727.601 82.195 727.308
 c 82.18 727.015 82.156 726.671 82.141 726.546 c 82.117 726.319 l 89.352
 726.319 l 93.152 730.124 l 96.957 733.929 l 96.957 741.109 l 96.438 741.105
 l 96.152 741.101 95.656 741.066 95.34 741.026 c h
95.34 741.03 m f
0 g
q 1 0 0 -1 0 841.889771 cm
95.34 100.859 m 93.613 101.07 92.012 101.551 90.445 102.336 c 86.051 104.531
 83.031 108.684 82.305 113.523 c 82.262 113.812 82.211 114.289 82.195 114.582
 c 82.18 114.875 82.156 115.219 82.141 115.344 c 82.117 115.57 l 89.352 
115.57 l 93.152 111.766 l 96.957 107.961 l 96.957 100.781 l 96.438 100.785
 l 96.152 100.789 95.656 100.824 95.34 100.863 c h
95.34 100.859 m S Q
0.501961 0.501961 0 rg
101.055 722.222 m 97.227 718.39 l 97.227 711.194 l 97.852 711.234 l 101.043
 711.425 104.039 712.573 106.516 714.554 c 107.098 715.023 108.258 716.179
 108.723 716.765 c 110.727 719.265 111.82 722.155 112.043 725.534 c 112.078
 726.054 l 104.887 726.054 l h
101.055 722.222 m f
0 g
q 1 0 0 -1 0 841.889771 cm
101.055 119.668 m 97.227 123.5 l 97.227 130.695 l 97.852 130.656 l 101.043
 130.465 104.039 129.316 106.516 127.336 c 107.098 126.867 108.258 125.711
 108.723 125.125 c 110.727 122.625 111.82 119.734 112.043 116.355 c 112.078
 115.836 l 104.887 115.836 l h
101.055 119.668 m S Q
0.168627 0 0 rg
97.227 737.519 m 97.227 733.929 l 101.055 730.097 l 104.887 726.269 l 112.078
 726.269 l 112.043 726.843 l 111.867 729.737 111.027 732.249 109.465 734.566
 c 107.047 738.148 103.129 740.523 98.793 741.03 c 98.414 741.073 97.91 
741.109 97.668 741.109 c 97.227 741.109 l h
97.227 737.519 m f
0 g
q 1 0 0 -1 0 841.889771 cm
97.227 104.371 m 97.227 107.961 l 101.055 111.793 l 104.887 115.621 l 112.078
 115.621 l 112.043 115.047 l 111.867 112.152 111.027 109.641 109.465 107.324
 c 107.047 103.742 103.129 101.367 98.793 100.859 c 98.414 100.816 97.91
 100.781 97.668 100.781 c 97.227 100.781 l h
97.227 104.371 m S Q
1 g
150.332 734.628 m 145.664 742.714 135.324 745.487 127.234 740.816 c 119.148
 736.148 116.379 725.808 121.047 717.722 c 125.715 709.636 136.059 706.862
 144.145 711.534 c 152.23 716.202 155 726.542 150.332 734.628 c h
150.332 734.628 m f
0 g
0.194856 w
q 1 0.57735 -0.57735 1 0 841.889771 cm
66.303 -145.542 m 66.304 -137.456 59.75 -130.899 51.659 -130.9 c 43.574
 -130.899 37.019 -137.455 37.019 -145.541 c 37.019 -153.627 43.575 -160.186
 51.663 -160.183 c 59.749 -160.183 66.303 -153.628 66.303 -145.542 c h
66.303 -145.542 m S Q
1 g
148.762 733.722 m 144.594 740.941 135.363 743.413 128.145 739.245 c 120.926
 735.077 118.449 725.847 122.617 718.628 c 126.785 711.409 136.016 708.937
 143.238 713.105 c 150.457 717.273 152.93 726.503 148.762 733.722 c h
148.762 733.722 m f
0 g
q 1 0.57735 -0.57735 1 0 841.889771 cm
64.733 -145.542 m 64.733 -138.323 58.881 -132.471 51.662 -132.472 c 44.443
 -132.472 38.589 -138.322 38.589 -145.541 c 38.589 -152.76 44.441 -158.611
 51.663 -158.613 c 58.882 -158.613 64.733 -152.761 64.733 -145.542 c h
64.733 -145.542 m S Q
0.178429 w
q 1 0 0 -1 0 841.889771 cm
128.082 115.715 m 120.539 115.715 l S Q
0.140316 w
q 1 -1 1 1 0 841.889771 cm
121.844 6.129 m 129.562 6.129 l 129.561 13.846 l 121.844 13.848 l h
121.844 6.129 m S Q
0.193413 w
q 1 0 0 -1 0 841.889771 cm
135.691 108.133 m 135.691 100.594 l S Q
0.162758 w
q 1 0 0 -1 0 841.889771 cm
135.691 123.414 m 135.691 130.754 l S Q
0.17797 w
q 1 0 0 -1 0 841.889771 cm
143.359 115.715 m 150.703 115.715 l S Q
0.501961 0 0 rg
135.316 741.132 m 135.176 741.12 134.812 741.093 134.512 741.077 c 132.133
 740.941 129.523 740.034 127.375 738.589 c 126.438 737.96 125.895 737.515
 125.129 736.753 c 122.613 734.245 121.082 730.937 120.781 727.366 c 120.75
 726.987 120.727 726.601 120.727 726.499 c 120.727 726.316 l 127.906 726.316
 l 131.738 730.144 l 135.57 733.976 l 135.57 741.159 l h
135.316 741.132 m f
0 g
0.0533917 w
q 1 0 0 -1 0 841.889771 cm
135.316 100.758 m 135.176 100.77 134.812 100.797 134.512 100.812 c 132.133
 100.949 129.523 101.855 127.375 103.301 c 126.438 103.93 125.895 104.375
 125.129 105.137 c 122.613 107.645 121.082 110.953 120.781 114.523 c 120.75
 114.902 120.727 115.289 120.727 115.391 c 120.727 115.574 l 127.906 115.574
 l 131.738 111.746 l 135.57 107.914 l 135.57 100.73 l h
135.316 100.758 m S Q
0 0 0.501961 rg
150.543 727.933 m 150.336 729.659 149.852 731.261 149.07 732.827 c 146.875
 737.222 142.723 740.241 137.879 740.968 c 137.594 741.011 137.117 741.058
 136.824 741.077 c 136.531 741.093 136.188 741.116 136.062 741.132 c 135.836
 741.155 l 135.836 733.921 l 139.641 730.116 l 143.445 726.316 l 150.625
 726.316 l 150.617 726.835 l 150.617 727.12 150.582 727.616 150.543 727.933
 c h
150.543 727.933 m f
0 g
q 1 0 0 -1 0 841.889771 cm
150.543 113.957 m 150.336 112.23 149.852 110.629 149.07 109.062 c 146.875
 104.668 142.723 101.648 137.879 100.922 c 137.594 100.879 137.117 100.832
 136.824 100.812 c 136.531 100.797 136.188 100.773 136.062 100.758 c 135.836
 100.734 l 135.836 107.969 l 139.641 111.773 l 143.445 115.574 l 150.625
 115.574 l 150.617 115.055 l 150.617 114.77 150.582 114.273 150.543 113.957
 c h
150.543 113.957 m S Q
0.501961 0.501961 0 rg
131.738 722.218 m 127.906 726.046 l 120.711 726.046 l 120.75 725.421 l 
120.938 722.23 122.086 719.234 124.07 716.757 c 124.535 716.175 125.695 
715.015 126.277 714.546 c 128.781 712.546 131.668 711.452 135.047 711.23
 c 135.57 711.194 l 135.57 718.386 l h
131.738 722.218 m f
0 g
q 1 0 0 -1 0 841.889771 cm
131.738 119.672 m 127.906 115.844 l 120.711 115.844 l 120.75 116.469 l 
120.938 119.66 122.086 122.656 124.07 125.133 c 124.535 125.715 125.695 
126.875 126.277 127.344 c 128.781 129.344 131.668 130.438 135.047 130.66
 c 135.57 130.695 l 135.57 123.504 l h
131.738 119.672 m S Q
0.168627 0 0 rg
147.035 726.046 m 143.445 726.046 l 139.613 722.214 l 135.781 718.386 l
 135.781 711.194 l 136.355 711.23 l 139.25 711.405 141.766 712.245 144.082
 713.808 c 147.664 716.226 150.039 720.144 150.543 724.48 c 150.59 724.855
 150.625 725.362 150.625 725.605 c 150.625 726.046 l h
147.035 726.046 m f
0 g
q 1 0 0 -1 0 841.889771 cm
147.035 115.844 m 143.445 115.844 l 139.613 119.676 l 135.781 123.504 l
 135.781 130.695 l 136.355 130.66 l 139.25 130.484 141.766 129.645 144.082
 128.082 c 147.664 125.664 150.039 121.746 150.543 117.41 c 150.59 117.035
 150.625 116.527 150.625 116.285 c 150.625 115.844 l h
147.035 115.844 m S Q
Q Q
showpage
%%Trailer
end restore
%%EOF
