%!PS-Adobe-3.0 EPSF-3.0
%%Creator: cairo 1.14.6 (http://cairographics.org)
%%CreationDate: Mon Sep  4 13:37:11 2017
%%Pages: 1
%%DocumentData: Clean7Bit
%%LanguageLevel: 2
%%BoundingBox: 19 120 65 139
%%EndComments
%%BeginProlog
save
50 dict begin
/q { gsave } bind def
/Q { grestore } bind def
/cm { 6 array astore concat } bind def
/w { setlinewidth } bind def
/J { setlinecap } bind def
/j { setlinejoin } bind def
/M { setmiterlimit } bind def
/d { setdash } bind def
/m { moveto } bind def
/l { lineto } bind def
/c { curveto } bind def
/h { closepath } bind def
/re { exch dup neg 3 1 roll 5 3 roll moveto 0 rlineto
      0 exch rlineto 0 rlineto closepath } bind def
/S { stroke } bind def
/f { fill } bind def
/f* { eofill } bind def
/n { newpath } bind def
/W { clip } bind def
/W* { eoclip } bind def
/BT { } bind def
/ET { } bind def
/pdfmark where { pop globaldict /?pdfmark /exec load put }
    { globaldict begin /?pdfmark /pop load def /pdfmark
    /cleartomark load def end } ifelse
/BDC { mark 3 1 roll /BDC pdfmark } bind def
/EMC { mark /EMC pdfmark } bind def
/cairo_store_point { /cairo_point_y exch def /cairo_point_x exch def } def
/Tj { show currentpoint cairo_store_point } bind def
/TJ {
  {
    dup
    type /stringtype eq
    { show } { -0.001 mul 0 cairo_font_matrix dtransform rmoveto } ifelse
  } forall
  currentpoint cairo_store_point
} bind def
/cairo_selectfont { cairo_font_matrix aload pop pop pop 0 0 6 array astore
    cairo_font exch selectfont cairo_point_x cairo_point_y moveto } bind def
/Tf { pop /cairo_font exch def /cairo_font_matrix where
      { pop cairo_selectfont } if } bind def
/Td { matrix translate cairo_font_matrix matrix concatmatrix dup
      /cairo_font_matrix exch def dup 4 get exch 5 get cairo_store_point
      /cairo_font where { pop cairo_selectfont } if } bind def
/Tm { 2 copy 8 2 roll 6 array astore /cairo_font_matrix exch def
      cairo_store_point /cairo_font where { pop cairo_selectfont } if } bind def
/g { setgray } bind def
/rg { setrgbcolor } bind def
/d1 { setcachedevice } bind def
%%EndProlog
%%BeginSetup
%%EndSetup
%%Page: 1 1
%%BeginPageSetup
%%PageBoundingBox: 19 120 65 139
%%EndPageSetup
q 19 120 46 19 rectclip q
0.901961 g
61.75 129.281 m 61.75 129.281 61.414 128.406 60.266 126.633 c 59.117 124.859
 57.785 123.355 57.773 123.336 c 58.164 122.98 58.402 122.781 58.859 122.488
 c 60.215 121.617 62.91 126.645 62.906 126.707 c h
61.75 129.281 m f
0 g
0.297307 w
1 J
0 j
[] 0.0 d
4 M q 1 0 0 -1 0 202.5 cm
61.75 73.219 m 61.75 73.219 61.414 74.094 60.266 75.867 c 59.117 77.641
 57.785 79.145 57.773 79.164 c 58.164 79.52 58.402 79.719 58.859 80.012 
c 60.215 80.883 62.91 75.855 62.906 75.793 c h
61.75 73.219 m S Q
0 0.501961 0.501961 rg
59.586 124.035 m 59.586 124.012 l 60.191 123.57 60.414 123.977 60.629 124.316
 c 60.82 129.406 l 60.555 129.023 60.852 129.406 60.852 129.406 c 60.527
 129.023 60.582 128.805 59.828 129.273 c 59.82 129.246 l 59.598 124.027 
l f*
0 g
q 1 0 0 -1 0 202.5 cm
59.586 78.465 m 59.586 78.488 l 60.191 78.93 60.414 78.523 60.629 78.184
 c 60.82 73.094 l 60.555 73.477 60.852 73.094 60.852 73.094 c 60.527 73.477
 60.582 73.695 59.828 73.227 c 59.82 73.254 l 59.598 78.473 l S Q
0.901961 g
42.887 129.758 m 42.887 129.758 43.43 131.684 44.52 133.27 c 45.609 134.855
 47.145 136 47.172 136.031 c 47.137 136.098 46.027 136.578 45.516 136.703
 c 43.809 137.117 41.543 132.938 41.504 132.934 c 42.848 129.746 l f*
0 g
q 1 0 0 -1 0 202.5 cm
42.887 72.742 m 42.887 72.742 43.43 70.816 44.52 69.23 c 45.609 67.645 
47.145 66.5 47.172 66.469 c 47.137 66.402 46.027 65.922 45.516 65.797 c 
43.809 65.383 41.543 69.562 41.504 69.566 c 42.848 72.754 l S Q
0.501961 0.501961 0 rg
55.633 126.605 m 54.637 128.68 l 54.645 128.672 l 54.652 129.996 l 54.656
 130 l 55.266 130.621 55.359 130.027 55.664 129.809 c 55.664 129.809 55.359
 130.027 55.668 129.801 c h
55.633 126.605 m f*
0 g
q 1 0 0 -1 0 202.5 cm
55.633 75.895 m 54.637 73.82 l 54.645 73.828 l 54.652 72.504 l 54.656 72.5
 l 55.266 71.879 55.359 72.473 55.664 72.691 c 55.664 72.691 55.359 72.473
 55.668 72.699 c h
55.633 75.895 m S Q
0.501961 0 0 rg
57.113 124.203 m 58.012 123.141 l 58.133 129.445 l 58.133 129.434 l 57.254
 129.434 l 57.258 129.434 l h
57.113 124.203 m f*
0 g
1 j
q 1 0 0 -1 0 202.5 cm
57.113 78.297 m 58.012 79.359 l 58.133 73.055 l 58.133 73.066 l 57.254 
73.066 l 57.258 73.066 l h
57.113 78.297 m S Q
0.901961 g
54.176 129.812 m 54.176 129.812 54.719 131.742 55.809 133.324 c 56.898 
134.91 58.434 136.055 58.465 136.09 c 58.43 136.152 57.316 136.633 56.805
 136.758 c 55.098 137.176 52.832 132.996 52.793 132.988 c 54.137 129.801
 l f*
0 g
0 j
q 1 0 0 -1 0 202.5 cm
54.176 72.688 m 54.176 72.688 54.719 70.758 55.809 69.176 c 56.898 67.59
 58.434 66.445 58.465 66.41 c 58.43 66.348 57.316 65.867 56.805 65.742 c
 55.098 65.324 52.832 69.504 52.793 69.512 c 54.137 72.699 l S Q
1 g
64.5 131.836 m 64.129 133.566 61.867 136.703 60.406 137.219 c 58.699 137.66
 57.387 137.578 56.203 137.105 c 53.41 134.605 53.727 134.367 52.805 132.996
 c 52.832 132.996 54.922 137.242 56.805 136.758 c 59.305 136.113 61.09 134.043
 62.133 131.109 c h
64.5 131.836 m f
0 g
q 1 0 0 -1 0 202.5 cm
64.5 70.664 m 64.129 68.934 61.867 65.797 60.406 65.281 c 58.699 64.84 
57.387 64.922 56.203 65.395 c 53.41 67.895 53.727 68.133 52.805 69.504 c
 52.832 69.504 54.922 65.258 56.805 65.742 c 59.305 66.387 61.09 68.457 
62.133 71.391 c h
64.5 70.664 m S Q
1 g
62.91 126.688 m 62.91 126.688 60.25 121.672 58.859 122.488 c 54.801 124.871
 53.098 135.527 49.113 137.16 c 47.41 137.605 46.098 137.523 44.914 137.051
 c 42.121 134.551 42.438 134.309 41.512 132.938 c 41.543 132.938 43.633 
137.184 45.516 136.703 c 51.703 135.125 50.172 127.961 56.07 121.809 c 56.746
 121.387 57.855 121.309 59.398 121.715 c 60.227 121.695 61.5 124.652 62.91
 126.688 c h
62.91 126.688 m f
0 g
q 1 0 0 -1 0 202.5 cm
62.91 75.812 m 62.91 75.812 60.25 80.828 58.859 80.012 c 54.801 77.629 
53.098 66.973 49.113 65.34 c 47.41 64.895 46.098 64.977 44.914 65.449 c 
42.121 67.949 42.438 68.191 41.512 69.562 c 41.543 69.562 43.633 65.316 
45.516 65.797 c 51.703 67.375 50.172 74.539 56.07 80.691 c 56.746 81.113
 57.855 81.191 59.398 80.785 c 60.227 80.805 61.5 77.848 62.91 75.812 c 
h
62.91 75.812 m S Q
0.501961 0.501961 0 rg
59.828 129.273 m 60.574 128.777 60.5 129.023 60.828 129.406 c 60.828 129.406
 60.5 129.023 60.82 129.406 c 61.121 133.234 l 61.152 133.242 60.957 133.535
 60.703 133.902 c 60.449 134.273 60.137 134.715 60.094 134.691 c h
59.828 129.273 m f*
0 g
q 1 0 0 -1 0 202.5 cm
59.828 73.227 m 60.574 73.723 60.5 73.477 60.828 73.094 c 60.828 73.094
 60.5 73.477 60.82 73.094 c 61.121 69.266 l 61.152 69.258 60.957 68.965 
60.703 68.598 c 60.449 68.227 60.137 67.785 60.094 67.809 c h
59.828 73.227 m S Q
0 0 0.501961 rg
58.133 129.445 m 57.254 129.434 l 57.352 136.555 l 58.293 136.148 l h
58.133 129.445 m f*
0 g
q 1 0 0 -1 0 202.5 cm
58.133 73.055 m 57.254 73.066 l 57.352 65.945 l 58.293 66.352 l h
58.133 73.055 m S Q
0 0.501961 0.501961 rg
54.68 130 m 55.262 130.617 55.359 129.91 55.664 129.762 c 55.664 129.762
 55.359 129.91 55.668 129.754 c 55.684 135.012 l 55.375 135.211 55.68 135.016
 55.68 135.016 c 55.375 135.211 55.016 135.293 54.652 134.852 c 54.652 134.836
 l h
54.68 130 m f*
0 g
q 1 0 0 -1 0 202.5 cm
54.68 72.5 m 55.262 71.883 55.359 72.59 55.664 72.738 c 55.664 72.738 55.359
 72.59 55.668 72.746 c 55.684 67.488 l 55.375 67.289 55.68 67.484 55.68 
67.484 c 55.375 67.289 55.016 67.207 54.652 67.648 c 54.652 67.664 l h
54.68 72.5 m S Q
0.901961 g
51.258 129.934 m 51.258 129.934 50.316 127.887 49.168 126.113 c 48.02 124.34
 46.688 122.84 46.676 122.816 c 47.066 122.465 47.305 122.266 47.762 121.969
 c 49.117 121.098 52.418 127.105 52.414 127.078 c h
51.258 129.934 m f
0 g
q 1 0 0 -1 0 202.5 cm
51.258 72.566 m 51.258 72.566 50.316 74.613 49.168 76.387 c 48.02 78.16
 46.688 79.66 46.676 79.684 c 47.066 80.035 47.305 80.234 47.762 80.531 
c 49.117 81.402 52.418 75.395 52.414 75.422 c h
51.258 72.566 m S Q
1 g
52.418 127.105 m 52.418 127.105 49.152 121.156 47.762 121.969 c 43.699 
124.352 42 135.008 38.016 136.645 c 36.312 137.086 34.996 137.004 33.816
 136.531 c 31.023 134.031 31.34 133.793 30.414 132.422 c 30.441 132.422 
32.535 136.664 34.418 136.184 c 40.605 134.605 39.074 127.445 44.973 121.289
 c 45.645 120.867 46.754 120.793 48.301 121.195 c 49.125 121.176 51.008 
125.07 52.418 127.105 c h
52.418 127.105 m f
0 g
q 1 0 0 -1 0 202.5 cm
52.418 75.395 m 52.418 75.395 49.152 81.344 47.762 80.531 c 43.699 78.148
 42 67.492 38.016 65.855 c 36.312 65.414 34.996 65.496 33.816 65.969 c 31.023
 68.469 31.34 68.707 30.414 70.078 c 30.441 70.078 32.535 65.836 34.418 
66.316 c 40.605 67.895 39.074 75.055 44.973 81.211 c 45.645 81.633 46.754
 81.707 48.301 81.305 c 49.125 81.324 51.008 77.43 52.418 75.395 c h
52.418 75.395 m S Q
0.501961 0.501961 0 rg
48.727 128.754 m 49.477 128.258 49.402 128.504 49.727 128.887 c 49.727 
128.887 49.402 128.504 49.719 128.887 c 50.023 132.715 l 50.055 132.723 
49.859 133.016 49.602 133.387 c 49.348 133.754 49.035 134.199 48.996 134.172
 c h
48.727 128.754 m f*
0 g
q 1 0 0 -1 0 202.5 cm
48.727 73.746 m 49.477 74.242 49.402 73.996 49.727 73.613 c 49.727 73.613
 49.402 73.996 49.719 73.613 c 50.023 69.785 l 50.055 69.777 49.859 69.484
 49.602 69.113 c 49.348 68.746 49.035 68.301 48.996 68.328 c h
48.727 73.746 m S Q
0 0.501961 0.501961 rg
43.582 129.484 m 44.164 130.098 44.258 129.391 44.562 129.242 c 44.562 
129.242 44.258 129.391 44.57 129.234 c 44.582 134.492 l 44.277 134.691 44.578
 134.496 44.578 134.496 c 44.277 134.691 43.914 134.773 43.555 134.332 c
 43.551 134.316 l h
43.582 129.484 m f*
0 g
q 1 0 0 -1 0 202.5 cm
43.582 73.016 m 44.164 72.402 44.258 73.109 44.562 73.258 c 44.562 73.258
 44.258 73.109 44.57 73.266 c 44.582 68.008 l 44.277 67.809 44.578 68.004
 44.578 68.004 c 44.277 67.809 43.914 67.727 43.555 68.168 c 43.551 68.184
 l h
43.582 73.016 m S Q
0 0 0.501961 rg
47.035 128.926 m 46.152 128.914 l 46.254 136.039 l 47.191 135.629 l h
47.035 128.926 m f*
0 g
q 1 0 0 -1 0 202.5 cm
47.035 73.574 m 46.152 73.586 l 46.254 66.461 l 47.191 66.871 l h
47.035 73.574 m S Q
0 0.501961 0.501961 rg
48.488 123.516 m 48.488 123.496 l 49.09 123.051 49.312 123.457 49.527 123.797
 c 49.719 128.887 l 49.457 128.504 49.754 128.887 49.754 128.887 c 49.43
 128.504 49.48 128.285 48.727 128.754 c 48.723 128.727 l 48.496 123.508 
l f*
0 g
q 1 0 0 -1 0 202.5 cm
48.488 78.984 m 48.488 79.004 l 49.09 79.449 49.312 79.043 49.527 78.703
 c 49.719 73.613 l 49.457 73.996 49.754 73.613 49.754 73.613 c 49.43 73.996
 49.48 74.215 48.727 73.746 c 48.723 73.773 l 48.496 78.992 l S Q
0 0 0.501961 rg
50.914 127.418 m 51.234 127.133 51.73 127.238 51.973 127.559 c 51.973 127.559
 51.73 127.238 51.988 127.602 c 52.035 127.98 l 52.043 127.977 l 51.094 
130.293 l 51.086 130.293 l h
50.914 127.418 m f
0 g
q 1 0 0 -1 0 202.5 cm
50.914 75.082 m 51.234 75.367 51.73 75.262 51.973 74.941 c 51.973 74.941
 51.73 75.262 51.988 74.898 c 52.035 74.52 l 52.043 74.523 l 51.094 72.207
 l 51.086 72.207 l h
50.914 75.082 m S Q
0.901961 g
31.785 129.238 m 31.785 129.238 32.332 131.168 33.422 132.75 c 34.512 134.336
 36.047 135.48 36.074 135.516 c 36.039 135.578 34.926 136.059 34.418 136.184
 c 32.711 136.602 30.441 132.422 30.406 132.414 c 31.75 129.227 l f*
0 g
q 1 0 0 -1 0 202.5 cm
31.785 73.262 m 31.785 73.262 32.332 71.332 33.422 69.75 c 34.512 68.164
 36.047 67.02 36.074 66.984 c 36.039 66.922 34.926 66.441 34.418 66.316 
c 32.711 65.898 30.441 70.078 30.406 70.086 c 31.75 73.273 l S Q
0.501961 0.501961 0 rg
44.535 126.086 m 43.535 128.164 l 43.543 128.152 l 43.551 129.477 l 43.559
 129.484 l 44.168 130.102 44.258 129.508 44.562 129.289 c 44.562 129.289
 44.258 129.508 44.57 129.281 c h
44.535 126.086 m f*
0 g
q 1 0 0 -1 0 202.5 cm
44.535 76.414 m 43.535 74.336 l 43.543 74.348 l 43.551 73.023 l 43.559 
73.016 l 44.168 72.398 44.258 72.992 44.562 73.211 c 44.562 73.211 44.258
 72.992 44.57 73.219 c h
44.535 76.414 m S Q
0.501961 0 0 rg
46.016 123.684 m 46.91 122.621 l 47.035 128.926 l 47.031 128.914 l 46.152
 128.914 l 46.156 128.914 l h
46.016 123.684 m f*
0 g
1 j
q 1 0 0 -1 0 202.5 cm
46.016 78.816 m 46.91 79.879 l 47.035 73.574 l 47.031 73.586 l 46.152 73.586
 l 46.156 73.586 l h
46.016 78.816 m S Q
0.901961 g
40.066 129.879 m 40.066 129.879 39.125 127.832 37.977 126.059 c 36.828 
124.285 35.496 122.785 35.484 122.762 c 35.875 122.41 36.113 122.211 36.57
 121.914 c 37.926 121.043 41.227 127.051 41.223 127.023 c h
40.066 129.879 m f
0 g
0 j
q 1 0 0 -1 0 202.5 cm
40.066 72.621 m 40.066 72.621 39.125 74.668 37.977 76.441 c 36.828 78.215
 35.496 79.715 35.484 79.738 c 35.875 80.09 36.113 80.289 36.57 80.586 c
 37.926 81.457 41.227 75.449 41.223 75.477 c h
40.066 72.621 m S Q
1 g
41.227 127.051 m 41.227 127.051 37.961 121.102 36.57 121.914 c 32.508 124.297
 30.809 134.953 26.824 136.59 c 25.121 137.031 23.805 136.949 22.625 136.477
 c 19.832 133.977 21.02 135.391 20.094 134.023 c 20.125 134.023 21.344 136.609
 23.227 136.129 c 29.414 134.551 27.883 127.391 33.781 121.234 c 34.457 
120.812 35.562 120.738 37.109 121.141 c 37.934 121.121 39.816 125.016 41.227
 127.051 c h
41.227 127.051 m f
0 g
q 1 0 0 -1 0 202.5 cm
41.227 75.449 m 41.227 75.449 37.961 81.398 36.57 80.586 c 32.508 78.203
 30.809 67.547 26.824 65.91 c 25.121 65.469 23.805 65.551 22.625 66.023 
c 19.832 68.523 21.02 67.109 20.094 68.477 c 20.125 68.477 21.344 65.891
 23.227 66.371 c 29.414 67.949 27.883 75.109 33.781 81.266 c 34.457 81.688
 35.562 81.762 37.109 81.359 c 37.934 81.379 39.816 77.484 41.227 75.449
 c h
41.227 75.449 m S Q
0.501961 0.501961 0 rg
37.535 128.699 m 38.285 128.203 38.211 128.449 38.535 128.832 c 38.535 
128.832 38.211 128.449 38.527 128.832 c 38.832 132.66 l 38.863 132.668 38.668
 132.961 38.414 133.332 c 38.156 133.699 37.844 134.145 37.805 134.117 c
 h
37.535 128.699 m f*
0 g
q 1 0 0 -1 0 202.5 cm
37.535 73.801 m 38.285 74.297 38.211 74.051 38.535 73.668 c 38.535 73.668
 38.211 74.051 38.527 73.668 c 38.832 69.84 l 38.863 69.832 38.668 69.539
 38.414 69.168 c 38.156 68.801 37.844 68.355 37.805 68.383 c h
37.535 73.801 m S Q
0 0.501961 0.501961 rg
32.391 129.43 m 32.973 130.043 33.07 129.336 33.371 129.188 c 33.371 129.188
 33.07 129.336 33.379 129.18 c 33.391 134.438 l 33.086 134.637 33.387 134.441
 33.387 134.441 c 33.086 134.637 32.723 134.719 32.363 134.277 c 32.359 
134.262 l h
32.391 129.43 m f*
0 g
q 1 0 0 -1 0 202.5 cm
32.391 73.07 m 32.973 72.457 33.07 73.164 33.371 73.312 c 33.371 73.312
 33.07 73.164 33.379 73.32 c 33.391 68.062 l 33.086 67.863 33.387 68.059
 33.387 68.059 c 33.086 67.863 32.723 67.781 32.363 68.223 c 32.359 68.238
 l h
32.391 73.07 m S Q
0 0 0.501961 rg
35.844 128.871 m 34.965 128.859 l 35.062 135.984 l 36.004 135.574 l h
35.844 128.871 m f*
0 g
q 1 0 0 -1 0 202.5 cm
35.844 73.629 m 34.965 73.641 l 35.062 66.516 l 36.004 66.926 l h
35.844 73.629 m S Q
0 0.501961 0.501961 rg
37.297 123.461 m 37.297 123.441 l 37.898 122.996 38.121 123.402 38.336 
123.742 c 38.527 128.832 l 38.266 128.449 38.562 128.832 38.562 128.832 
c 38.238 128.449 38.289 128.23 37.535 128.699 c 37.531 128.672 l 37.305 
123.453 l f*
0 g
q 1 0 0 -1 0 202.5 cm
37.297 79.039 m 37.297 79.059 l 37.898 79.504 38.121 79.098 38.336 78.758
 c 38.527 73.668 l 38.266 74.051 38.562 73.668 38.562 73.668 c 38.238 74.051
 38.289 74.27 37.535 73.801 c 37.531 73.828 l 37.305 79.047 l S Q
0 0 0.501961 rg
39.723 127.363 m 40.043 127.078 40.539 127.184 40.785 127.504 c 40.785 
127.504 40.539 127.184 40.797 127.547 c 40.844 127.926 l 40.852 127.922 
l 39.902 130.238 l 39.895 130.238 l h
39.723 127.363 m f
0 g
q 1 0 0 -1 0 202.5 cm
39.723 75.137 m 40.043 75.422 40.539 75.316 40.785 74.996 c 40.785 74.996
 40.539 75.316 40.797 74.953 c 40.844 74.574 l 40.852 74.578 l 39.902 72.262
 l 39.895 72.262 l h
39.723 75.137 m S Q
0.501961 0.501961 0 rg
33.344 126.031 m 32.348 128.109 l 32.352 128.098 l 32.359 129.422 l 32.367
 129.43 l 32.977 130.047 33.07 129.453 33.371 129.234 c 33.371 129.234 33.07
 129.453 33.379 129.227 c h
33.344 126.031 m f*
0 g
q 1 0 0 -1 0 202.5 cm
33.344 76.469 m 32.348 74.391 l 32.352 74.402 l 32.359 73.078 l 32.367 
73.07 l 32.977 72.453 33.07 73.047 33.371 73.266 c 33.371 73.266 33.07 73.047
 33.379 73.273 c h
33.344 76.469 m S Q
0.501961 0 0 rg
34.824 123.629 m 35.723 122.566 l 35.844 128.871 l 35.84 128.859 l 34.965
 128.859 l 34.969 128.859 l h
34.824 123.629 m f*
0 g
1 j
q 1 0 0 -1 0 202.5 cm
34.824 78.871 m 35.723 79.934 l 35.844 73.629 l 35.84 73.641 l 34.965 73.641
 l 34.969 73.641 l h
34.824 78.871 m S Q
0.92549 g
28.879 129.723 m 28.879 129.723 27.938 127.68 26.789 125.906 c 25.641 124.133
 24.309 122.629 24.297 122.609 c 24.688 122.254 24.926 122.055 25.383 121.762
 c 26.738 120.891 30.039 126.898 30.039 126.867 c h
28.879 129.723 m f
0 g
0 j
q 1 0 0 -1 0 202.5 cm
28.879 72.777 m 28.879 72.777 27.938 74.82 26.789 76.594 c 25.641 78.367
 24.309 79.871 24.297 79.891 c 24.688 80.246 24.926 80.445 25.383 80.738
 c 26.738 81.609 30.039 75.602 30.039 75.633 c h
28.879 72.777 m S Q
0.501961 0.501961 0 rg
26.352 128.547 m 27.098 128.051 27.023 128.297 27.348 128.68 c 27.348 128.68
 27.023 128.297 27.344 128.68 c 27.645 132.508 l 27.676 132.516 27.48 132.809
 27.227 133.176 c 26.969 133.547 26.656 133.988 26.617 133.965 c h
26.352 128.547 m f*
0 g
q 1 0 0 -1 0 202.5 cm
26.352 73.953 m 27.098 74.449 27.023 74.203 27.348 73.82 c 27.348 73.82
 27.023 74.203 27.344 73.82 c 27.645 69.992 l 27.676 69.984 27.48 69.691
 27.227 69.324 c 26.969 68.953 26.656 68.512 26.617 68.535 c h
26.352 73.953 m S Q
0 0.501961 0.501961 rg
26.109 123.309 m 26.109 123.285 l 26.715 122.844 26.938 123.25 27.148 123.59
 c 27.344 128.68 l 27.078 128.297 27.375 128.68 27.375 128.68 c 27.051 128.297
 27.102 128.078 26.352 128.547 c 26.344 128.52 l 26.117 123.301 l f*
0 g
q 1 0 0 -1 0 202.5 cm
26.109 79.191 m 26.109 79.215 l 26.715 79.656 26.938 79.25 27.148 78.91
 c 27.344 73.82 l 27.078 74.203 27.375 73.82 27.375 73.82 c 27.051 74.203
 27.102 74.422 26.352 73.953 c 26.344 73.98 l 26.117 79.199 l S Q
0 0 0.501961 rg
28.535 127.211 m 28.859 126.926 29.352 127.031 29.598 127.348 c 29.598 
127.348 29.352 127.031 29.613 127.395 c 29.66 127.77 l 29.664 127.77 l 28.719
 130.086 l 28.707 130.082 l h
28.535 127.211 m f
0 g
q 1 0 0 -1 0 202.5 cm
28.535 75.289 m 28.859 75.574 29.352 75.469 29.598 75.152 c 29.598 75.152
 29.352 75.469 29.613 75.105 c 29.66 74.73 l 29.664 74.73 l 28.719 72.414
 l 28.707 72.418 l h
28.535 75.289 m S Q
0.501961 0 0 rg
23.637 123.477 m 24.535 122.414 l 24.656 128.719 l 24.656 128.703 l 23.777
 128.703 l 23.781 128.703 l h
23.637 123.477 m f*
0 g
1 j
q 1 0 0 -1 0 202.5 cm
23.637 79.023 m 24.535 80.086 l 24.656 73.781 l 24.656 73.797 l 23.777 
73.797 l 23.781 73.797 l h
23.637 79.023 m S Q
0.901961 g
21.781 131.91 m 22.871 133.492 24.855 135.426 24.883 135.461 c 24.848 135.523
 23.738 136.004 23.227 136.129 c 21.52 136.547 20.16 134.035 20.125 134.027
 c h
21.781 131.91 m f*
0 g
0 j
q 1 0 0 -1 0 202.5 cm
21.781 70.59 m 22.871 69.008 24.855 67.074 24.883 67.039 c 24.848 66.977
 23.738 66.496 23.227 66.371 c 21.52 65.953 20.16 68.465 20.125 68.473 c
 h
21.781 70.59 m S Q
1 g
30.039 126.898 m 30.039 126.898 26.828 121.047 25.383 121.762 c 24.301 
122.297 22.602 125.434 21.672 126.938 c 19.664 125.039 l 20.625 123.328 
21.664 121.918 22.594 121.082 c 23.27 120.656 24.379 120.582 25.922 120.988
 c 26.75 120.969 28.633 124.859 30.039 126.898 c h
30.039 126.898 m f
0 g
q 1 0 0 -1 0 202.5 cm
30.039 75.602 m 30.039 75.602 26.828 81.453 25.383 80.738 c 24.301 80.203
 22.602 77.066 21.672 75.562 c 19.664 77.461 l 20.625 79.172 21.664 80.582
 22.594 81.418 c 23.27 81.844 24.379 81.918 25.922 81.512 c 26.75 81.531
 28.633 77.641 30.039 75.602 c h
30.039 75.602 m S Q
0 0 0.501961 rg
24.656 128.719 m 23.777 128.703 l 23.875 135.828 l 24.816 135.422 l h
24.656 128.719 m f*
0 g
q 1 0 0 -1 0 202.5 cm
24.656 73.781 m 23.777 73.797 l 23.875 66.672 l 24.816 67.078 l h
24.656 73.781 m S Q
Q Q
showpage
%%Trailer
end restore
%%EOF
