<?xml version="1.0" encoding="UTF-8" standalone="no"?>
<!-- Created with Inkscape (http://www.inkscape.org/) -->

<svg
   xmlns:ns0="http://www.iki.fi/pav/software/textext/"
   xmlns:dc="http://purl.org/dc/elements/1.1/"
   xmlns:cc="http://creativecommons.org/ns#"
   xmlns:rdf="http://www.w3.org/1999/02/22-rdf-syntax-ns#"
   xmlns:svg="http://www.w3.org/2000/svg"
   xmlns="http://www.w3.org/2000/svg"
   xmlns:sodipodi="http://sodipodi.sourceforge.net/DTD/sodipodi-0.dtd"
   xmlns:inkscape="http://www.inkscape.org/namespaces/inkscape"
   sodipodi:docname="generative-model.svg"
   inkscape:version="0.92.2 (unknown)"
   id="svg8"
   version="1.1"
   viewBox="0 0 210 297"
   height="297mm"
   width="210mm">
  <sodipodi:namedview
     inkscape:window-maximized="1"
     inkscape:window-y="18"
     inkscape:window-x="49"
     inkscape:window-height="1182"
     inkscape:window-width="1871"
     showgrid="true"
     inkscape:current-layer="layer1"
     inkscape:document-units="mm"
     inkscape:cy="891.25633"
     inkscape:cx="341.57338"
     inkscape:zoom="0.98994949"
     inkscape:pageshadow="2"
     inkscape:pageopacity="0.0"
     borderopacity="1.0"
     bordercolor="#666666"
     pagecolor="#ffffff"
     id="base">
    <inkscape:grid
       id="grid815"
       type="xygrid" />
  </sodipodi:namedview>
  <defs
     id="defs2" />
  <metadata
     id="metadata5">
    <rdf:RDF>
      <cc:Work
         rdf:about="">
        <dc:format>image/svg+xml</dc:format>
        <dc:type
           rdf:resource="http://purl.org/dc/dcmitype/StillImage" />
        <dc:title />
      </cc:Work>
    </rdf:RDF>
  </metadata>
  <g
     id="layer1"
     inkscape:groupmode="layer"
     inkscape:label="Layer 1">
    <ellipse
       ry="5.7144284"
       rx="5.7144289"
       cy="49.811653"
       cx="72.898331"
       id="path817-3-1-3"
       style="opacity:1;fill:none;fill-opacity:1;stroke:#000000;stroke-width:0.57114285;stroke-miterlimit:4;stroke-dasharray:none;stroke-dashoffset:0;stroke-opacity:1" />
    <g
       style="font-style:normal;font-variant:normal;font-weight:normal;font-stretch:normal;letter-spacing:normal;word-spacing:normal;text-anchor:start;fill:#000000;fill-opacity:1;fill-rule:evenodd;stroke:#000000;stroke-linecap:butt;stroke-linejoin:miter;stroke-miterlimit:10.43299961;stroke-dasharray:none;stroke-dashoffset:0;stroke-opacity:1"
       ns0:preamble="/home/nsrinivasan7/.config/inkscape/extensions/default_packages.tex"
       ns0:text="$c$"
       word-spacing="normal"
       letter-spacing="normal"
       font-size-adjust="none"
       font-stretch="normal"
       font-weight="normal"
       font-variant="normal"
       font-style="normal"
       stroke-miterlimit="10.433"
       xml:space="preserve"
       transform="matrix(1,0,0,-1,-78.156667,709.19166)"
       id="g2658"><path
         id="path2656"
         style="font-style:normal;font-variant:normal;font-weight:normal;font-stretch:normal;letter-spacing:normal;word-spacing:normal;text-anchor:start;fill:#000000;fill-opacity:1;fill-rule:evenodd;stroke:#000000;stroke-width:0;stroke-linecap:butt;stroke-linejoin:miter;stroke-miterlimit:10.43299961;stroke-dasharray:none;stroke-dashoffset:0;stroke-opacity:1"
         word-spacing="normal"
         stroke-miterlimit="10.433"
         letter-spacing="normal"
         font-weight="normal"
         font-variant="normal"
         font-style="normal"
         font-stretch="normal"
         font-size-adjust="none"
         d="m 152.65,661.02 h -0.02 -0.03 -0.03 -0.03 l -0.03,-0.01 h -0.03 -0.01 -0.01 L 152.44,661 h -0.01 -0.02 l -0.01,-0.01 h -0.01 l -0.02,-0.01 h -0.01 l -0.01,-0.01 h -0.02 l -0.01,-0.01 -0.01,-0.01 -0.01,-0.01 -0.02,-0.01 -0.01,-0.01 -0.01,-0.01 -0.02,-0.01 -0.01,-0.01 -0.01,-0.01 c -0.16,-0.15 -0.18,-0.32 -0.18,-0.39 0,-0.24 0.18,-0.35 0.37,-0.35 0.29,0 0.55,0.24 0.55,0.64 0,0.49 -0.46,0.86 -1.17,0.86 -1.35,0 -2.67,-1.43 -2.67,-2.83 0,-0.9 0.58,-1.69 1.61,-1.69 1.43,0 2.26,1.06 2.26,1.18 0,0.06 -0.06,0.13 -0.12,0.13 -0.05,0 -0.07,-0.02 -0.13,-0.1 -0.78,-0.99 -1.87,-0.99 -1.99,-0.99 -0.63,0 -0.89,0.49 -0.89,1.09 0,0.41 0.19,1.37 0.53,1.99 0.31,0.57 0.86,1 1.41,1 0.34,0 0.72,-0.13 0.85,-0.4 z"
         inkscape:connector-curvature="0" /></g>    <g
       id="g6724">
      <g
         transform="translate(81.055632,-35.506593)"
         id="g3396">
        <ellipse
           ry="5.7144284"
           rx="5.7144289"
           cy="155.18098"
           cx="-6.2044582"
           id="path817-3"
           style="opacity:1;fill:none;fill-opacity:1;stroke:#000000;stroke-width:0.57114285;stroke-miterlimit:4;stroke-dasharray:none;stroke-dashoffset:0;stroke-opacity:1" />
        <g
           style="font-style:normal;font-variant:normal;font-weight:normal;font-stretch:normal;letter-spacing:normal;word-spacing:normal;text-anchor:start;fill:#000000;fill-opacity:1;fill-rule:evenodd;stroke:#000000;stroke-linecap:butt;stroke-linejoin:miter;stroke-miterlimit:10.43299961;stroke-dasharray:none;stroke-dashoffset:0;stroke-opacity:1"
           ns0:preamble="/home/nsrinivasan7/.config/inkscape/extensions/default_packages.tex"
           ns0:text="$\\mathsf{g}_{2}$"
           word-spacing="normal"
           letter-spacing="normal"
           font-size-adjust="none"
           font-stretch="normal"
           font-weight="normal"
           font-variant="normal"
           font-style="normal"
           stroke-miterlimit="10.433"
           xml:space="preserve"
           transform="matrix(0.56995439,0,0,-0.56995439,-93.467324,530.4817)"
           id="g1097"><path
             id="path1093"
             style="font-style:normal;font-variant:normal;font-weight:normal;font-stretch:normal;letter-spacing:normal;word-spacing:normal;text-anchor:start;fill:#000000;fill-opacity:1;fill-rule:evenodd;stroke:#000000;stroke-width:0;stroke-linecap:butt;stroke-linejoin:miter;stroke-miterlimit:10.43299961;stroke-dasharray:none;stroke-dashoffset:0;stroke-opacity:1"
             word-spacing="normal"
             stroke-miterlimit="10.433"
             letter-spacing="normal"
             font-weight="normal"
             font-variant="normal"
             font-style="normal"
             font-stretch="normal"
             font-size-adjust="none"
             d="m 152.22,661.13 h 0.04 0.04 0.05 0.04 l 0.05,0.01 h 0.04 0.05 l 0.05,0.01 0.09,0.01 h 0.05 0.05 0.05 l 0.04,0.01 h 0.05 0.04 c 0.18,0 0.57,-0.03 0.59,-0.03 l -0.11,0.63 c -0.69,0 -1.27,-0.19 -1.57,-0.32 -0.21,0.17 -0.55,0.32 -0.95,0.32 v -0.57 c 0.43,0 0.9,-0.28 0.9,-1.06 0,-0.78 -0.47,-1.05 -0.9,-1.05 v 0 c -0.37,0 -0.89,0.23 -0.89,1.05 0,0.83 0.52,1.06 0.89,1.06 v 0.57 c -0.86,0 -1.58,-0.72 -1.58,-1.63 0,-0.37 0.13,-0.73 0.33,-0.98 -0.29,-0.41 -0.29,-0.8 -0.29,-0.85 0,-0.26 0.09,-0.55 0.26,-0.76 -0.52,-0.31 -0.64,-0.77 -0.64,-1.02 0,-0.75 0.99,-1.35 2.2,-1.35 l 0.01,0.57 c -0.81,0 -1.51,0.31 -1.51,0.78 0,0.02 0,0.67 0.77,0.67 h 0.9 c 0.22,0 1.35,0 1.35,-0.68 0,-0.44 -0.69,-0.77 -1.51,-0.77 l -0.01,-0.57 c 1.23,0 2.21,0.59 2.21,1.35 0,1.39 -1.66,1.39 -2.05,1.39 h -0.88 c -0.13,0 -0.57,0 -0.57,0.53 0,0.11 0.03,0.27 0.11,0.36 0.2,-0.15 0.53,-0.29 0.9,-0.29 0.9,0 1.6,0.74 1.6,1.62 0,0.48 -0.22,0.85 -0.33,1 z"
             inkscape:connector-curvature="0" /><path
             id="path1095"
             style="font-style:normal;font-variant:normal;font-weight:normal;font-stretch:normal;letter-spacing:normal;word-spacing:normal;text-anchor:start;fill:#000000;fill-opacity:1;fill-rule:evenodd;stroke:#000000;stroke-width:0;stroke-linecap:butt;stroke-linejoin:miter;stroke-miterlimit:10.43299961;stroke-dasharray:none;stroke-dashoffset:0;stroke-opacity:1"
             word-spacing="normal"
             stroke-miterlimit="10.433"
             letter-spacing="normal"
             font-weight="normal"
             font-variant="normal"
             font-style="normal"
             font-stretch="normal"
             font-size-adjust="none"
             d="m 157.22,657.01 h -0.24 c -0.02,-0.15 -0.09,-0.57 -0.18,-0.63 -0.06,-0.05 -0.59,-0.05 -0.69,-0.05 h -1.28 c 0.73,0.65 0.97,0.85 1.39,1.17 0.52,0.42 1,0.85 1,1.51 0,0.84 -0.74,1.36 -1.63,1.36 -0.87,0 -1.45,-0.61 -1.45,-1.25 0,-0.35 0.3,-0.39 0.37,-0.39 0.16,0 0.37,0.12 0.37,0.37 0,0.13 -0.05,0.37 -0.42,0.37 0.22,0.5 0.69,0.65 1.02,0.65 0.7,0 1.06,-0.54 1.06,-1.11 0,-0.61 -0.43,-1.09 -0.65,-1.34 l -1.68,-1.66 c -0.07,-0.06 -0.07,-0.08 -0.07,-0.27 h 2.87 z"
             inkscape:connector-curvature="0" /></g>      </g>
      <g
         transform="translate(64.885611,-20.830389)"
         id="g3402">
        <ellipse
           ry="5.7144284"
           rx="5.7144289"
           cy="154.57874"
           cx="9.9655628"
           id="path817-3-6"
           style="opacity:1;fill:none;fill-opacity:1;stroke:#000000;stroke-width:0.57114285;stroke-miterlimit:4;stroke-dasharray:none;stroke-dashoffset:0;stroke-opacity:1" />
        <g
           id="g1158"
           transform="matrix(0.56995439,0,0,-0.56995439,-77.31441,529.87944)"
           xml:space="preserve"
           stroke-miterlimit="10.433"
           font-style="normal"
           font-variant="normal"
           font-weight="normal"
           font-stretch="normal"
           font-size-adjust="none"
           letter-spacing="normal"
           word-spacing="normal"
           ns0:text="$\\mathsf{g}_{3}$"
           ns0:preamble="/home/nsrinivasan7/.config/inkscape/extensions/default_packages.tex"
           style="font-style:normal;font-variant:normal;font-weight:normal;font-stretch:normal;letter-spacing:normal;word-spacing:normal;text-anchor:start;fill:#000000;fill-opacity:1;fill-rule:evenodd;stroke:#000000;stroke-linecap:butt;stroke-linejoin:miter;stroke-miterlimit:10.43299961;stroke-dasharray:none;stroke-dashoffset:0;stroke-opacity:1"><path
             d="m 152.22,661.13 h 0.04 0.04 0.05 0.04 l 0.05,0.01 h 0.04 0.05 l 0.05,0.01 0.09,0.01 h 0.05 0.05 0.05 l 0.04,0.01 h 0.05 0.04 c 0.18,0 0.57,-0.03 0.59,-0.03 l -0.11,0.63 c -0.69,0 -1.27,-0.19 -1.57,-0.32 -0.21,0.17 -0.55,0.32 -0.95,0.32 v -0.57 c 0.43,0 0.9,-0.28 0.9,-1.06 0,-0.78 -0.47,-1.05 -0.9,-1.05 v 0 c -0.37,0 -0.89,0.23 -0.89,1.05 0,0.83 0.52,1.06 0.89,1.06 v 0.57 c -0.86,0 -1.58,-0.72 -1.58,-1.63 0,-0.37 0.13,-0.73 0.33,-0.98 -0.29,-0.41 -0.29,-0.8 -0.29,-0.85 0,-0.26 0.09,-0.55 0.26,-0.76 -0.52,-0.31 -0.64,-0.77 -0.64,-1.02 0,-0.75 0.99,-1.35 2.2,-1.35 l 0.01,0.57 c -0.81,0 -1.51,0.31 -1.51,0.78 0,0.02 0,0.67 0.77,0.67 h 0.9 c 0.22,0 1.35,0 1.35,-0.68 0,-0.44 -0.69,-0.77 -1.51,-0.77 l -0.01,-0.57 c 1.23,0 2.21,0.59 2.21,1.35 0,1.39 -1.66,1.39 -2.05,1.39 h -0.88 c -0.13,0 -0.57,0 -0.57,0.53 0,0.11 0.03,0.27 0.11,0.36 0.2,-0.15 0.53,-0.29 0.9,-0.29 0.9,0 1.6,0.74 1.6,1.62 0,0.48 -0.22,0.85 -0.33,1 z"
             font-size-adjust="none"
             font-stretch="normal"
             font-style="normal"
             font-variant="normal"
             font-weight="normal"
             letter-spacing="normal"
             stroke-miterlimit="10.433"
             word-spacing="normal"
             style="font-style:normal;font-variant:normal;font-weight:normal;font-stretch:normal;letter-spacing:normal;word-spacing:normal;text-anchor:start;fill:#000000;fill-opacity:1;fill-rule:evenodd;stroke:#000000;stroke-width:0;stroke-linecap:butt;stroke-linejoin:miter;stroke-miterlimit:10.43299961;stroke-dasharray:none;stroke-dashoffset:0;stroke-opacity:1"
             id="path1154"
             inkscape:connector-curvature="0" /><path
             d="m 155.6,658.07 h 0.05 l 0.05,-0.01 h 0.05 l 0.05,-0.01 0.04,-0.01 0.05,-0.01 0.04,-0.01 0.05,-0.02 0.04,-0.02 0.04,-0.02 0.04,-0.02 0.04,-0.03 0.03,-0.03 0.04,-0.03 0.03,-0.03 0.03,-0.03 0.03,-0.04 0.03,-0.04 0.03,-0.04 0.02,-0.04 0.03,-0.05 0.02,-0.04 0.02,-0.05 0.02,-0.05 0.01,-0.06 0.02,-0.05 0.01,-0.06 0.01,-0.06 0.01,-0.06 v -0.07 -0.07 l 0.01,-0.06 c 0,-0.87 -0.51,-1.13 -0.91,-1.13 -0.28,0 -0.89,0.08 -1.19,0.49 0.33,0.02 0.41,0.25 0.41,0.39 0,0.23 -0.17,0.39 -0.39,0.39 -0.19,0 -0.39,-0.12 -0.39,-0.41 0,-0.65 0.73,-1.08 1.57,-1.08 0.97,0 1.64,0.65 1.64,1.35 0,0.54 -0.44,1.08 -1.21,1.25 0.73,0.26 1,0.78 1,1.21 0,0.55 -0.64,0.96 -1.41,0.96 -0.78,0 -1.37,-0.38 -1.37,-0.93 0,-0.24 0.15,-0.37 0.36,-0.37 0.22,0 0.36,0.16 0.36,0.35 0,0.2 -0.14,0.35 -0.36,0.36 0.25,0.31 0.73,0.39 0.99,0.39 0.31,0 0.75,-0.15 0.75,-0.76 0,-0.3 -0.1,-0.62 -0.28,-0.83 -0.23,-0.27 -0.43,-0.28 -0.77,-0.3 -0.18,-0.01 -0.19,-0.01 -0.23,-0.02 -0.01,0 -0.07,-0.02 -0.07,-0.09 0,-0.1 0.07,-0.1 0.19,-0.1 z"
             font-size-adjust="none"
             font-stretch="normal"
             font-style="normal"
             font-variant="normal"
             font-weight="normal"
             letter-spacing="normal"
             stroke-miterlimit="10.433"
             word-spacing="normal"
             style="font-style:normal;font-variant:normal;font-weight:normal;font-stretch:normal;letter-spacing:normal;word-spacing:normal;text-anchor:start;fill:#000000;fill-opacity:1;fill-rule:evenodd;stroke:#000000;stroke-width:0;stroke-linecap:butt;stroke-linejoin:miter;stroke-miterlimit:10.43299961;stroke-dasharray:none;stroke-dashoffset:0;stroke-opacity:1"
             id="path1156"
             inkscape:connector-curvature="0" /></g>      </g>
      <g
         transform="translate(48.979272,-7.3396716)"
         id="g3409">
        <g
           id="g3091"
           transform="translate(-37.445649,45.304353)">
          <ellipse
             style="opacity:1;fill:none;fill-opacity:1;stroke:#000000;stroke-width:0.57114285;stroke-miterlimit:4;stroke-dasharray:none;stroke-dashoffset:0;stroke-opacity:1"
             id="path817-3-6-7"
             cx="63.317551"
             cy="110.59729"
             rx="5.7144289"
             ry="5.7144284" />
          <g
             id="g1219"
             transform="matrix(0.56995439,0,0,-0.56995439,-23.993761,485.89801)"
             xml:space="preserve"
             stroke-miterlimit="10.433"
             font-style="normal"
             font-variant="normal"
             font-weight="normal"
             font-stretch="normal"
             font-size-adjust="none"
             letter-spacing="normal"
             word-spacing="normal"
             ns0:text="$\\mathsf{g}_{4}$"
             ns0:preamble="/home/nsrinivasan7/.config/inkscape/extensions/default_packages.tex"
             style="font-style:normal;font-variant:normal;font-weight:normal;font-stretch:normal;letter-spacing:normal;word-spacing:normal;text-anchor:start;fill:#000000;fill-opacity:1;fill-rule:evenodd;stroke:#000000;stroke-linecap:butt;stroke-linejoin:miter;stroke-miterlimit:10.43299961;stroke-dasharray:none;stroke-dashoffset:0;stroke-opacity:1"><path
               inkscape:connector-curvature="0"
               d="m 152.22,661.13 h 0.04 0.04 0.05 0.04 l 0.05,0.01 h 0.04 0.05 l 0.05,0.01 0.09,0.01 h 0.05 0.05 0.05 l 0.04,0.01 h 0.05 0.04 c 0.18,0 0.57,-0.03 0.59,-0.03 l -0.11,0.63 c -0.69,0 -1.27,-0.19 -1.57,-0.32 -0.21,0.17 -0.55,0.32 -0.95,0.32 v -0.57 c 0.43,0 0.9,-0.28 0.9,-1.06 0,-0.78 -0.47,-1.05 -0.9,-1.05 v 0 c -0.37,0 -0.89,0.23 -0.89,1.05 0,0.83 0.52,1.06 0.89,1.06 v 0.57 c -0.86,0 -1.58,-0.72 -1.58,-1.63 0,-0.37 0.13,-0.73 0.33,-0.98 -0.29,-0.41 -0.29,-0.8 -0.29,-0.85 0,-0.26 0.09,-0.55 0.26,-0.76 -0.52,-0.31 -0.64,-0.77 -0.64,-1.02 0,-0.75 0.99,-1.35 2.2,-1.35 l 0.01,0.57 c -0.81,0 -1.51,0.31 -1.51,0.78 0,0.02 0,0.67 0.77,0.67 h 0.9 c 0.22,0 1.35,0 1.35,-0.68 0,-0.44 -0.69,-0.77 -1.51,-0.77 l -0.01,-0.57 c 1.23,0 2.21,0.59 2.21,1.35 0,1.39 -1.66,1.39 -2.05,1.39 h -0.88 c -0.13,0 -0.57,0 -0.57,0.53 0,0.11 0.03,0.27 0.11,0.36 0.2,-0.15 0.53,-0.29 0.9,-0.29 0.9,0 1.6,0.74 1.6,1.62 0,0.48 -0.22,0.85 -0.33,1 z"
               font-size-adjust="none"
               font-stretch="normal"
               font-style="normal"
               font-variant="normal"
               font-weight="normal"
               letter-spacing="normal"
               stroke-miterlimit="10.433"
               word-spacing="normal"
               style="font-style:normal;font-variant:normal;font-weight:normal;font-stretch:normal;letter-spacing:normal;word-spacing:normal;text-anchor:start;fill:#000000;fill-opacity:1;fill-rule:evenodd;stroke:#000000;stroke-width:0;stroke-linecap:butt;stroke-linejoin:miter;stroke-miterlimit:10.43299961;stroke-dasharray:none;stroke-dashoffset:0;stroke-opacity:1"
               id="path1215" /><path
               inkscape:connector-curvature="0"
               d="m 157.39,656.88 v 0.26 h -0.78 v 3.1 c 0,0.15 0,0.2 -0.15,0.2 -0.08,0 -0.11,0 -0.18,-0.1 l -2.31,-3.2 v -0.26 h 2.05 l 0.05,0.26 h -1.84 l 1.84,2.55 v -2.55 l -0.05,-0.26 v -0.57 c 0,-0.23 0,-0.32 -0.56,-0.32 h -0.19 v -0.25 c 0.35,0.01 0.79,0.03 1.04,0.03 0.26,0 0.71,-0.02 1.06,-0.03 v 0.25 h -0.19 c -0.57,0 -0.57,0.09 -0.57,0.32 v 0.57 z"
               font-size-adjust="none"
               font-stretch="normal"
               font-style="normal"
               font-variant="normal"
               font-weight="normal"
               letter-spacing="normal"
               stroke-miterlimit="10.433"
               word-spacing="normal"
               style="font-style:normal;font-variant:normal;font-weight:normal;font-stretch:normal;letter-spacing:normal;word-spacing:normal;text-anchor:start;fill:#000000;fill-opacity:1;fill-rule:evenodd;stroke:#000000;stroke-width:0;stroke-linecap:butt;stroke-linejoin:miter;stroke-miterlimit:10.43299961;stroke-dasharray:none;stroke-dashoffset:0;stroke-opacity:1"
               id="path1217" /></g>        </g>
      </g>
      <ellipse
         style="opacity:1;fill:none;fill-opacity:1;stroke:#000000;stroke-width:0.57114285;stroke-miterlimit:4;stroke-dasharray:none;stroke-dashoffset:0;stroke-opacity:1"
         id="path817-3-1-7-5"
         cx="170.48834"
         cy="77.953407"
         rx="5.7144289"
         ry="5.7144284" />
      <g
         id="g2116"
         transform="translate(-77.540759,31.427822)">
        <ellipse
           ry="5.7144284"
           rx="5.7144289"
           cy="80.299675"
           cx="82.095222"
           id="path817-3-1-8"
           style="opacity:1;fill:none;fill-opacity:1;stroke:#000000;stroke-width:0.57114285;stroke-miterlimit:4;stroke-dasharray:none;stroke-dashoffset:0;stroke-opacity:1" />
        <g
           id="g1610"
           transform="matrix(1,0,0,-1,-70.564777,738.99967)"
           xml:space="preserve"
           stroke-miterlimit="10.433"
           font-style="normal"
           font-variant="normal"
           font-weight="normal"
           font-stretch="normal"
           font-size-adjust="none"
           letter-spacing="normal"
           word-spacing="normal"
           ns0:text="$\\mathsf{x}_{1}$"
           ns0:preamble="/home/nsrinivasan7/.config/inkscape/extensions/default_packages.tex"
           style="font-style:normal;font-variant:normal;font-weight:normal;font-stretch:normal;letter-spacing:normal;word-spacing:normal;text-anchor:start;fill:#000000;fill-opacity:1;fill-rule:evenodd;stroke:#000000;stroke-linecap:butt;stroke-linejoin:miter;stroke-miterlimit:10.43299961;stroke-dasharray:none;stroke-dashoffset:0;stroke-opacity:1"><polygon
             points="149.53,657.23 150.97,659.1 152.47,657.23 153.29,657.23 151.3,659.51 153.12,661.66 152.31,661.66 150.97,660.01 149.6,661.66 148.77,661.66 150.64,659.51 148.71,657.23 "
             font-size-adjust="none"
             font-stretch="normal"
             font-style="normal"
             font-variant="normal"
             font-weight="normal"
             letter-spacing="normal"
             stroke-miterlimit="10.433"
             word-spacing="normal"
             style="font-style:normal;font-variant:normal;font-weight:normal;font-stretch:normal;letter-spacing:normal;word-spacing:normal;text-anchor:start;fill:#000000;fill-opacity:1;fill-rule:evenodd;stroke:#000000;stroke-width:0;stroke-linecap:butt;stroke-linejoin:miter;stroke-miterlimit:10.43299961;stroke-dasharray:none;stroke-dashoffset:0;stroke-opacity:1"
             id="polygon1606" /><path
             inkscape:connector-curvature="0"
             d="m 155.64,660.17 v 0.01 0.01 0.01 0.01 0.01 0 0.01 0.01 0 0.01 0.01 0 0.01 0 0.01 0.01 0 0.01 h -0.01 v 0.01 0.01 0.01 h -0.01 v 0.01 h -0.01 v 0.01 h -0.01 l -0.01,0.01 v 0 h -0.01 -0.01 l -0.01,0.01 v 0 h -0.01 -0.01 v 0 h -0.01 v 0 h -0.01 -0.01 v 0 h -0.01 -0.01 v 0 h -0.01 -0.01 -0.01 -0.01 -0.01 -0.01 c -0.44,-0.44 -1.08,-0.45 -1.36,-0.45 v -0.25 c 0.17,0 0.63,0 1.01,0.2 v -3.56 c 0,-0.23 0,-0.32 -0.7,-0.32 h -0.26 v -0.25 c 0.12,0.01 0.98,0.03 1.24,0.03 0.21,0 1.09,-0.02 1.25,-0.03 v 0.25 h -0.27 c -0.7,0 -0.7,0.09 -0.7,0.32 z"
             font-size-adjust="none"
             font-stretch="normal"
             font-style="normal"
             font-variant="normal"
             font-weight="normal"
             letter-spacing="normal"
             stroke-miterlimit="10.433"
             word-spacing="normal"
             style="font-style:normal;font-variant:normal;font-weight:normal;font-stretch:normal;letter-spacing:normal;word-spacing:normal;text-anchor:start;fill:#000000;fill-opacity:1;fill-rule:evenodd;stroke:#000000;stroke-width:0;stroke-linecap:butt;stroke-linejoin:miter;stroke-miterlimit:10.43299961;stroke-dasharray:none;stroke-dashoffset:0;stroke-opacity:1"
             id="path1608" /></g>      </g>
      <g
         id="g2495"
         transform="translate(-10.107213,-1.1580995)">
        <ellipse
           ry="5.7144284"
           rx="5.7144289"
           cy="120.86038"
           cx="48.102047"
           id="path817-3-1-2-3"
           style="opacity:1;fill:none;fill-opacity:1;stroke:#000000;stroke-width:0.57114285;stroke-miterlimit:4;stroke-dasharray:none;stroke-dashoffset:0;stroke-opacity:1" />
        <g
           style="font-style:normal;font-variant:normal;font-weight:normal;font-stretch:normal;letter-spacing:normal;word-spacing:normal;text-anchor:start;fill:#000000;fill-opacity:1;fill-rule:evenodd;stroke:#000000;stroke-linecap:butt;stroke-linejoin:miter;stroke-miterlimit:10.43299961;stroke-dasharray:none;stroke-dashoffset:0;stroke-opacity:1"
           ns0:preamble="/home/nsrinivasan7/.config/inkscape/extensions/default_packages.tex"
           ns0:text="$\\mathsf{v}\\prime_{1}$"
           word-spacing="normal"
           letter-spacing="normal"
           font-size-adjust="none"
           font-stretch="normal"
           font-weight="normal"
           font-variant="normal"
           font-style="normal"
           stroke-miterlimit="10.433"
           xml:space="preserve"
           transform="matrix(0.76793631,0,0,-0.76793631,-70.460566,627.67708)"
           id="g2259"><path
             id="path2253"
             style="font-style:normal;font-variant:normal;font-weight:normal;font-stretch:normal;letter-spacing:normal;word-spacing:normal;text-anchor:start;fill:#000000;fill-opacity:1;fill-rule:evenodd;stroke:#000000;stroke-width:0;stroke-linecap:butt;stroke-linejoin:miter;stroke-miterlimit:10.43299961;stroke-dasharray:none;stroke-dashoffset:0;stroke-opacity:1"
             word-spacing="normal"
             stroke-miterlimit="10.433"
             letter-spacing="normal"
             font-weight="normal"
             font-variant="normal"
             font-style="normal"
             font-stretch="normal"
             font-size-adjust="none"
             d="m 153.15,661.66 h -0.74 l -0.79,-2.08 c -0.21,-0.54 -0.52,-1.35 -0.6,-1.82 h -0.01 c -0.06,0.36 -0.32,1.05 -0.42,1.32 l -0.96,2.58 h -0.78 l 1.71,-4.43 h 0.88 z"
             inkscape:connector-curvature="0" /><path
             id="path2255"
             style="font-style:normal;font-variant:normal;font-weight:normal;font-stretch:normal;letter-spacing:normal;word-spacing:normal;text-anchor:start;fill:#000000;fill-opacity:1;fill-rule:evenodd;stroke:#000000;stroke-width:0;stroke-linecap:butt;stroke-linejoin:miter;stroke-miterlimit:10.43299961;stroke-dasharray:none;stroke-dashoffset:0;stroke-opacity:1"
             word-spacing="normal"
             stroke-miterlimit="10.433"
             letter-spacing="normal"
             font-weight="normal"
             font-variant="normal"
             font-style="normal"
             font-stretch="normal"
             font-size-adjust="none"
             d="m 155.96,661.97 0.01,0.02 0.01,0.02 0.01,0.02 0.01,0.02 0.01,0.02 v 0.02 l 0.01,0.02 0.01,0.02 v 0.02 l 0.01,0.01 v 0.02 l 0.01,0.02 v 0.02 0.02 0.02 0 0.01 c 0,0.29 -0.26,0.53 -0.56,0.53 -0.28,0 -0.46,-0.19 -0.53,-0.45 L 153.77,658 c 0,-0.02 -0.04,-0.13 -0.04,-0.14 0,-0.11 0.26,-0.18 0.34,-0.18 0.06,0 0.07,0.03 0.13,0.16 z"
             inkscape:connector-curvature="0" /><path
             id="path2257"
             style="font-style:normal;font-variant:normal;font-weight:normal;font-stretch:normal;letter-spacing:normal;word-spacing:normal;text-anchor:start;fill:#000000;fill-opacity:1;fill-rule:evenodd;stroke:#000000;stroke-width:0;stroke-linecap:butt;stroke-linejoin:miter;stroke-miterlimit:10.43299961;stroke-dasharray:none;stroke-dashoffset:0;stroke-opacity:1"
             word-spacing="normal"
             stroke-miterlimit="10.433"
             letter-spacing="normal"
             font-weight="normal"
             font-variant="normal"
             font-style="normal"
             font-stretch="normal"
             font-size-adjust="none"
             d="m 158.52,660.17 v 0.01 0.01 0.01 0.01 0.01 0 0.01 0.01 0 0.01 0.01 0 0.01 0 0.01 0.01 0 0.01 h -0.01 v 0.01 0.01 0.01 h -0.01 v 0.01 h -0.01 v 0.01 h -0.01 l -0.01,0.01 v 0 h -0.01 -0.01 l -0.01,0.01 v 0 h -0.01 -0.01 v 0 h -0.01 v 0 h -0.01 -0.01 v 0 h -0.01 -0.01 v 0 h -0.01 -0.01 -0.01 -0.01 -0.01 v 0 c -0.45,-0.44 -1.09,-0.45 -1.37,-0.45 v -0.25 c 0.17,0 0.62,0 1.01,0.2 v -3.56 c 0,-0.23 0,-0.32 -0.7,-0.32 H 157 v -0.25 c 0.12,0.01 0.98,0.03 1.24,0.03 0.21,0 1.09,-0.02 1.25,-0.03 v 0.25 h -0.27 c -0.7,0 -0.7,0.09 -0.7,0.32 z"
             inkscape:connector-curvature="0" /></g>      </g>
      <ellipse
         style="opacity:1;fill:none;fill-opacity:1;stroke:#000000;stroke-width:0.57114285;stroke-miterlimit:4;stroke-dasharray:none;stroke-dashoffset:0;stroke-opacity:1"
         id="path817-3-1-2"
         cx="38.055962"
         cy="102.35761"
         rx="5.7144289"
         ry="5.7144284" />
      <g
         style="font-style:normal;font-variant:normal;font-weight:normal;font-stretch:normal;letter-spacing:normal;word-spacing:normal;text-anchor:start;fill:#000000;fill-opacity:1;fill-rule:evenodd;stroke:#000000;stroke-linecap:butt;stroke-linejoin:miter;stroke-miterlimit:10.43299961;stroke-dasharray:none;stroke-dashoffset:0;stroke-opacity:1"
         ns0:preamble="/home/nsrinivasan7/.config/inkscape/extensions/default_packages.tex"
         ns0:text="$\\mathsf{u}\\prime_{1}$"
         word-spacing="normal"
         letter-spacing="normal"
         font-size-adjust="none"
         font-stretch="normal"
         font-weight="normal"
         font-variant="normal"
         font-style="normal"
         stroke-miterlimit="10.433"
         xml:space="preserve"
         transform="matrix(0.7884772,0,0,-0.7884772,-83.685528,622.06232)"
         id="g2409"><path
           id="path2403"
           style="font-style:normal;font-variant:normal;font-weight:normal;font-stretch:normal;letter-spacing:normal;word-spacing:normal;text-anchor:start;fill:#000000;fill-opacity:1;fill-rule:evenodd;stroke:#000000;stroke-width:0;stroke-linecap:butt;stroke-linejoin:miter;stroke-miterlimit:10.43299961;stroke-dasharray:none;stroke-dashoffset:0;stroke-opacity:1"
           word-spacing="normal"
           stroke-miterlimit="10.433"
           letter-spacing="normal"
           font-weight="normal"
           font-variant="normal"
           font-style="normal"
           font-stretch="normal"
           font-size-adjust="none"
           d="m 153.04,661.66 h -0.77 v -2.89 c 0,-0.75 -0.56,-1.1 -1.2,-1.1 -0.71,0 -0.78,0.26 -0.78,0.69 v 3.3 h -0.77 v -3.34 c 0,-0.72 0.23,-1.2 1.05,-1.2 0.53,0 1.24,0.16 1.73,0.59 v -0.48 h 0.74 z"
           inkscape:connector-curvature="0" /><path
           id="path2405"
           style="font-style:normal;font-variant:normal;font-weight:normal;font-stretch:normal;letter-spacing:normal;word-spacing:normal;text-anchor:start;fill:#000000;fill-opacity:1;fill-rule:evenodd;stroke:#000000;stroke-width:0;stroke-linecap:butt;stroke-linejoin:miter;stroke-miterlimit:10.43299961;stroke-dasharray:none;stroke-dashoffset:0;stroke-opacity:1"
           word-spacing="normal"
           stroke-miterlimit="10.433"
           letter-spacing="normal"
           font-weight="normal"
           font-variant="normal"
           font-style="normal"
           font-stretch="normal"
           font-size-adjust="none"
           d="m 156.38,661.97 0.01,0.02 0.01,0.02 0.01,0.02 0.01,0.02 0.01,0.02 v 0.02 l 0.01,0.02 0.01,0.02 v 0.02 l 0.01,0.01 v 0.02 l 0.01,0.02 v 0.02 0.02 0.02 0 0.01 c 0,0.29 -0.26,0.53 -0.57,0.53 -0.27,0 -0.45,-0.19 -0.52,-0.45 L 154.19,658 c 0,-0.02 -0.04,-0.13 -0.04,-0.14 0,-0.11 0.26,-0.18 0.34,-0.18 0.06,0 0.07,0.03 0.13,0.16 z"
           inkscape:connector-curvature="0" /><path
           id="path2407"
           style="font-style:normal;font-variant:normal;font-weight:normal;font-stretch:normal;letter-spacing:normal;word-spacing:normal;text-anchor:start;fill:#000000;fill-opacity:1;fill-rule:evenodd;stroke:#000000;stroke-width:0;stroke-linecap:butt;stroke-linejoin:miter;stroke-miterlimit:10.43299961;stroke-dasharray:none;stroke-dashoffset:0;stroke-opacity:1"
           word-spacing="normal"
           stroke-miterlimit="10.433"
           letter-spacing="normal"
           font-weight="normal"
           font-variant="normal"
           font-style="normal"
           font-stretch="normal"
           font-size-adjust="none"
           d="m 158.94,660.17 v 0.01 0.01 0.01 0.01 0.01 0 0.01 0.01 h -0.01 v 0.01 0.01 0 0.01 0 0.01 0.01 0 0.01 0 l -0.01,0.01 v 0.01 0.01 h -0.01 v 0.01 h -0.01 v 0.01 h -0.01 v 0.01 h -0.01 -0.01 -0.01 l -0.01,0.01 v 0 h -0.01 v 0 h -0.01 -0.01 v 0 h -0.01 v 0 h -0.01 -0.01 -0.01 v 0 h -0.01 -0.01 -0.01 -0.01 v 0 h -0.01 c -0.45,-0.44 -1.08,-0.45 -1.37,-0.45 v -0.25 c 0.17,0 0.63,0 1.01,0.2 v -3.56 c 0,-0.23 0,-0.32 -0.7,-0.32 h -0.26 v -0.25 c 0.12,0.01 0.98,0.03 1.24,0.03 0.22,0 1.09,-0.02 1.25,-0.03 v 0.25 h -0.27 c -0.69,0 -0.69,0.09 -0.69,0.32 z"
           inkscape:connector-curvature="0" /></g>      <path
         style="fill:none;stroke:#000000;stroke-width:0.28222227px;stroke-linecap:butt;stroke-linejoin:miter;stroke-opacity:1"
         d="m 25.135417,111.79166 7.055558,-8.46667"
         id="path2497"
         inkscape:connector-curvature="0" />
      <path
         style="fill:none;stroke:#000000;stroke-width:0.28574988px;stroke-linecap:butt;stroke-linejoin:miter;stroke-opacity:1"
         d="m 25.135417,111.79166 7.14375,7.14374"
         id="path2499"
         inkscape:connector-curvature="0" />
      <g
         transform="translate(-63.206164,69.070869)"
         id="g2110-9">
        <g
           ns0:preamble="/home/nsrinivasan7/.config/inkscape/extensions/default_packages.tex"
           ns0:text="$B$"
           word-spacing="normal"
           letter-spacing="normal"
           font-size-adjust="none"
           font-stretch="normal"
           font-weight="normal"
           font-variant="normal"
           font-style="normal"
           stroke-miterlimit="10.433"
           xml:space="preserve"
           transform="matrix(0.71052618,0,0,-0.71052618,-19.870219,533.39605)"
           id="g1873-3"
           style="font-style:normal;font-variant:normal;font-weight:normal;font-stretch:normal;letter-spacing:normal;word-spacing:normal;text-anchor:start;fill:#000000;fill-opacity:1;fill-rule:evenodd;stroke:#000000;stroke-linecap:butt;stroke-linejoin:miter;stroke-miterlimit:10.43299961;stroke-dasharray:none;stroke-dashoffset:0;stroke-opacity:1"><path
             id="path1871-1"
             d="m 150.3,658.01 -0.01,-0.04 v -0.03 l -0.01,-0.03 -0.01,-0.03 -0.01,-0.03 -0.01,-0.03 -0.01,-0.02 -0.01,-0.03 -0.01,-0.02 -0.01,-0.02 -0.02,-0.02 -0.01,-0.02 -0.02,-0.02 -0.01,-0.01 -0.02,-0.02 -0.02,-0.01 -0.02,-0.01 -0.03,-0.01 -0.03,-0.01 -0.03,-0.01 -0.03,-0.01 -0.02,-0.01 h -0.01 -0.02 -0.02 l -0.02,-0.01 h -0.02 -0.03 l -0.02,-0.01 h -0.02 -0.03 -0.02 -0.03 -0.02 -0.03 l -0.03,-0.01 h -0.03 -0.03 -0.03 -0.04 -0.03 -0.04 -0.03 c -0.17,0 -0.27,0 -0.27,-0.2 0,-0.11 0.09,-0.11 0.27,-0.11 h 3.55 c 1.58,0 2.75,1.18 2.75,2.15 0,0.72 -0.57,1.3 -1.54,1.41 1.04,0.19 2.08,0.93 2.08,1.87 0,0.74 -0.66,1.38 -1.85,1.38 l -0.14,-0.31 c 0.88,0 1.09,-0.59 1.09,-1.03 0,-0.87 -0.86,-1.82 -2.08,-1.82 h -1.45 l -0.06,-0.22 h 1.88 c 0.96,0 1.15,-0.74 1.15,-1.17 0,-0.98 -0.89,-1.95 -2.07,-1.95 h -1.35 c -0.14,0 -0.16,0 -0.22,0.01 -0.1,0.01 -0.13,0.02 -0.13,0.1 0,0.03 0,0.05 0.05,0.23 l 0.69,2.78 0.06,0.22 0.62,2.47 c 0.09,0.35 0.11,0.38 0.53,0.38 h 1.29 l 0.14,0.31 h -3.35 c -0.19,0 -0.29,0 -0.29,-0.2 0,-0.11 0.09,-0.11 0.28,-0.11 0.02,0 0.21,0 0.38,-0.02 0.18,-0.02 0.27,-0.03 0.27,-0.16 0,-0.04 -0.01,-0.07 -0.04,-0.19 z"
             inkscape:connector-curvature="0"
             style="fill:#000000;stroke-width:0" /></g>        <ellipse
           ry="5.7144284"
           rx="5.7144289"
           cy="63.997585"
           cx="88.61647"
           id="path817-3-1-7-9"
           style="opacity:1;fill:none;fill-opacity:1;stroke:#000000;stroke-width:0.57114285;stroke-miterlimit:4;stroke-dasharray:none;stroke-dashoffset:0;stroke-opacity:1" />
      </g>
      <path
         style="fill:none;stroke:#000000;stroke-width:0.26458332px;stroke-linecap:butt;stroke-linejoin:miter;stroke-opacity:1"
         d="M 10.583333,111.79166 H 25.135416"
         id="path2541"
         inkscape:connector-curvature="0" />
      <rect
         style="opacity:1;fill:#000000;fill-opacity:1;stroke:none;stroke-width:0.59499997;stroke-miterlimit:4;stroke-dasharray:none;stroke-dashoffset:0;stroke-opacity:1"
         id="rect2543"
         width="2.6458333"
         height="2.6458333"
         x="23.8125"
         y="110.46874" />
      <path
         style="fill:none;stroke:#000000;stroke-width:0.26458332px;stroke-linecap:butt;stroke-linejoin:miter;stroke-opacity:1"
         d="m 25.135416,113.11457 v 14.55209"
         id="path2545"
         inkscape:connector-curvature="0" />
      <g
         transform="translate(12.082944,-36.813685)"
         id="g3384">
        <ellipse
           ry="5.7144284"
           rx="5.7144289"
           cy="124.52149"
           cx="62.76823"
           id="path817-3-6-7-5-3"
           style="opacity:1;fill:none;fill-opacity:1;stroke:#000000;stroke-width:0.57114285;stroke-miterlimit:4;stroke-dasharray:none;stroke-dashoffset:0;stroke-opacity:1" />
        <g
           id="content"
           transform="matrix(0.56995439,0,0,-0.56995439,-24.517435,499.82221)"
           xml:space="preserve"
           stroke-miterlimit="10.433"
           font-style="normal"
           font-variant="normal"
           font-weight="normal"
           font-stretch="normal"
           font-size-adjust="none"
           letter-spacing="normal"
           word-spacing="normal"
           ns0:text="$\\mathsf{g}_{0}$"
           ns0:preamble="/home/nsrinivasan7/.config/inkscape/extensions/default_packages.tex"
           style="font-style:normal;font-variant:normal;font-weight:normal;font-stretch:normal;letter-spacing:normal;word-spacing:normal;text-anchor:start;fill:#000000;fill-opacity:1;fill-rule:evenodd;stroke:#000000;stroke-linecap:butt;stroke-linejoin:miter;stroke-miterlimit:10.43299961;stroke-dasharray:none;stroke-dashoffset:0;stroke-opacity:1"><path
             d="m 152.22,661.13 h 0.04 0.04 0.05 0.04 l 0.05,0.01 h 0.04 0.05 l 0.05,0.01 0.09,0.01 h 0.05 0.05 0.05 l 0.04,0.01 h 0.05 0.04 c 0.18,0 0.57,-0.03 0.59,-0.03 l -0.11,0.63 c -0.69,0 -1.27,-0.19 -1.57,-0.32 -0.21,0.17 -0.55,0.32 -0.95,0.32 v -0.57 c 0.43,0 0.9,-0.28 0.9,-1.06 0,-0.78 -0.47,-1.05 -0.9,-1.05 v 0 c -0.37,0 -0.89,0.23 -0.89,1.05 0,0.83 0.52,1.06 0.89,1.06 v 0.57 c -0.86,0 -1.58,-0.72 -1.58,-1.63 0,-0.37 0.13,-0.73 0.33,-0.98 -0.29,-0.41 -0.29,-0.8 -0.29,-0.85 0,-0.26 0.09,-0.55 0.26,-0.76 -0.52,-0.31 -0.64,-0.77 -0.64,-1.02 0,-0.75 0.99,-1.35 2.2,-1.35 l 0.01,0.57 c -0.81,0 -1.51,0.31 -1.51,0.78 0,0.02 0,0.67 0.77,0.67 h 0.9 c 0.22,0 1.35,0 1.35,-0.68 0,-0.44 -0.69,-0.77 -1.51,-0.77 l -0.01,-0.57 c 1.23,0 2.21,0.59 2.21,1.35 0,1.39 -1.66,1.39 -2.05,1.39 h -0.88 c -0.13,0 -0.57,0 -0.57,0.53 0,0.11 0.03,0.27 0.11,0.36 0.2,-0.15 0.53,-0.29 0.9,-0.29 0.9,0 1.6,0.74 1.6,1.62 0,0.48 -0.22,0.85 -0.33,1 z"
             font-size-adjust="none"
             font-stretch="normal"
             font-style="normal"
             font-variant="normal"
             font-weight="normal"
             letter-spacing="normal"
             stroke-miterlimit="10.433"
             word-spacing="normal"
             style="font-style:normal;font-variant:normal;font-weight:normal;font-stretch:normal;letter-spacing:normal;word-spacing:normal;text-anchor:start;fill:#000000;fill-opacity:1;fill-rule:evenodd;stroke:#000000;stroke-width:0;stroke-linecap:butt;stroke-linejoin:miter;stroke-miterlimit:10.43299961;stroke-dasharray:none;stroke-dashoffset:0;stroke-opacity:1"
             id="path3158"
             inkscape:connector-curvature="0" /><path
             d="m 157.3,657.97 -0.01,0.14 v 0.13 0.13 l -0.01,0.13 -0.01,0.13 -0.02,0.11 -0.02,0.12 -0.02,0.11 -0.02,0.11 -0.03,0.11 -0.04,0.1 -0.04,0.1 -0.04,0.1 -0.05,0.09 -0.05,0.1 -0.03,0.05 -0.03,0.04 c -0.21,0.32 -0.64,0.6 -1.2,0.6 -1.62,0 -1.62,-1.9 -1.62,-2.4 0,-0.51 0,-2.37 1.62,-2.37 v 0.2 c -0.32,0 -0.75,0.18 -0.89,0.76 -0.09,0.41 -0.09,0.98 -0.09,1.49 0,0.51 0,1.04 0.1,1.43 0.15,0.55 0.59,0.69 0.88,0.69 0.37,0 0.74,-0.22 0.86,-0.63 0.11,-0.38 0.12,-0.88 0.12,-1.49 0,-0.51 0,-1.03 -0.09,-1.47 -0.14,-0.63 -0.61,-0.78 -0.89,-0.78 v 0 -0.2 c 1.62,0 1.62,1.86 1.62,2.37 z"
             font-size-adjust="none"
             font-stretch="normal"
             font-style="normal"
             font-variant="normal"
             font-weight="normal"
             letter-spacing="normal"
             stroke-miterlimit="10.433"
             word-spacing="normal"
             style="font-style:normal;font-variant:normal;font-weight:normal;font-stretch:normal;letter-spacing:normal;word-spacing:normal;text-anchor:start;fill:#000000;fill-opacity:1;fill-rule:evenodd;stroke:#000000;stroke-width:0;stroke-linecap:butt;stroke-linejoin:miter;stroke-miterlimit:10.43299961;stroke-dasharray:none;stroke-dashoffset:0;stroke-opacity:1"
             id="path3160"
             inkscape:connector-curvature="0" /></g>      </g>
      <g
         transform="translate(10.213495,-50.390522)"
         id="g3390">
        <ellipse
           ry="5.7144284"
           rx="5.7144289"
           cy="154.68007"
           cx="64.63768"
           id="path817-3-6-7-5"
           style="opacity:1;fill:none;fill-opacity:1;stroke:#000000;stroke-width:0.57114285;stroke-miterlimit:4;stroke-dasharray:none;stroke-dashoffset:0;stroke-opacity:1" />
        <g
           style="font-style:normal;font-variant:normal;font-weight:normal;font-stretch:normal;letter-spacing:normal;word-spacing:normal;text-anchor:start;fill:#000000;fill-opacity:1;fill-rule:evenodd;stroke:#000000;stroke-linecap:butt;stroke-linejoin:miter;stroke-miterlimit:10.43299961;stroke-dasharray:none;stroke-dashoffset:0;stroke-opacity:1"
           ns0:preamble="/home/nsrinivasan7/.config/inkscape/extensions/default_packages.tex"
           ns0:text="$\\mathsf{g}_{1}$"
           word-spacing="normal"
           letter-spacing="normal"
           font-size-adjust="none"
           font-stretch="normal"
           font-weight="normal"
           font-variant="normal"
           font-style="normal"
           stroke-miterlimit="10.433"
           xml:space="preserve"
           transform="matrix(0.56995439,0,0,-0.56995439,-22.562492,529.98079)"
           id="g3302"><path
             id="path3298"
             style="font-style:normal;font-variant:normal;font-weight:normal;font-stretch:normal;letter-spacing:normal;word-spacing:normal;text-anchor:start;fill:#000000;fill-opacity:1;fill-rule:evenodd;stroke:#000000;stroke-width:0;stroke-linecap:butt;stroke-linejoin:miter;stroke-miterlimit:10.43299961;stroke-dasharray:none;stroke-dashoffset:0;stroke-opacity:1"
             word-spacing="normal"
             stroke-miterlimit="10.433"
             letter-spacing="normal"
             font-weight="normal"
             font-variant="normal"
             font-style="normal"
             font-stretch="normal"
             font-size-adjust="none"
             d="m 152.22,661.13 h 0.04 0.04 0.05 0.04 l 0.05,0.01 h 0.04 0.05 l 0.05,0.01 0.09,0.01 h 0.05 0.05 0.05 l 0.04,0.01 h 0.05 0.04 c 0.18,0 0.57,-0.03 0.59,-0.03 l -0.11,0.63 c -0.69,0 -1.27,-0.19 -1.57,-0.32 -0.21,0.17 -0.55,0.32 -0.95,0.32 v -0.57 c 0.43,0 0.9,-0.28 0.9,-1.06 0,-0.78 -0.47,-1.05 -0.9,-1.05 v 0 c -0.37,0 -0.89,0.23 -0.89,1.05 0,0.83 0.52,1.06 0.89,1.06 v 0.57 c -0.86,0 -1.58,-0.72 -1.58,-1.63 0,-0.37 0.13,-0.73 0.33,-0.98 -0.29,-0.41 -0.29,-0.8 -0.29,-0.85 0,-0.26 0.09,-0.55 0.26,-0.76 -0.52,-0.31 -0.64,-0.77 -0.64,-1.02 0,-0.75 0.99,-1.35 2.2,-1.35 l 0.01,0.57 c -0.81,0 -1.51,0.31 -1.51,0.78 0,0.02 0,0.67 0.77,0.67 h 0.9 c 0.22,0 1.35,0 1.35,-0.68 0,-0.44 -0.69,-0.77 -1.51,-0.77 l -0.01,-0.57 c 1.23,0 2.21,0.59 2.21,1.35 0,1.39 -1.66,1.39 -2.05,1.39 h -0.88 c -0.13,0 -0.57,0 -0.57,0.53 0,0.11 0.03,0.27 0.11,0.36 0.2,-0.15 0.53,-0.29 0.9,-0.29 0.9,0 1.6,0.74 1.6,1.62 0,0.48 -0.22,0.85 -0.33,1 z"
             inkscape:connector-curvature="0" /><path
             id="path3300"
             style="font-style:normal;font-variant:normal;font-weight:normal;font-stretch:normal;letter-spacing:normal;word-spacing:normal;text-anchor:start;fill:#000000;fill-opacity:1;fill-rule:evenodd;stroke:#000000;stroke-width:0;stroke-linecap:butt;stroke-linejoin:miter;stroke-miterlimit:10.43299961;stroke-dasharray:none;stroke-dashoffset:0;stroke-opacity:1"
             word-spacing="normal"
             stroke-miterlimit="10.433"
             letter-spacing="normal"
             font-weight="normal"
             font-variant="normal"
             font-style="normal"
             font-stretch="normal"
             font-size-adjust="none"
             d="m 156.03,660.17 v 0.01 0.01 0.01 0.01 0.01 0 0.01 0.01 0 0.01 0.01 0 0.01 0 0.01 0.01 0 0.01 h -0.01 v 0.01 0.01 0.01 h -0.01 v 0.01 H 156 v 0.01 h -0.01 l -0.01,0.01 v 0 h -0.01 -0.01 l -0.01,0.01 v 0 h -0.01 -0.01 v 0 h -0.01 v 0 h -0.01 -0.01 v 0 h -0.01 -0.01 v 0 h -0.01 -0.01 -0.01 -0.01 -0.01 -0.01 c -0.44,-0.44 -1.08,-0.45 -1.36,-0.45 v -0.25 c 0.16,0 0.63,0 1.01,0.2 v -3.56 c 0,-0.23 0,-0.32 -0.7,-0.32 h -0.26 v -0.25 c 0.12,0.01 0.98,0.03 1.24,0.03 0.21,0 1.09,-0.02 1.25,-0.03 v 0.25 h -0.27 c -0.7,0 -0.7,0.09 -0.7,0.32 z"
             inkscape:connector-curvature="0" /></g>      </g>
      <g
         id="g3595"
         transform="translate(5.9635041,7.0071165)">
        <ellipse
           ry="5.7144284"
           rx="5.7144289"
           cy="139.34642"
           cx="50.382301"
           id="path817-3-1-7-9-4"
           style="opacity:1;fill:none;fill-opacity:1;stroke:#000000;stroke-width:0.57114285;stroke-miterlimit:4;stroke-dasharray:none;stroke-dashoffset:0;stroke-opacity:1" />
        <g
           id="g3513"
           transform="matrix(0.56615556,0,0,-0.56615556,-36.809553,513.21482)"
           xml:space="preserve"
           stroke-miterlimit="10.433"
           font-style="normal"
           font-variant="normal"
           font-weight="normal"
           font-stretch="normal"
           font-size-adjust="none"
           letter-spacing="normal"
           word-spacing="normal"
           ns0:text="$W$"
           ns0:preamble="/home/nsrinivasan7/.config/inkscape/extensions/default_packages.tex"
           style="font-style:normal;font-variant:normal;font-weight:normal;font-stretch:normal;letter-spacing:normal;word-spacing:normal;text-anchor:start;fill:#000000;fill-opacity:1;fill-rule:evenodd;stroke:#000000;stroke-linecap:butt;stroke-linejoin:miter;stroke-miterlimit:10.43299961;stroke-dasharray:none;stroke-dashoffset:0;stroke-opacity:1"><path
             inkscape:connector-curvature="0"
             d="m 157.85,662.88 0.04,0.08 0.05,0.08 0.05,0.08 0.05,0.07 0.02,0.04 0.03,0.03 0.03,0.04 0.02,0.03 0.03,0.03 0.03,0.03 0.03,0.03 0.03,0.03 0.03,0.03 0.04,0.02 0.03,0.03 0.04,0.02 0.04,0.03 0.04,0.02 0.04,0.02 0.04,0.02 0.04,0.01 0.05,0.02 0.04,0.01 0.05,0.02 0.06,0.01 0.05,0.01 h 0.05 l 0.06,0.01 c 0.09,0.01 0.19,0.01 0.19,0.2 0,0.04 -0.04,0.11 -0.12,0.11 -0.24,0 -0.52,-0.03 -0.77,-0.03 -0.33,0 -0.7,0.03 -1.03,0.03 -0.06,0 -0.19,0 -0.19,-0.19 0,-0.11 0.09,-0.12 0.15,-0.12 0.24,-0.01 0.59,-0.09 0.59,-0.39 0,-0.11 -0.05,-0.19 -0.13,-0.33 l -2.69,-4.69 -0.37,4.94 c -0.01,0.2 -0.03,0.46 0.7,0.47 0.17,0 0.26,0 0.26,0.2 0,0.1 -0.1,0.11 -0.15,0.11 -0.39,0 -0.81,-0.03 -1.21,-0.03 -0.23,0 -0.82,0.03 -1.05,0.03 -0.06,0 -0.19,0 -0.19,-0.2 0,-0.11 0.1,-0.11 0.24,-0.11 0.44,0 0.51,-0.06 0.53,-0.25 l 0.06,-0.77 -2.52,-4.39 -0.38,5.05 c 0,0.12 0,0.35 0.76,0.36 0.1,0 0.21,0 0.21,0.2 0,0.11 -0.12,0.11 -0.14,0.11 -0.4,0 -0.82,-0.03 -1.23,-0.03 -0.35,0 -0.7,0.03 -1.04,0.03 -0.05,0 -0.18,0 -0.18,-0.19 0,-0.12 0.09,-0.12 0.25,-0.12 0.5,0 0.5,-0.09 0.53,-0.37 l 0.44,-6.09 c 0.01,-0.18 0.02,-0.26 0.16,-0.26 0.12,0 0.15,0.06 0.24,0.21 l 2.93,5.08 0.37,-5.03 c 0.02,-0.21 0.04,-0.26 0.16,-0.26 0.13,0 0.19,0.1 0.24,0.19 z"
             font-size-adjust="none"
             font-stretch="normal"
             font-style="normal"
             font-variant="normal"
             font-weight="normal"
             letter-spacing="normal"
             stroke-miterlimit="10.433"
             word-spacing="normal"
             style="font-style:normal;font-variant:normal;font-weight:normal;font-stretch:normal;letter-spacing:normal;word-spacing:normal;text-anchor:start;fill:#000000;fill-opacity:1;fill-rule:evenodd;stroke:#000000;stroke-width:0;stroke-linecap:butt;stroke-linejoin:miter;stroke-miterlimit:10.43299961;stroke-dasharray:none;stroke-dashoffset:0;stroke-opacity:1"
             id="path3511" /></g>      </g>
      <rect
         style="opacity:1;fill:#000000;fill-opacity:1;stroke:none;stroke-width:0.59499997;stroke-miterlimit:4;stroke-dasharray:none;stroke-dashoffset:0;stroke-opacity:1"
         id="rect3611"
         width="5.2916665"
         height="5.2916665"
         x="54.239582"
         y="110.46874" />
      <path
         style="fill:none;stroke:#000000;stroke-width:0.26458332px;stroke-linecap:butt;stroke-linejoin:miter;stroke-opacity:1"
         d="m 43.656249,103.85416 11.90625,9.26041"
         id="path3613"
         inkscape:connector-curvature="0" />
      <path
         style="fill:none;stroke:#000000;stroke-width:0.26458332px;stroke-linecap:butt;stroke-linejoin:miter;stroke-opacity:1"
         d="m 43.656249,121.05207 11.90625,-7.9375"
         id="path3615"
         inkscape:connector-curvature="0" />
      <path
         style="fill:none;stroke:#000000;stroke-width:0.26458332px;stroke-linecap:butt;stroke-linejoin:miter;stroke-opacity:1"
         d="M 56.885416,140.89582 V 113.11457"
         id="path3617"
         inkscape:connector-curvature="0" />
      <path
         style="fill:none;stroke:#000000;stroke-width:0.26458332px;stroke-linecap:butt;stroke-linejoin:miter;stroke-opacity:1"
         d="m 70.114582,90.62499 -13.229166,23.8125 13.229167,-7.9375"
         id="path3619"
         inkscape:connector-curvature="0" />
      <path
         style="fill:none;stroke:#000000;stroke-width:0.26458332px;stroke-linecap:butt;stroke-linejoin:miter;stroke-opacity:1"
         d="m 68.791666,119.72916 -10.583333,-5.29167 10.583334,18.52083"
         id="path3621"
         inkscape:connector-curvature="0" />
      <path
         style="fill:none;stroke:#000000;stroke-width:0.26458332px;stroke-linecap:butt;stroke-linejoin:miter;stroke-opacity:1"
         d="m 58.208333,114.43749 10.583333,31.75"
         id="path3623"
         inkscape:connector-curvature="0" />
      <g
         transform="translate(0,-0.3299675)"
         id="g4733">
        <ellipse
           ry="5.7144284"
           rx="5.7144289"
           cy="86.591537"
           cx="110.86288"
           id="path817-3-1-2-6"
           style="opacity:1;fill:none;fill-opacity:1;stroke:#000000;stroke-width:0.57114285;stroke-miterlimit:4;stroke-dasharray:none;stroke-dashoffset:0;stroke-opacity:1" />
        <g
           style="font-style:normal;font-variant:normal;font-weight:normal;font-stretch:normal;letter-spacing:normal;word-spacing:normal;text-anchor:start;fill:#000000;fill-opacity:1;fill-rule:evenodd;stroke:#000000;stroke-linecap:butt;stroke-linejoin:miter;stroke-miterlimit:10.43299961;stroke-dasharray:none;stroke-dashoffset:0;stroke-opacity:1"
           ns0:preamble="/home/nsrinivasan7/.config/inkscape/extensions/default_packages.tex"
           ns0:text="$\\mathsf{u}_{1}$"
           word-spacing="normal"
           letter-spacing="normal"
           font-size-adjust="none"
           font-stretch="normal"
           font-weight="normal"
           font-variant="normal"
           font-style="normal"
           stroke-miterlimit="10.433"
           xml:space="preserve"
           transform="matrix(1,0,0,-1,-42.379167,745.69332)"
           id="g3767"><path
             inkscape:connector-curvature="0"
             id="path3763"
             style="font-style:normal;font-variant:normal;font-weight:normal;font-stretch:normal;letter-spacing:normal;word-spacing:normal;text-anchor:start;fill:#000000;fill-opacity:1;fill-rule:evenodd;stroke:#000000;stroke-width:0;stroke-linecap:butt;stroke-linejoin:miter;stroke-miterlimit:10.43299961;stroke-dasharray:none;stroke-dashoffset:0;stroke-opacity:1"
             word-spacing="normal"
             stroke-miterlimit="10.433"
             letter-spacing="normal"
             font-weight="normal"
             font-variant="normal"
             font-style="normal"
             font-stretch="normal"
             font-size-adjust="none"
             d="m 153.04,661.66 h -0.77 v -2.89 c 0,-0.75 -0.56,-1.1 -1.2,-1.1 -0.71,0 -0.78,0.26 -0.78,0.69 v 3.3 h -0.77 v -3.34 c 0,-0.72 0.23,-1.2 1.05,-1.2 0.53,0 1.24,0.16 1.73,0.59 v -0.48 h 0.74 z" /><path
             inkscape:connector-curvature="0"
             id="path3765"
             style="font-style:normal;font-variant:normal;font-weight:normal;font-stretch:normal;letter-spacing:normal;word-spacing:normal;text-anchor:start;fill:#000000;fill-opacity:1;fill-rule:evenodd;stroke:#000000;stroke-width:0;stroke-linecap:butt;stroke-linejoin:miter;stroke-miterlimit:10.43299961;stroke-dasharray:none;stroke-dashoffset:0;stroke-opacity:1"
             word-spacing="normal"
             stroke-miterlimit="10.433"
             letter-spacing="normal"
             font-weight="normal"
             font-variant="normal"
             font-style="normal"
             font-stretch="normal"
             font-size-adjust="none"
             d="m 156.2,660.17 v 0.01 0.01 0.01 0.01 0.01 0 0.01 0.01 0 0.01 0.01 0 0.01 0 l -0.01,0.01 v 0.01 0 0.01 0 0.01 l -0.01,0.01 v 0.01 0 l -0.01,0.01 v 0 l -0.01,0.01 v 0 l -0.01,0.01 h -0.01 -0.01 -0.01 v 0.01 h -0.01 -0.01 v 0 h -0.01 v 0 h -0.01 v 0 h -0.01 -0.01 -0.01 v 0 h -0.01 -0.01 -0.01 v 0 h -0.01 -0.01 -0.01 c -0.45,-0.44 -1.08,-0.45 -1.37,-0.45 v -0.25 c 0.17,0 0.63,0 1.01,0.2 v -3.56 c 0,-0.23 0,-0.32 -0.69,-0.32 h -0.27 v -0.25 c 0.13,0.01 0.98,0.03 1.24,0.03 0.22,0 1.1,-0.02 1.25,-0.03 v 0.25 h -0.26 c -0.7,0 -0.7,0.09 -0.7,0.32 z" /></g>      </g>
      <g
         transform="translate(0,0.3299675)"
         id="g4739">
        <ellipse
           ry="5.7144284"
           rx="5.7144289"
           cy="85.931602"
           cx="127.21171"
           id="path817-3-1-2-3-0"
           style="opacity:1;fill:none;fill-opacity:1;stroke:#000000;stroke-width:0.57114285;stroke-miterlimit:4;stroke-dasharray:none;stroke-dashoffset:0;stroke-opacity:1" />
        <g
           id="g3963"
           transform="matrix(1,0,0,-1,-25.518297,744.6316)"
           xml:space="preserve"
           stroke-miterlimit="10.433"
           font-style="normal"
           font-variant="normal"
           font-weight="normal"
           font-stretch="normal"
           font-size-adjust="none"
           letter-spacing="normal"
           word-spacing="normal"
           ns0:text="$\\mathsf{v}_{1}$"
           ns0:preamble="/home/nsrinivasan7/.config/inkscape/extensions/default_packages.tex"
           style="font-style:normal;font-variant:normal;font-weight:normal;font-stretch:normal;letter-spacing:normal;word-spacing:normal;text-anchor:start;fill:#000000;fill-opacity:1;fill-rule:evenodd;stroke:#000000;stroke-linecap:butt;stroke-linejoin:miter;stroke-miterlimit:10.43299961;stroke-dasharray:none;stroke-dashoffset:0;stroke-opacity:1"><path
             inkscape:connector-curvature="0"
             d="m 153.15,661.66 h -0.74 l -0.79,-2.08 c -0.21,-0.54 -0.52,-1.35 -0.6,-1.82 h -0.01 c -0.06,0.36 -0.32,1.05 -0.42,1.32 l -0.96,2.58 h -0.78 l 1.71,-4.43 h 0.88 z"
             font-size-adjust="none"
             font-stretch="normal"
             font-style="normal"
             font-variant="normal"
             font-weight="normal"
             letter-spacing="normal"
             stroke-miterlimit="10.433"
             word-spacing="normal"
             style="font-style:normal;font-variant:normal;font-weight:normal;font-stretch:normal;letter-spacing:normal;word-spacing:normal;text-anchor:start;fill:#000000;fill-opacity:1;fill-rule:evenodd;stroke:#000000;stroke-width:0;stroke-linecap:butt;stroke-linejoin:miter;stroke-miterlimit:10.43299961;stroke-dasharray:none;stroke-dashoffset:0;stroke-opacity:1"
             id="path3959" /><path
             inkscape:connector-curvature="0"
             d="m 155.64,660.17 v 0.01 0.01 0.01 0.01 0.01 0 0.01 0.01 0 0.01 0.01 0 0.01 0 0.01 0.01 0 0.01 h -0.01 v 0.01 0.01 0.01 h -0.01 v 0.01 h -0.01 v 0.01 h -0.01 l -0.01,0.01 v 0 h -0.01 -0.01 l -0.01,0.01 v 0 h -0.01 -0.01 v 0 h -0.01 v 0 h -0.01 -0.01 v 0 h -0.01 -0.01 v 0 h -0.01 -0.01 -0.01 -0.01 -0.01 -0.01 c -0.44,-0.44 -1.08,-0.45 -1.36,-0.45 v -0.25 c 0.17,0 0.63,0 1.01,0.2 v -3.56 c 0,-0.23 0,-0.32 -0.7,-0.32 h -0.26 v -0.25 c 0.12,0.01 0.98,0.03 1.24,0.03 0.21,0 1.09,-0.02 1.25,-0.03 v 0.25 h -0.27 c -0.7,0 -0.7,0.09 -0.7,0.32 z"
             font-size-adjust="none"
             font-stretch="normal"
             font-style="normal"
             font-variant="normal"
             font-weight="normal"
             letter-spacing="normal"
             stroke-miterlimit="10.433"
             word-spacing="normal"
             style="font-style:normal;font-variant:normal;font-weight:normal;font-stretch:normal;letter-spacing:normal;word-spacing:normal;text-anchor:start;fill:#000000;fill-opacity:1;fill-rule:evenodd;stroke:#000000;stroke-width:0;stroke-linecap:butt;stroke-linejoin:miter;stroke-miterlimit:10.43299961;stroke-dasharray:none;stroke-dashoffset:0;stroke-opacity:1"
             id="path3961" /></g>      </g>
      <g
         transform="translate(-14.412564,17.806388)"
         id="g4721">
        <ellipse
           ry="5.7144284"
           rx="5.7144289"
           cy="115.84277"
           cx="127.92715"
           id="path817-3-1-2-6-5"
           style="opacity:1;fill:none;fill-opacity:1;stroke:#000000;stroke-width:0.57114285;stroke-miterlimit:4;stroke-dasharray:none;stroke-dashoffset:0;stroke-opacity:1" />
        <g
           id="g4408"
           transform="matrix(1,0,0,-1,-26.057853,774.50777)"
           xml:space="preserve"
           stroke-miterlimit="10.433"
           font-style="normal"
           font-variant="normal"
           font-weight="normal"
           font-stretch="normal"
           font-size-adjust="none"
           letter-spacing="normal"
           word-spacing="normal"
           ns0:text="$\\mathsf{u}_{n}$"
           ns0:preamble="/home/nsrinivasan7/.config/inkscape/extensions/default_packages.tex"
           style="font-style:normal;font-variant:normal;font-weight:normal;font-stretch:normal;letter-spacing:normal;word-spacing:normal;text-anchor:start;fill:#000000;fill-opacity:1;fill-rule:evenodd;stroke:#000000;stroke-linecap:butt;stroke-linejoin:miter;stroke-miterlimit:10.43299961;stroke-dasharray:none;stroke-dashoffset:0;stroke-opacity:1"><path
             d="m 153.04,661.66 h -0.77 v -2.89 c 0,-0.75 -0.56,-1.1 -1.2,-1.1 -0.71,0 -0.78,0.26 -0.78,0.69 v 3.3 h -0.77 v -3.34 c 0,-0.72 0.23,-1.2 1.05,-1.2 0.53,0 1.24,0.16 1.73,0.59 v -0.48 h 0.74 z"
             font-size-adjust="none"
             font-stretch="normal"
             font-style="normal"
             font-variant="normal"
             font-weight="normal"
             letter-spacing="normal"
             stroke-miterlimit="10.433"
             word-spacing="normal"
             style="font-style:normal;font-variant:normal;font-weight:normal;font-stretch:normal;letter-spacing:normal;word-spacing:normal;text-anchor:start;fill:#000000;fill-opacity:1;fill-rule:evenodd;stroke:#000000;stroke-width:0;stroke-linecap:butt;stroke-linejoin:miter;stroke-miterlimit:10.43299961;stroke-dasharray:none;stroke-dashoffset:0;stroke-opacity:1"
             id="path4404"
             inkscape:connector-curvature="0" /><path
             d="m 154.71,656.18 v -0.01 -0.01 l -0.01,-0.01 v -0.01 -0.01 -0.01 l -0.01,-0.01 v -0.01 l -0.01,-0.02 v -0.03 l -0.01,-0.02 V 656.01 656 l -0.01,-0.01 v -0.01 -0.01 -0.01 l -0.01,-0.01 v -0.01 -0.01 0 -0.01 -0.01 0 -0.01 h -0.01 v 0 0 -0.01 0 c 0,-0.15 0.13,-0.22 0.24,-0.22 0.13,0 0.24,0.09 0.27,0.15 0.04,0.07 0.09,0.29 0.13,0.44 0.03,0.13 0.11,0.45 0.15,0.62 0.04,0.16 0.08,0.31 0.12,0.47 0.08,0.29 0.09,0.34 0.29,0.63 0.2,0.28 0.53,0.64 1.05,0.64 0.4,0 0.41,-0.35 0.41,-0.49 0,-0.42 -0.3,-1.19 -0.41,-1.48 -0.08,-0.2 -0.1,-0.26 -0.1,-0.38 0,-0.37 0.3,-0.6 0.66,-0.6 0.69,0 1,0.96 1,1.07 0,0.09 -0.09,0.09 -0.11,0.09 -0.1,0 -0.1,-0.04 -0.13,-0.12 -0.16,-0.56 -0.46,-0.84 -0.74,-0.84 -0.15,0 -0.18,0.09 -0.18,0.24 0,0.16 0.04,0.25 0.16,0.56 0.09,0.22 0.37,0.96 0.37,1.35 0,0.68 -0.53,0.8 -0.9,0.8 -0.58,0 -0.97,-0.36 -1.18,-0.64 -0.05,0.48 -0.46,0.64 -0.75,0.64 -0.3,0 -0.46,-0.22 -0.55,-0.38 -0.15,-0.26 -0.25,-0.66 -0.25,-0.69 0,-0.09 0.1,-0.09 0.12,-0.09 0.1,0 0.1,0.02 0.15,0.21 0.11,0.41 0.24,0.75 0.51,0.75 0.18,0 0.23,-0.15 0.23,-0.34 0,-0.13 -0.06,-0.39 -0.11,-0.58 -0.05,-0.19 -0.12,-0.48 -0.15,-0.63 z"
             font-size-adjust="none"
             font-stretch="normal"
             font-style="normal"
             font-variant="normal"
             font-weight="normal"
             letter-spacing="normal"
             stroke-miterlimit="10.433"
             word-spacing="normal"
             style="font-style:normal;font-variant:normal;font-weight:normal;font-stretch:normal;letter-spacing:normal;word-spacing:normal;text-anchor:start;fill:#000000;fill-opacity:1;fill-rule:evenodd;stroke:#000000;stroke-width:0;stroke-linecap:butt;stroke-linejoin:miter;stroke-miterlimit:10.43299961;stroke-dasharray:none;stroke-dashoffset:0;stroke-opacity:1"
             id="path4406"
             inkscape:connector-curvature="0" /></g>      </g>
      <g
         transform="translate(-14.412564,19.936309)"
         id="g4727">
        <ellipse
           ry="5.7144284"
           rx="5.7144289"
           cy="113.71285"
           cx="144.40962"
           id="path817-3-1-2-3-0-1"
           style="opacity:1;fill:none;fill-opacity:1;stroke:#000000;stroke-width:0.57114285;stroke-miterlimit:4;stroke-dasharray:none;stroke-dashoffset:0;stroke-opacity:1" />
        <g
           style="font-style:normal;font-variant:normal;font-weight:normal;font-stretch:normal;letter-spacing:normal;word-spacing:normal;text-anchor:start;fill:#000000;fill-opacity:1;fill-rule:evenodd;stroke:#000000;stroke-linecap:butt;stroke-linejoin:miter;stroke-miterlimit:10.43299961;stroke-dasharray:none;stroke-dashoffset:0;stroke-opacity:1"
           ns0:preamble="/home/nsrinivasan7/.config/inkscape/extensions/default_packages.tex"
           ns0:text="$\\mathsf{v}_{n}$"
           word-spacing="normal"
           letter-spacing="normal"
           font-size-adjust="none"
           font-stretch="normal"
           font-weight="normal"
           font-variant="normal"
           font-style="normal"
           stroke-miterlimit="10.433"
           xml:space="preserve"
           transform="matrix(1,0,0,-1,-8.9653777,772.37785)"
           id="g4613"><path
             id="path4609"
             style="font-style:normal;font-variant:normal;font-weight:normal;font-stretch:normal;letter-spacing:normal;word-spacing:normal;text-anchor:start;fill:#000000;fill-opacity:1;fill-rule:evenodd;stroke:#000000;stroke-width:0;stroke-linecap:butt;stroke-linejoin:miter;stroke-miterlimit:10.43299961;stroke-dasharray:none;stroke-dashoffset:0;stroke-opacity:1"
             word-spacing="normal"
             stroke-miterlimit="10.433"
             letter-spacing="normal"
             font-weight="normal"
             font-variant="normal"
             font-style="normal"
             font-stretch="normal"
             font-size-adjust="none"
             d="m 153.15,661.66 h -0.74 l -0.79,-2.08 c -0.21,-0.54 -0.52,-1.35 -0.6,-1.82 h -0.01 c -0.06,0.36 -0.32,1.05 -0.42,1.32 l -0.96,2.58 h -0.78 l 1.71,-4.43 h 0.88 z"
             inkscape:connector-curvature="0" /><path
             id="path4611"
             style="font-style:normal;font-variant:normal;font-weight:normal;font-stretch:normal;letter-spacing:normal;word-spacing:normal;text-anchor:start;fill:#000000;fill-opacity:1;fill-rule:evenodd;stroke:#000000;stroke-width:0;stroke-linecap:butt;stroke-linejoin:miter;stroke-miterlimit:10.43299961;stroke-dasharray:none;stroke-dashoffset:0;stroke-opacity:1"
             word-spacing="normal"
             stroke-miterlimit="10.433"
             letter-spacing="normal"
             font-weight="normal"
             font-variant="normal"
             font-style="normal"
             font-stretch="normal"
             font-size-adjust="none"
             d="m 154.16,656.18 v -0.01 l -0.01,-0.01 v -0.01 -0.01 l -0.01,-0.01 v -0.01 -0.01 -0.01 l -0.01,-0.02 -0.01,-0.03 v -0.02 l -0.01,-0.02 v -0.01 -0.01 -0.01 l -0.01,-0.01 v -0.01 -0.01 -0.01 -0.01 h -0.01 v -0.01 -0.01 0 -0.01 0 0 0 -0.01 0 c 0,-0.15 0.12,-0.22 0.24,-0.22 0.12,0 0.23,0.09 0.27,0.15 0.03,0.07 0.09,0.29 0.12,0.44 0.04,0.13 0.12,0.45 0.16,0.62 0.04,0.16 0.08,0.31 0.11,0.47 0.08,0.29 0.1,0.34 0.3,0.63 0.19,0.28 0.52,0.64 1.04,0.64 0.41,0 0.42,-0.35 0.42,-0.49 0,-0.42 -0.3,-1.19 -0.42,-1.48 -0.07,-0.2 -0.1,-0.26 -0.1,-0.38 0,-0.37 0.31,-0.6 0.66,-0.6 0.7,0 1.01,0.96 1.01,1.07 0,0.09 -0.09,0.09 -0.11,0.09 -0.1,0 -0.11,-0.04 -0.14,-0.12 -0.16,-0.56 -0.46,-0.84 -0.74,-0.84 -0.14,0 -0.17,0.09 -0.17,0.24 0,0.16 0.03,0.25 0.16,0.56 0.08,0.22 0.37,0.96 0.37,1.35 0,0.68 -0.54,0.8 -0.91,0.8 -0.58,0 -0.97,-0.36 -1.18,-0.64 -0.05,0.48 -0.46,0.64 -0.74,0.64 -0.3,0 -0.46,-0.22 -0.55,-0.38 -0.16,-0.26 -0.26,-0.66 -0.26,-0.69 0,-0.09 0.1,-0.09 0.12,-0.09 0.1,0 0.11,0.02 0.16,0.21 0.1,0.41 0.23,0.75 0.51,0.75 0.18,0 0.23,-0.15 0.23,-0.34 0,-0.13 -0.07,-0.39 -0.11,-0.58 -0.05,-0.19 -0.12,-0.48 -0.16,-0.63 z"
             inkscape:connector-curvature="0" /></g>      </g>
      <circle
         r="1.3229166"
         cy="98.148155"
         cx="120.93253"
         id="path4741"
         style="opacity:1;fill:#000000;fill-opacity:1;stroke:none;stroke-width:0.59499997;stroke-miterlimit:4;stroke-dasharray:none;stroke-dashoffset:0;stroke-opacity:1" />
      <circle
         r="1.3229166"
         cy="105.30599"
         cx="120.93252"
         id="path4741-9"
         style="opacity:1;fill:#000000;fill-opacity:1;stroke:none;stroke-width:0.59499997;stroke-miterlimit:4;stroke-dasharray:none;stroke-dashoffset:0;stroke-opacity:1" />
      <circle
         r="1.3229166"
         cy="119.62171"
         cx="120.93253"
         id="path4741-3"
         style="opacity:1;fill:#000000;fill-opacity:1;stroke:none;stroke-width:0.59499997;stroke-miterlimit:4;stroke-dasharray:none;stroke-dashoffset:0;stroke-opacity:1" />
      <circle
         r="1.3229166"
         cy="112.46386"
         cx="120.93253"
         id="path4741-7"
         style="opacity:1;fill:#000000;fill-opacity:1;stroke:none;stroke-width:0.59499997;stroke-miterlimit:4;stroke-dasharray:none;stroke-dashoffset:0;stroke-opacity:1" />
      <path
         inkscape:connector-curvature="0"
         id="path4770"
         d="M 58.208333,113.11457 104.51042,86.65624"
         style="fill:none;stroke:#000000;stroke-width:0.26458332px;stroke-linecap:butt;stroke-linejoin:miter;stroke-opacity:1" />
      <path
         inkscape:connector-curvature="0"
         id="path4772"
         d="M 59.531249,113.11457 121.70833,89.302072"
         style="fill:none;stroke:#000000;stroke-width:0.26458332px;stroke-linecap:butt;stroke-linejoin:miter;stroke-opacity:1" />
      <path
         inkscape:connector-curvature="0"
         id="path4774"
         d="m 59.531249,113.11457 47.625001,19.84375"
         style="fill:none;stroke:#000000;stroke-width:0.26458332px;stroke-linecap:butt;stroke-linejoin:miter;stroke-opacity:1" />
      <path
         inkscape:connector-curvature="0"
         id="path4776"
         d="m 58.208333,113.11457 67.468747,17.19792"
         style="fill:none;stroke:#000000;stroke-width:0.26458332px;stroke-linecap:butt;stroke-linejoin:miter;stroke-opacity:1" />
      <g
         id="g5038"
         transform="translate(8.472571,10.872288)">
        <ellipse
           ry="5.7144284"
           rx="5.7144289"
           cy="135.90437"
           cx="162.01576"
           id="path817-3-1-7-5-4"
           style="opacity:1;fill:none;fill-opacity:1;stroke:#000000;stroke-width:0.57114285;stroke-miterlimit:4;stroke-dasharray:none;stroke-dashoffset:0;stroke-opacity:1" />
        <g
           id="g4920"
           transform="matrix(1,0,0,-1,8.5707623,794.43937)"
           xml:space="preserve"
           stroke-miterlimit="10.433"
           font-style="normal"
           font-variant="normal"
           font-weight="normal"
           font-stretch="normal"
           font-size-adjust="none"
           letter-spacing="normal"
           word-spacing="normal"
           ns0:text="$\\mathsf{q}_{k}$"
           ns0:preamble="/home/nsrinivasan7/.config/inkscape/extensions/default_packages.tex"
           style="font-style:normal;font-variant:normal;font-weight:normal;font-stretch:normal;letter-spacing:normal;word-spacing:normal;text-anchor:start;fill:#000000;fill-opacity:1;fill-rule:evenodd;stroke:#000000;stroke-linecap:butt;stroke-linejoin:miter;stroke-miterlimit:10.43299961;stroke-dasharray:none;stroke-dashoffset:0;stroke-opacity:1"><path
             inkscape:connector-curvature="0"
             d="m 153.03,661.77 h -0.74 v -0.68 c -0.1,0.13 -0.59,0.68 -1.37,0.68 -0.99,0 -1.85,-0.99 -1.85,-2.34 0,-1.26 0.73,-2.31 1.68,-2.31 0.56,0 1.09,0.23 1.51,0.61 l -0.07,0.57 c -0.26,-0.4 -0.63,-0.57 -0.99,-0.57 -0.76,0 -1.35,0.78 -1.35,1.7 0,1.02 0.71,1.7 1.44,1.7 0.69,0 1,-0.71 1,-1.11 v -1.39 c 0,-0.18 0,-0.2 -0.1,-0.33 l 0.07,-0.57 v -2.43 h 0.77 z"
             font-size-adjust="none"
             font-stretch="normal"
             font-style="normal"
             font-variant="normal"
             font-weight="normal"
             letter-spacing="normal"
             stroke-miterlimit="10.433"
             word-spacing="normal"
             style="font-style:normal;font-variant:normal;font-weight:normal;font-stretch:normal;letter-spacing:normal;word-spacing:normal;text-anchor:start;fill:#000000;fill-opacity:1;fill-rule:evenodd;stroke:#000000;stroke-width:0;stroke-linecap:butt;stroke-linejoin:miter;stroke-miterlimit:10.43299961;stroke-dasharray:none;stroke-dashoffset:0;stroke-opacity:1"
             id="path4916" /><path
             inkscape:connector-curvature="0"
             d="m 156.04,660.37 h 0.01 v 0 0 0 0.01 0 0 0 0 0.01 0 0 0.01 0 l 0.01,0.01 v 0 0.01 0 0.01 0.01 0 l 0.01,0.01 v 0 0.01 0 0 0.01 0 0 0 0 0.01 0 0 0 0 0 0 0 0 c 0,0.04 -0.03,0.1 -0.11,0.1 -0.14,0 -0.72,-0.06 -0.89,-0.07 -0.06,-0.01 -0.15,-0.01 -0.15,-0.16 0,-0.1 0.09,-0.1 0.18,-0.1 0.33,0 0.33,-0.05 0.33,-0.1 0,-0.05 -0.01,-0.09 -0.03,-0.16 l -0.98,-3.94 c -0.03,-0.13 -0.03,-0.14 -0.03,-0.16 0,-0.1 0.08,-0.22 0.23,-0.22 0.19,0 0.28,0.14 0.32,0.29 0.02,0.03 0.32,1.26 0.35,1.36 0.49,-0.05 0.89,-0.21 0.89,-0.58 0,-0.03 0,-0.07 -0.02,-0.14 -0.02,-0.1 -0.02,-0.13 -0.02,-0.21 0,-0.5 0.4,-0.72 0.74,-0.72 0.67,0 0.88,1.06 0.88,1.07 0,0.09 -0.09,0.09 -0.11,0.09 -0.1,0 -0.11,-0.04 -0.14,-0.17 -0.08,-0.3 -0.27,-0.79 -0.61,-0.79 -0.19,0 -0.25,0.17 -0.25,0.36 0,0.12 0,0.13 0.04,0.31 0.01,0.02 0.04,0.14 0.04,0.22 0,0.62 -0.84,0.72 -1.13,0.74 0.2,0.12 0.46,0.35 0.58,0.46 0.35,0.33 0.7,0.66 1.09,0.66 0.09,0 0.18,-0.02 0.23,-0.09 -0.3,-0.05 -0.36,-0.29 -0.36,-0.39 0,-0.15 0.12,-0.26 0.28,-0.26 0.19,0 0.4,0.15 0.4,0.45 0,0.23 -0.17,0.49 -0.54,0.49 -0.4,0 -0.76,-0.29 -1.12,-0.62 -0.29,-0.28 -0.52,-0.49 -0.81,-0.61 z"
             font-size-adjust="none"
             font-stretch="normal"
             font-style="normal"
             font-variant="normal"
             font-weight="normal"
             letter-spacing="normal"
             stroke-miterlimit="10.433"
             word-spacing="normal"
             style="font-style:normal;font-variant:normal;font-weight:normal;font-stretch:normal;letter-spacing:normal;word-spacing:normal;text-anchor:start;fill:#000000;fill-opacity:1;fill-rule:evenodd;stroke:#000000;stroke-width:0;stroke-linecap:butt;stroke-linejoin:miter;stroke-miterlimit:10.43299961;stroke-dasharray:none;stroke-dashoffset:0;stroke-opacity:1"
             id="path4918" /></g>      </g>
      <g
         id="g5155"
         transform="matrix(1,0,0,-1,17.373333,736.94883)"
         xml:space="preserve"
         stroke-miterlimit="10.433"
         font-style="normal"
         font-variant="normal"
         font-weight="normal"
         font-stretch="normal"
         font-size-adjust="none"
         letter-spacing="normal"
         word-spacing="normal"
         ns0:text="$\\mathsf{q}_{1}$"
         ns0:preamble="/home/nsrinivasan7/.config/inkscape/extensions/default_packages.tex"
         style="font-style:normal;font-variant:normal;font-weight:normal;font-stretch:normal;letter-spacing:normal;word-spacing:normal;text-anchor:start;fill:#000000;fill-opacity:1;fill-rule:evenodd;stroke:#000000;stroke-linecap:butt;stroke-linejoin:miter;stroke-miterlimit:10.43299961;stroke-dasharray:none;stroke-dashoffset:0;stroke-opacity:1"><path
           inkscape:connector-curvature="0"
           d="m 153.03,661.77 h -0.74 v -0.68 c -0.1,0.13 -0.59,0.68 -1.37,0.68 -0.99,0 -1.85,-0.99 -1.85,-2.34 0,-1.26 0.73,-2.31 1.68,-2.31 0.56,0 1.09,0.23 1.51,0.61 l -0.07,0.57 c -0.26,-0.4 -0.63,-0.57 -0.99,-0.57 -0.76,0 -1.35,0.78 -1.35,1.7 0,1.02 0.71,1.7 1.44,1.7 0.69,0 1,-0.71 1,-1.11 v -1.39 c 0,-0.18 0,-0.2 -0.1,-0.33 l 0.07,-0.57 v -2.43 h 0.77 z"
           font-size-adjust="none"
           font-stretch="normal"
           font-style="normal"
           font-variant="normal"
           font-weight="normal"
           letter-spacing="normal"
           stroke-miterlimit="10.433"
           word-spacing="normal"
           style="font-style:normal;font-variant:normal;font-weight:normal;font-stretch:normal;letter-spacing:normal;word-spacing:normal;text-anchor:start;fill:#000000;fill-opacity:1;fill-rule:evenodd;stroke:#000000;stroke-width:0;stroke-linecap:butt;stroke-linejoin:miter;stroke-miterlimit:10.43299961;stroke-dasharray:none;stroke-dashoffset:0;stroke-opacity:1"
           id="path5151" /><path
           inkscape:connector-curvature="0"
           d="m 156.2,660.17 v 0.01 0.01 0.01 0.01 0.01 0 0.01 0.01 0 0.01 0.01 0 0.01 0 l -0.01,0.01 v 0.01 0 0.01 0 0.01 l -0.01,0.01 v 0.01 0 l -0.01,0.01 v 0 l -0.01,0.01 v 0 l -0.01,0.01 h -0.01 -0.01 -0.01 v 0.01 h -0.01 -0.01 v 0 h -0.01 v 0 h -0.01 v 0 h -0.01 -0.01 -0.01 v 0 h -0.01 -0.01 -0.01 v 0 h -0.01 -0.01 -0.01 c -0.45,-0.44 -1.08,-0.45 -1.37,-0.45 v -0.25 c 0.17,0 0.63,0 1.01,0.2 v -3.56 c 0,-0.23 0,-0.32 -0.69,-0.32 h -0.27 v -0.25 c 0.13,0.01 0.98,0.03 1.24,0.03 0.22,0 1.1,-0.02 1.25,-0.03 v 0.25 h -0.26 c -0.7,0 -0.7,0.09 -0.7,0.32 z"
           font-size-adjust="none"
           font-stretch="normal"
           font-style="normal"
           font-variant="normal"
           font-weight="normal"
           letter-spacing="normal"
           stroke-miterlimit="10.433"
           word-spacing="normal"
           style="font-style:normal;font-variant:normal;font-weight:normal;font-stretch:normal;letter-spacing:normal;word-spacing:normal;text-anchor:start;fill:#000000;fill-opacity:1;fill-rule:evenodd;stroke:#000000;stroke-width:0;stroke-linecap:butt;stroke-linejoin:miter;stroke-miterlimit:10.43299961;stroke-dasharray:none;stroke-dashoffset:0;stroke-opacity:1"
           id="path5153" /></g>      <g
         transform="translate(14.945075,5.23)"
         id="g5324">
        <circle
           style="opacity:1;fill:#000000;fill-opacity:1;stroke:none;stroke-width:0.59499997;stroke-miterlimit:4;stroke-dasharray:none;stroke-dashoffset:0;stroke-opacity:1"
           id="path4741-74"
           cx="155.54326"
           cy="84.730949"
           r="1.3229166" />
        <circle
           style="opacity:1;fill:#000000;fill-opacity:1;stroke:none;stroke-width:0.59499997;stroke-miterlimit:4;stroke-dasharray:none;stroke-dashoffset:0;stroke-opacity:1"
           id="path4741-9-4"
           cx="155.54326"
           cy="91.888786"
           r="1.3229166" />
        <circle
           style="opacity:1;fill:#000000;fill-opacity:1;stroke:none;stroke-width:0.59499997;stroke-miterlimit:4;stroke-dasharray:none;stroke-dashoffset:0;stroke-opacity:1"
           id="path4741-3-3"
           cx="155.54326"
           cy="106.20451"
           r="1.3229166" />
        <circle
           style="opacity:1;fill:#000000;fill-opacity:1;stroke:none;stroke-width:0.59499997;stroke-miterlimit:4;stroke-dasharray:none;stroke-dashoffset:0;stroke-opacity:1"
           id="path4741-7-0"
           cx="155.54326"
           cy="99.046654"
           r="1.3229166" />
        <circle
           style="opacity:1;fill:#000000;fill-opacity:1;stroke:none;stroke-width:0.59499997;stroke-miterlimit:4;stroke-dasharray:none;stroke-dashoffset:0;stroke-opacity:1"
           id="path4741-74-7"
           cx="155.54326"
           cy="113.4604"
           r="1.3229166" />
        <circle
           style="opacity:1;fill:#000000;fill-opacity:1;stroke:none;stroke-width:0.59499997;stroke-miterlimit:4;stroke-dasharray:none;stroke-dashoffset:0;stroke-opacity:1"
           id="path4741-9-4-8"
           cx="155.54326"
           cy="120.61823"
           r="1.3229166" />
        <circle
           style="opacity:1;fill:#000000;fill-opacity:1;stroke:none;stroke-width:0.59499997;stroke-miterlimit:4;stroke-dasharray:none;stroke-dashoffset:0;stroke-opacity:1"
           id="path4741-7-0-8"
           cx="155.54326"
           cy="127.77609"
           r="1.3229166" />
      </g>
      <path
         inkscape:connector-curvature="0"
         id="path5333"
         d="m 31.75,132.95832 116.41666,-23.8125"
         style="fill:none;stroke:#000000;stroke-width:0.26458332px;stroke-linecap:butt;stroke-linejoin:miter;stroke-opacity:1" />
      <rect
         y="107.82291"
         x="146.84375"
         height="3.96875"
         width="3.96875"
         id="rect5335"
         style="opacity:1;fill:#000000;fill-opacity:1;stroke:none;stroke-width:0.59499997;stroke-miterlimit:4;stroke-dasharray:none;stroke-dashoffset:0;stroke-opacity:1" />
      <path
         inkscape:connector-curvature="0"
         id="path5337"
         d="m 132.29166,89.302073 14.55209,19.843747"
         style="fill:none;stroke:#000000;stroke-width:0.26458332px;stroke-linecap:butt;stroke-linejoin:miter;stroke-opacity:1" />
      <path
         inkscape:connector-curvature="0"
         id="path5339"
         d="m 115.09375,87.979156 31.75,21.166664"
         style="fill:none;stroke:#000000;stroke-width:0.26458332px;stroke-linecap:butt;stroke-linejoin:miter;stroke-opacity:1" />
      <path
         inkscape:connector-curvature="0"
         id="path5343"
         d="m 119.0625,132.95832 27.78125,-23.8125"
         style="fill:none;stroke:#000000;stroke-width:0.26458332px;stroke-linecap:butt;stroke-linejoin:miter;stroke-opacity:1" />
      <path
         inkscape:connector-curvature="0"
         id="path5345"
         d="m 134.9375,130.31249 11.90625,-19.84375"
         style="fill:none;stroke:#000000;stroke-width:0.26458332px;stroke-linecap:butt;stroke-linejoin:miter;stroke-opacity:1" />
      <path
         inkscape:connector-curvature="0"
         id="path5349"
         d="m 149.48958,109.14582 15.875,-29.104164"
         style="fill:none;stroke:#000000;stroke-width:0.26458332px;stroke-linecap:butt;stroke-linejoin:miter;stroke-opacity:1" />
      <path
         inkscape:connector-curvature="0"
         id="path5351"
         d="m 149.48958,109.14582 15.875,34.39584"
         style="fill:none;stroke:#000000;stroke-width:0.26458332px;stroke-linecap:butt;stroke-linejoin:miter;stroke-opacity:1" />
      <g
         transform="translate(79.555993,18.243498)"
         id="g5906">
        <g
           style="font-style:normal;font-variant:normal;font-weight:normal;font-stretch:normal;letter-spacing:normal;word-spacing:normal;text-anchor:start;fill:#000000;fill-opacity:1;fill-rule:evenodd;stroke:#000000;stroke-linecap:butt;stroke-linejoin:miter;stroke-miterlimit:10.43299961;stroke-dasharray:none;stroke-dashoffset:0;stroke-opacity:1"
           ns0:preamble="/home/nsrinivasan7/.config/inkscape/extensions/default_packages.tex"
           ns0:text="$\\mathsf{t}$"
           word-spacing="normal"
           letter-spacing="normal"
           font-size-adjust="none"
           font-stretch="normal"
           font-weight="normal"
           font-variant="normal"
           font-style="normal"
           stroke-miterlimit="10.433"
           xml:space="preserve"
           transform="matrix(1,0,0,-1,-81.839326,724.71816)"
           id="g5752"><path
             id="path5750"
             style="font-style:normal;font-variant:normal;font-weight:normal;font-stretch:normal;letter-spacing:normal;word-spacing:normal;text-anchor:start;fill:#000000;fill-opacity:1;fill-rule:evenodd;stroke:#000000;stroke-width:0;stroke-linecap:butt;stroke-linejoin:miter;stroke-miterlimit:10.43299961;stroke-dasharray:none;stroke-dashoffset:0;stroke-opacity:1"
             word-spacing="normal"
             stroke-miterlimit="10.433"
             letter-spacing="normal"
             font-weight="normal"
             font-variant="normal"
             font-style="normal"
             font-stretch="normal"
             font-size-adjust="none"
             d="m 150.45,661.08 h 1.41 v 0.58 h -1.41 v 1.26 h -0.68 v -1.26 h -0.87 v -0.58 h 0.84 v -2.66 c 0,-0.6 0.14,-1.3 0.82,-1.3 0.7,0 1.21,0.25 1.46,0.38 l -0.16,0.59 c -0.26,-0.21 -0.58,-0.33 -0.9,-0.33 -0.37,0 -0.51,0.3 -0.51,0.83 z"
             inkscape:connector-curvature="0" /></g>        <ellipse
           ry="5.7144284"
           rx="5.7144289"
           cy="64.698158"
           cx="68.620674"
           id="path817-3-1-3-3"
           style="opacity:1;fill:none;fill-opacity:1;stroke:#000000;stroke-width:0.57114285;stroke-miterlimit:4;stroke-dasharray:none;stroke-dashoffset:0;stroke-opacity:1" />
      </g>
      <g
         transform="translate(2.930008,63.811672)"
         id="g5911">
        <g
           style="font-style:normal;font-variant:normal;font-weight:normal;font-stretch:normal;letter-spacing:normal;word-spacing:normal;text-anchor:start;fill:#000000;fill-opacity:1;fill-rule:evenodd;stroke:#000000;stroke-linecap:butt;stroke-linejoin:miter;stroke-miterlimit:10.43299961;stroke-dasharray:none;stroke-dashoffset:0;stroke-opacity:1"
           id="g5480"
           transform="matrix(1,0,0,-1,-5.2833413,731.66832)"
           xml:space="preserve"
           stroke-miterlimit="10.433"
           font-style="normal"
           font-variant="normal"
           font-weight="normal"
           font-stretch="normal"
           font-size-adjust="none"
           letter-spacing="normal"
           word-spacing="normal"
           ns0:text="$\\mathsf{R}$"
           ns0:preamble="/home/nsrinivasan7/.config/inkscape/extensions/default_packages.tex"><path
             style="fill:#000000;stroke-width:0"
             inkscape:connector-curvature="0"
             d="m 152.88,660.48 0.1,0.03 0.09,0.03 0.09,0.03 0.09,0.04 0.09,0.04 0.08,0.04 0.08,0.04 0.08,0.05 0.08,0.04 0.07,0.05 0.07,0.05 0.07,0.05 0.07,0.06 0.06,0.05 0.06,0.06 0.06,0.06 0.05,0.06 0.05,0.06 0.05,0.06 0.04,0.06 0.04,0.07 0.04,0.07 0.04,0.06 0.03,0.07 0.03,0.07 0.02,0.07 0.02,0.07 0.02,0.08 0.01,0.07 0.01,0.07 0.01,0.08 v 0.07 c 0,0.99 -1.09,1.86 -2.51,1.86 l -0.11,-0.56 c 1.15,0 1.81,-0.59 1.81,-1.3 0,-0.7 -0.64,-1.29 -1.81,-1.29 h -1.44 v 2.59 h 1.44 l 0.11,0.56 h -2.4 v -6.92 h 0.85 v 3.16 h 1.58 l 1.87,-3.16 h 0.89 z"
             id="path5478" /></g>        <ellipse
           ry="5.7144284"
           rx="5.7144289"
           cy="70.978317"
           cx="146.98166"
           id="path817-3-1-3-1"
           style="opacity:1;fill:none;fill-opacity:1;stroke:#000000;stroke-width:0.57114285;stroke-miterlimit:4;stroke-dasharray:none;stroke-dashoffset:0;stroke-opacity:1" />
      </g>
      <path
         inkscape:connector-curvature="0"
         id="path5913"
         d="m 148.16666,87.979156 v 21.166664 l 1e-5,21.16667"
         style="fill:none;stroke:#000000;stroke-width:0.26458332px;stroke-linecap:butt;stroke-linejoin:miter;stroke-opacity:1" />
      <ellipse
         style="opacity:1;fill:none;fill-opacity:1;stroke:#000000;stroke-width:0.57114285;stroke-miterlimit:4;stroke-dasharray:none;stroke-dashoffset:0;stroke-opacity:1"
         id="path817-3-1-7-5-49"
         cx="198.52251"
         cy="76.346237"
         rx="5.7144289"
         ry="5.7144284" />
      <ellipse
         style="opacity:1;fill:none;fill-opacity:1;stroke:#000000;stroke-width:0.57114285;stroke-miterlimit:4;stroke-dasharray:none;stroke-dashoffset:0;stroke-opacity:1"
         id="path817-3-1-7-5-4-0"
         cx="198.52251"
         cy="145.16949"
         rx="5.7144289"
         ry="5.7144284" />
      <g
         transform="translate(42.97924,3.6228343)"
         id="g5324-4">
        <circle
           style="opacity:1;fill:#000000;fill-opacity:1;stroke:none;stroke-width:0.59499997;stroke-miterlimit:4;stroke-dasharray:none;stroke-dashoffset:0;stroke-opacity:1"
           id="path4741-74-9"
           cx="155.54326"
           cy="84.730949"
           r="1.3229166" />
        <circle
           style="opacity:1;fill:#000000;fill-opacity:1;stroke:none;stroke-width:0.59499997;stroke-miterlimit:4;stroke-dasharray:none;stroke-dashoffset:0;stroke-opacity:1"
           id="path4741-9-4-5"
           cx="155.54326"
           cy="91.888786"
           r="1.3229166" />
        <circle
           style="opacity:1;fill:#000000;fill-opacity:1;stroke:none;stroke-width:0.59499997;stroke-miterlimit:4;stroke-dasharray:none;stroke-dashoffset:0;stroke-opacity:1"
           id="path4741-3-3-0"
           cx="155.54326"
           cy="106.20451"
           r="1.3229166" />
        <circle
           style="opacity:1;fill:#000000;fill-opacity:1;stroke:none;stroke-width:0.59499997;stroke-miterlimit:4;stroke-dasharray:none;stroke-dashoffset:0;stroke-opacity:1"
           id="path4741-7-0-4"
           cx="155.54326"
           cy="99.046654"
           r="1.3229166" />
        <circle
           style="opacity:1;fill:#000000;fill-opacity:1;stroke:none;stroke-width:0.59499997;stroke-miterlimit:4;stroke-dasharray:none;stroke-dashoffset:0;stroke-opacity:1"
           id="path4741-74-7-8"
           cx="155.54326"
           cy="113.4604"
           r="1.3229166" />
        <circle
           style="opacity:1;fill:#000000;fill-opacity:1;stroke:none;stroke-width:0.59499997;stroke-miterlimit:4;stroke-dasharray:none;stroke-dashoffset:0;stroke-opacity:1"
           id="path4741-9-4-8-7"
           cx="155.54326"
           cy="120.61823"
           r="1.3229166" />
        <circle
           style="opacity:1;fill:#000000;fill-opacity:1;stroke:none;stroke-width:0.59499997;stroke-miterlimit:4;stroke-dasharray:none;stroke-dashoffset:0;stroke-opacity:1"
           id="path4741-7-0-8-1"
           cx="155.54326"
           cy="127.77609"
           r="1.3229166" />
      </g>
      <g
         style="stroke-linejoin:miter;letter-spacing:normal;stroke-opacity:1;fill-opacity:1;fill-rule:evenodd;stroke-linecap:butt;stroke-dashoffset:0;text-anchor:start;word-spacing:normal;stroke:#000000;font-stretch:normal;stroke-miterlimit:10.43299961;font-variant:normal;stroke-dasharray:none;font-weight:normal;font-style:normal;fill:black"
         ns0:preamble="/home/nsrinivasan7/.config/inkscape/extensions/default_packages.tex"
         ns0:text="$\\mathsf{z}_{1}$"
         text-anchor="start"
         word-spacing="normal"
         letter-spacing="normal"
         font-size-adjust="none"
         font-stretch="normal"
         font-weight="normal"
         font-variant="normal"
         font-style="normal"
         fill-opacity="1"
         fill-rule="evenodd"
         fill="black"
         stroke-opacity="1"
         stroke-dashoffset="0"
         stroke-dasharray="none"
         stroke-miterlimit="10.433"
         stroke-linejoin="miter"
         stroke-linecap="butt"
         stroke="black"
         xml:space="preserve"
         transform="matrix(1.000000,  0,  0,  -1.000000, 44.942500, 736.141660)"
         id="g6129"><path
           id="path6125"
           style="stroke-linejoin:miter;letter-spacing:normal;stroke-opacity:1;fill-opacity:1;fill-rule:evenodd;stroke-linecap:butt;stroke-dashoffset:0;text-anchor:start;word-spacing:normal;stroke:#000000;font-stretch:normal;stroke-miterlimit:10.43299961;font-variant:normal;stroke-dasharray:none;font-weight:normal;font-style:normal;fill:black"
           word-spacing="normal"
           stroke-miterlimit="10.433"
           letter-spacing="normal"
           font-weight="normal"
           font-variant="normal"
           font-style="normal"
           font-stretch="normal"
           font-size-adjust="none"
           fill="black"
           stroke-width="0"
           d="M152.7,661.27 V661.66 H149.13 V661.07 H150.51 C150.63,661.07,150.75,661.08,150.87,661.08 H151.65 L148.99,657.64 V657.23 H152.71 V657.85 H151.25 C151.13,657.85,151.01,657.84,150.89,657.84 H150.04 Z " /><path
           id="path6127"
           style="stroke-linejoin:miter;letter-spacing:normal;stroke-opacity:1;fill-opacity:1;fill-rule:evenodd;stroke-linecap:butt;stroke-dashoffset:0;text-anchor:start;word-spacing:normal;stroke:#000000;font-stretch:normal;stroke-miterlimit:10.43299961;font-variant:normal;stroke-dasharray:none;font-weight:normal;font-style:normal;fill:black"
           word-spacing="normal"
           stroke-miterlimit="10.433"
           letter-spacing="normal"
           font-weight="normal"
           font-variant="normal"
           font-style="normal"
           font-stretch="normal"
           font-size-adjust="none"
           fill="black"
           stroke-width="0"
           d="M155.38,660.17 L155.38,660.18 L155.38,660.19 L155.38,660.2 L155.38,660.21 L155.38,660.22 L155.38,660.22 L155.38,660.23 L155.38,660.24 L155.38,660.24 L155.38,660.25 L155.38,660.26 L155.38,660.26 L155.38,660.27 L155.38,660.27 L155.38,660.28 L155.38,660.29 L155.37,660.29 L155.37,660.3 L155.37,660.3 L155.37,660.31 L155.37,660.32 L155.36,660.33 L155.36,660.33 L155.35,660.34 L155.35,660.34 L155.34,660.35 L155.34,660.35 L155.33,660.36 L155.32,660.36 L155.32,660.36 L155.31,660.36 L155.3,660.37 L155.29,660.37 L155.29,660.37 L155.28,660.37 L155.28,660.37 L155.27,660.37 L155.26,660.37 L155.26,660.37 L155.25,660.37 L155.24,660.37 L155.24,660.37 L155.23,660.37 L155.22,660.37 L155.21,660.37 L155.21,660.37 L155.2,660.37 L155.19,660.37 L155.18,660.37 L155.17,660.37 C154.73,659.93,154.09,659.92,153.8,659.92 V659.67 C153.97,659.67,154.43,659.67,154.82,659.87 V656.31 C154.82,656.08,154.82,655.99,154.12,655.99 H153.85 V655.74 C153.98,655.75,154.84,655.77,155.1,655.77 C155.31,655.77,156.19,655.75,156.34,655.74 V655.99 H156.08 C155.38,655.99,155.38,656.08,155.38,656.31 Z " /></g>      <g
         id="g6433"
         transform="matrix(1.000000,  0,  0,  -1.000000, 45.717502, 804.469490)"
         xml:space="preserve"
         stroke="black"
         stroke-linecap="butt"
         stroke-linejoin="miter"
         stroke-miterlimit="10.433"
         stroke-dasharray="none"
         stroke-dashoffset="0"
         stroke-opacity="1"
         fill="black"
         fill-rule="evenodd"
         fill-opacity="1"
         font-style="normal"
         font-variant="normal"
         font-weight="normal"
         font-stretch="normal"
         font-size-adjust="none"
         letter-spacing="normal"
         word-spacing="normal"
         text-anchor="start"
         ns0:text="$\\mathsf{z}_{k}$"
         ns0:preamble="/home/nsrinivasan7/.config/inkscape/extensions/default_packages.tex"
         style="stroke-linejoin:miter;letter-spacing:normal;stroke-opacity:1;fill-opacity:1;fill-rule:evenodd;stroke-linecap:butt;stroke-dashoffset:0;text-anchor:start;word-spacing:normal;stroke:#000000;font-stretch:normal;stroke-miterlimit:10.43299961;font-variant:normal;stroke-dasharray:none;font-weight:normal;font-style:normal;fill:black"><path
           d="M152.7,661.27 V661.66 H149.13 V661.07 H150.51 C150.63,661.07,150.75,661.08,150.87,661.08 H151.65 L148.99,657.64 V657.23 H152.71 V657.85 H151.25 C151.13,657.85,151.01,657.84,150.89,657.84 H150.04 Z "
           stroke-width="0"
           fill="black"
           font-size-adjust="none"
           font-stretch="normal"
           font-style="normal"
           font-variant="normal"
           font-weight="normal"
           letter-spacing="normal"
           stroke-miterlimit="10.433"
           word-spacing="normal"
           style="stroke-linejoin:miter;letter-spacing:normal;stroke-opacity:1;fill-opacity:1;fill-rule:evenodd;stroke-linecap:butt;stroke-dashoffset:0;text-anchor:start;word-spacing:normal;stroke:#000000;font-stretch:normal;stroke-miterlimit:10.43299961;font-variant:normal;stroke-dasharray:none;font-weight:normal;font-style:normal;fill:black"
           id="path6429" /><path
           d="M155.23,660.37 L155.23,660.37 L155.23,660.37 L155.23,660.37 L155.23,660.37 L155.23,660.38 L155.23,660.38 L155.23,660.38 L155.23,660.38 L155.23,660.38 L155.23,660.39 L155.23,660.39 L155.24,660.39 L155.24,660.4 L155.24,660.4 L155.24,660.41 L155.24,660.41 L155.24,660.42 L155.24,660.42 L155.24,660.43 L155.25,660.44 L155.25,660.44 L155.25,660.45 L155.25,660.45 L155.25,660.46 L155.25,660.46 L155.25,660.46 L155.25,660.47 L155.25,660.47 L155.25,660.47 L155.25,660.47 L155.25,660.47 L155.26,660.48 L155.26,660.48 L155.26,660.48 L155.26,660.48 L155.26,660.48 L155.26,660.48 L155.26,660.48 L155.26,660.48 L155.26,660.48 C155.26,660.52,155.23,660.58,155.14,660.58 C155.01,660.58,154.43,660.52,154.25,660.51 C154.2,660.5,154.1,660.5,154.1,660.35 C154.1,660.25,154.2,660.25,154.28,660.25 C154.61,660.25,154.61,660.2,154.61,660.15 C154.61,660.1,154.6,660.06,154.59,659.99 L153.6,656.05 C153.57,655.92,153.57,655.91,153.57,655.89 C153.57,655.79,153.65,655.67,153.8,655.67 C153.99,655.67,154.08,655.81,154.13,655.96 C154.14,655.99,154.44,657.22,154.47,657.32 C154.96,657.27,155.36,657.11,155.36,656.74 C155.36,656.71,155.36,656.67,155.35,656.6 C155.32,656.5,155.32,656.47,155.32,656.39 C155.32,655.89,155.72,655.67,156.06,655.67 C156.73,655.67,156.94,656.73,156.94,656.74 C156.94,656.83,156.85,656.83,156.83,656.83 C156.73,656.83,156.73,656.79,156.69,656.66 C156.61,656.36,156.42,655.87,156.08,655.87 C155.89,655.87,155.84,656.04,155.84,656.23 C155.84,656.35,155.84,656.36,155.88,656.54 C155.88,656.56,155.91,656.68,155.91,656.76 C155.91,657.38,155.07,657.48,154.78,657.5 C154.98,657.62,155.24,657.85,155.36,657.96 C155.72,658.29,156.07,658.62,156.46,658.62 C156.54,658.62,156.63,658.6,156.68,658.53 C156.38,658.48,156.32,658.24,156.32,658.14 C156.32,657.99,156.44,657.88,156.6,657.88 C156.79,657.88,157,658.03,157,658.33 C157,658.56,156.83,658.82,156.46,658.82 C156.07,658.82,155.7,658.53,155.35,658.2 C155.05,657.92,154.82,657.71,154.54,657.59 Z "
           stroke-width="0"
           fill="black"
           font-size-adjust="none"
           font-stretch="normal"
           font-style="normal"
           font-variant="normal"
           font-weight="normal"
           letter-spacing="normal"
           stroke-miterlimit="10.433"
           word-spacing="normal"
           style="stroke-linejoin:miter;letter-spacing:normal;stroke-opacity:1;fill-opacity:1;fill-rule:evenodd;stroke-linecap:butt;stroke-dashoffset:0;text-anchor:start;word-spacing:normal;stroke:#000000;font-stretch:normal;stroke-miterlimit:10.43299961;font-variant:normal;stroke-dasharray:none;font-weight:normal;font-style:normal;fill:black"
           id="path6431" /></g>    </g>
  </g>
</svg>
