<?xml version="1.0" encoding="UTF-8" standalone="no"?>
<!-- Created with Inkscape (http://www.inkscape.org/) -->
<svg
   xmlns:dc="http://purl.org/dc/elements/1.1/"
   xmlns:cc="http://web.resource.org/cc/"
   xmlns:rdf="http://www.w3.org/1999/02/22-rdf-syntax-ns#"
   xmlns:svg="http://www.w3.org/2000/svg"
   xmlns="http://www.w3.org/2000/svg"
   xmlns:sodipodi="http://sodipodi.sourceforge.net/DTD/sodipodi-0.dtd"
   xmlns:inkscape="http://www.inkscape.org/namespaces/inkscape"
   width="444.04999"
   height="120"
   id="svg2"
   sodipodi:version="0.32"
   inkscape:version="0.45.1"
   sodipodi:docbase="/Users/bryan/Documents/Teaching/Escher Wiki/Wiki Art"
   sodipodi:docname="San-Idelfonso3f.svg"
   inkscape:output_extension="org.inkscape.output.svg.inkscape"
   version="1.0">
  <defs
     id="defs4">
    <marker
       inkscape:stockid="Arrow2Lend"
       orient="auto"
       refY="0.0"
       refX="0.0"
       id="Arrow2Lend"
       style="overflow:visible;">
      <path
         id="path7146"
         style="font-size:12.0;fill-rule:evenodd;stroke-width:0.62500000;stroke-linejoin:round;"
         d="M 8.7185878,4.0337352 L -2.2072895,0.016013256 L 8.7185884,-4.0017078 C 6.9730900,-1.6296469 6.9831476,1.6157441 8.7185878,4.0337352 z "
         transform="scale(1.1) rotate(180) translate(1,0)" />
    </marker>
  </defs>
  <sodipodi:namedview
     id="base"
     pagecolor="#ffffff"
     bordercolor="#666666"
     borderopacity="1.0"
     gridtolerance="10000"
     guidetolerance="10"
     objecttolerance="10"
     inkscape:pageopacity="0.0"
     inkscape:pageshadow="2"
     inkscape:zoom="1"
     inkscape:cx="240.52272"
     inkscape:cy="71.5"
     inkscape:document-units="px"
     inkscape:current-layer="layer1"
     showgrid="true"
     inkscape:window-width="995"
     inkscape:window-height="630"
     inkscape:window-x="54"
     inkscape:window-y="22"
     width="444.05px"
     height="120px" />
  <metadata
     id="metadata7">
    <rdf:RDF>
      <cc:Work
         rdf:about="">
        <dc:format>image/svg+xml</dc:format>
        <dc:type
           rdf:resource="http://purl.org/dc/dcmitype/StillImage" />
      </cc:Work>
    </rdf:RDF>
  </metadata>
  <g
     inkscape:label="Layer 1"
     inkscape:groupmode="layer"
     id="layer1"
     transform="translate(-119.45456,-362.36218)">
    <path
       style="fill:none;fill-rule:evenodd;stroke:#ff0000;stroke-width:2;stroke-linecap:butt;stroke-linejoin:miter;stroke-miterlimit:4;stroke-dasharray:6, 2;stroke-dashoffset:0;stroke-opacity:1"
       d="M 348.95456,493.36218 L 348.95456,353.36218"
       id="path4179" />
    <path
       id="path4181"
       d="M 387.95456,494.36218 L 387.95456,354.36218"
       style="fill:none;fill-rule:evenodd;stroke:#ff0000;stroke-width:2;stroke-linecap:butt;stroke-linejoin:miter;stroke-miterlimit:4;stroke-dasharray:6, 2;stroke-dashoffset:0;stroke-opacity:1" />
    <path
       id="path4183"
       d="M 428.95456,493.36218 L 428.95456,353.36218"
       style="fill:none;fill-rule:evenodd;stroke:#ff0000;stroke-width:2;stroke-linecap:butt;stroke-linejoin:miter;stroke-miterlimit:4;stroke-dasharray:6, 2;stroke-dashoffset:0;stroke-opacity:1" />
    <path
       style="fill:none;fill-rule:evenodd;stroke:#ff0000;stroke-width:2;stroke-linecap:butt;stroke-linejoin:miter;stroke-miterlimit:4;stroke-dasharray:6, 2;stroke-dashoffset:0;stroke-opacity:1"
       d="M 467.95456,494.36218 L 467.95456,354.36218"
       id="path4185" />
    <path
       style="fill:none;fill-rule:evenodd;stroke:#ff0000;stroke-width:2;stroke-linecap:butt;stroke-linejoin:miter;stroke-miterlimit:4;stroke-dasharray:6, 2;stroke-dashoffset:0;stroke-opacity:1"
       d="M 508.95456,493.36218 L 508.95456,353.36218"
       id="path4187" />
    <path
       id="path4189"
       d="M 547.95456,494.36218 L 547.95456,354.36218"
       style="fill:none;fill-rule:evenodd;stroke:#ff0000;stroke-width:2;stroke-linecap:butt;stroke-linejoin:miter;stroke-miterlimit:4;stroke-dasharray:6, 2;stroke-dashoffset:0;stroke-opacity:1" />
    <path
       style="fill:#000000;fill-rule:evenodd;stroke:#000000;stroke-width:1px;stroke-linecap:butt;stroke-linejoin:miter;stroke-opacity:1"
       d="M 149.45459,381.86218 L 109.45459,421.86218 C 138.47183,392.84494 159.91648,392.32407 189.45459,421.86218 L 149.45459,381.86218 z "
       id="path2176"
       sodipodi:nodetypes="cccc" />
    <path
       sodipodi:nodetypes="cccc"
       id="path2178"
       d="M 148.90912,462.86218 L 108.90912,422.86218 C 137.92636,451.87942 159.37101,452.40029 188.90912,422.86218 L 148.90912,462.86218 z "
       style="fill:#000000;fill-rule:evenodd;stroke:#000000;stroke-width:1px;stroke-linecap:butt;stroke-linejoin:miter;stroke-opacity:1" />
    <path
       sodipodi:nodetypes="cccc"
       id="path2180"
       d="M 548.45456,382.86218 L 508.45456,422.86218 C 537.4718,393.84494 558.91645,393.32407 588.45456,422.86218 L 548.45456,382.86218 z "
       style="fill:#000000;fill-rule:evenodd;stroke:#000000;stroke-width:1px;stroke-linecap:butt;stroke-linejoin:miter;stroke-opacity:1" />
    <path
       style="fill:#000000;fill-rule:evenodd;stroke:#000000;stroke-width:1px;stroke-linecap:butt;stroke-linejoin:miter;stroke-opacity:1"
       d="M 548.45456,462.86218 L 508.45456,422.86218 C 537.4718,451.87942 558.91645,452.40029 588.45456,422.86218 L 548.45456,462.86218 z "
       id="path2182"
       sodipodi:nodetypes="cccc" />
    <path
       style="fill:#000000;fill-rule:evenodd;stroke:#000000;stroke-width:1px;stroke-linecap:butt;stroke-linejoin:miter;stroke-opacity:1"
       d="M 468.45456,382.86218 L 428.45456,422.86218 C 457.4718,393.84494 478.91645,393.32407 508.45456,422.86218 L 468.45456,382.86218 z "
       id="path2184"
       sodipodi:nodetypes="cccc" />
    <path
       sodipodi:nodetypes="cccc"
       id="path2186"
       d="M 468.45456,462.86218 L 428.45456,422.86218 C 457.4718,451.87942 478.91645,452.40029 508.45456,422.86218 L 468.45456,462.86218 z "
       style="fill:#000000;fill-rule:evenodd;stroke:#000000;stroke-width:1px;stroke-linecap:butt;stroke-linejoin:miter;stroke-opacity:1" />
    <path
       sodipodi:nodetypes="cccc"
       id="path2188"
       d="M 388.45456,382.86218 L 348.45456,422.86218 C 377.4718,393.84494 398.91645,393.32407 428.45456,422.86218 L 388.45456,382.86218 z "
       style="fill:#000000;fill-rule:evenodd;stroke:#000000;stroke-width:1px;stroke-linecap:butt;stroke-linejoin:miter;stroke-opacity:1" />
    <path
       style="fill:#000000;fill-rule:evenodd;stroke:#000000;stroke-width:1px;stroke-linecap:butt;stroke-linejoin:miter;stroke-opacity:1"
       d="M 388.45456,462.86218 L 348.45456,422.86218 C 377.4718,451.87942 398.91645,452.40029 428.45456,422.86218 L 388.45456,462.86218 z "
       id="path2190"
       sodipodi:nodetypes="cccc" />
    <path
       style="fill:#000000;fill-rule:evenodd;stroke:#000000;stroke-width:1px;stroke-linecap:butt;stroke-linejoin:miter;stroke-opacity:1"
       d="M 308.45456,382.86218 L 268.45456,422.86218 C 297.4718,393.84494 318.91645,393.32407 348.45456,422.86218 L 308.45456,382.86218 z "
       id="path2192"
       sodipodi:nodetypes="cccc" />
    <path
       sodipodi:nodetypes="cccc"
       id="path2194"
       d="M 308.45456,462.86218 L 268.45456,422.86218 C 297.4718,451.87942 318.91645,452.40029 348.45456,422.86218 L 308.45456,462.86218 z "
       style="fill:#000000;fill-rule:evenodd;stroke:#000000;stroke-width:1px;stroke-linecap:butt;stroke-linejoin:miter;stroke-opacity:1" />
    <path
       sodipodi:nodetypes="cccc"
       id="path2196"
       d="M 228.45456,382.86218 L 188.45456,422.86218 C 217.4718,393.84494 238.91645,393.32407 268.45456,422.86218 L 228.45456,382.86218 z "
       style="fill:#000000;fill-rule:evenodd;stroke:#000000;stroke-width:1px;stroke-linecap:butt;stroke-linejoin:miter;stroke-opacity:1" />
    <path
       style="fill:#000000;fill-rule:evenodd;stroke:#000000;stroke-width:1px;stroke-linecap:butt;stroke-linejoin:miter;stroke-opacity:1"
       d="M 228.45456,462.86218 L 188.45456,422.86218 C 217.4718,451.87942 238.91645,452.40029 268.45456,422.86218 L 228.45456,462.86218 z "
       id="path2198"
       sodipodi:nodetypes="cccc" />
    <path
       style="fill:none;fill-rule:evenodd;stroke:#000000;stroke-width:1px;stroke-linecap:butt;stroke-linejoin:miter;stroke-opacity:1"
       d="M 108.95456,382.36218 L 588.95456,382.36218"
       id="path2200" />
    <path
       style="fill:none;fill-rule:evenodd;stroke:#000000;stroke-width:1px;stroke-linecap:butt;stroke-linejoin:miter;stroke-opacity:1"
       d="M 108.95456,462.36218 L 588.95456,462.36218"
       id="path2202" />
    <path
       id="path2204"
       d="M 108.95456,468.36218 L 588.95456,468.36218"
       style="fill:none;fill-rule:evenodd;stroke:#000000;stroke-width:1px;stroke-linecap:butt;stroke-linejoin:miter;stroke-opacity:1" />
    <path
       id="path2206"
       d="M 108.95456,376.36218 L 588.95456,376.36218"
       style="fill:none;fill-rule:evenodd;stroke:#000000;stroke-width:1px;stroke-linecap:butt;stroke-linejoin:miter;stroke-opacity:1" />
    <path
       id="path2226"
       d="M 323.45456,422.86218 L 588.45456,422.86218"
       style="fill:none;fill-rule:evenodd;stroke:#ff0000;stroke-width:2;stroke-linecap:butt;stroke-linejoin:miter;stroke-miterlimit:4;stroke-dasharray:6, 2;stroke-dashoffset:0;stroke-opacity:1"
       sodipodi:nodetypes="cc" />
    <path
       style="fill:#ff0000;fill-rule:evenodd;stroke:none;stroke-width:0.50000006px;stroke-linecap:butt;stroke-linejoin:miter;stroke-opacity:1"
       d="M 547.95456,412.36218 L 542.95456,422.36218 L 547.95456,432.36218 L 552.95456,422.36218 L 547.95456,412.36218 z "
       id="path4199" />
    <path
       id="path5170"
       d="M 507.95456,412.36218 L 502.95456,422.36218 L 507.95456,432.36218 L 512.95456,422.36218 L 507.95456,412.36218 z "
       style="fill:#ff0000;fill-rule:evenodd;stroke:none;stroke-width:0.50000006px;stroke-linecap:butt;stroke-linejoin:miter;stroke-opacity:1" />
    <path
       style="fill:#ff0000;fill-rule:evenodd;stroke:none;stroke-width:0.50000006px;stroke-linecap:butt;stroke-linejoin:miter;stroke-opacity:1"
       d="M 467.95456,412.36218 L 462.95456,422.36218 L 467.95456,432.36218 L 472.95456,422.36218 L 467.95456,412.36218 z "
       id="path5172" />
    <path
       id="path5174"
       d="M 427.95456,412.36218 L 422.95456,422.36218 L 427.95456,432.36218 L 432.95456,422.36218 L 427.95456,412.36218 z "
       style="fill:#ff0000;fill-rule:evenodd;stroke:none;stroke-width:0.50000006px;stroke-linecap:butt;stroke-linejoin:miter;stroke-opacity:1" />
    <path
       style="fill:#ff0000;fill-rule:evenodd;stroke:none;stroke-width:0.50000006px;stroke-linecap:butt;stroke-linejoin:miter;stroke-opacity:1"
       d="M 387.95456,412.36218 L 382.95456,422.36218 L 387.95456,432.36218 L 392.95456,422.36218 L 387.95456,412.36218 z "
       id="path5176" />
    <path
       id="path5178"
       d="M 347.95456,412.36218 L 342.95456,422.36218 L 347.95456,432.36218 L 352.95456,422.36218 L 347.95456,412.36218 z "
       style="fill:#ff0000;fill-rule:evenodd;stroke:none;stroke-width:0.50000006px;stroke-linecap:butt;stroke-linejoin:miter;stroke-opacity:1" />
    <g
       id="g7324"
       transform="translate(238,201)">
      <path
         id="path5182"
         d="M 170.45456,251.36218 L 250.45456,251.36218"
         style="fill:none;fill-rule:evenodd;stroke:#ff0000;stroke-width:2;stroke-linecap:butt;stroke-linejoin:miter;marker-end:none;stroke-miterlimit:4;stroke-dasharray:none;stroke-opacity:1" />
      <path
         transform="translate(119.45456,362.36218)"
         id="path7322"
         d="M 120,-120 L 130,-110 L 120,-100"
         style="fill:#ff0000;stroke:#ff0000;stroke-width:2;stroke-miterlimit:4;stroke-dasharray:none;stroke-dashoffset:0" />
    </g>
  </g>
</svg>
