%!PS-Adobe-3.0 EPSF-3.0
%%Creator: cairo 1.13.1 (http://cairographics.org)
%%CreationDate: Mon Nov  7 15:07:12 2016
%%Pages: 1
%%DocumentData: Clean7Bit
%%LanguageLevel: 2
%%BoundingBox: 0 -1 453 366
%%EndComments
%%BeginProlog
save
50 dict begin
/q { gsave } bind def
/Q { grestore } bind def
/cm { 6 array astore concat } bind def
/w { setlinewidth } bind def
/J { setlinecap } bind def
/j { setlinejoin } bind def
/M { setmiterlimit } bind def
/d { setdash } bind def
/m { moveto } bind def
/l { lineto } bind def
/c { curveto } bind def
/h { closepath } bind def
/re { exch dup neg 3 1 roll 5 3 roll moveto 0 rlineto
      0 exch rlineto 0 rlineto closepath } bind def
/S { stroke } bind def
/f { fill } bind def
/f* { eofill } bind def
/n { newpath } bind def
/W { clip } bind def
/W* { eoclip } bind def
/BT { } bind def
/ET { } bind def
/pdfmark where { pop globaldict /?pdfmark /exec load put }
    { globaldict begin /?pdfmark /pop load def /pdfmark
    /cleartomark load def end } ifelse
/BDC { mark 3 1 roll /BDC pdfmark } bind def
/EMC { mark /EMC pdfmark } bind def
/cairo_store_point { /cairo_point_y exch def /cairo_point_x exch def } def
/Tj { show currentpoint cairo_store_point } bind def
/TJ {
  {
    dup
    type /stringtype eq
    { show } { -0.001 mul 0 cairo_font_matrix dtransform rmoveto } ifelse
  } forall
  currentpoint cairo_store_point
} bind def
/cairo_selectfont { cairo_font_matrix aload pop pop pop 0 0 6 array astore
    cairo_font exch selectfont cairo_point_x cairo_point_y moveto } bind def
/Tf { pop /cairo_font exch def /cairo_font_matrix where
      { pop cairo_selectfont } if } bind def
/Td { matrix translate cairo_font_matrix matrix concatmatrix dup
      /cairo_font_matrix exch def dup 4 get exch 5 get cairo_store_point
      /cairo_font where { pop cairo_selectfont } if } bind def
/Tm { 2 copy 8 2 roll 6 array astore /cairo_font_matrix exch def
      cairo_store_point /cairo_font where { pop cairo_selectfont } if } bind def
/g { setgray } bind def
/rg { setrgbcolor } bind def
/d1 { setcachedevice } bind def
%%EndProlog
%%BeginSetup
%%EndSetup
%%Page: 1 1
%%BeginPageSetup
%%PageBoundingBox: 0 -1 453 366
%%EndPageSetup
q 0 -1 453 367 rectclip q
0.356863 0.607843 0.835294 rg
1.854584 w
0 J
0 j
[] 0.0 d
4 M q 0.862535 0 0 -1 0 365.713715 cm
310.373 361.078 m 514.377 157.074 l S Q
q 0.862535 0 0 -1 0 365.713715 cm
199.095 361.078 m 13.636 157.074 l S Q
0 g
0.927292 w
q 0.862535 0 0 -1 0 365.713715 cm
254.736 8.707 m 13.636 361.078 l 254.736 119.98 l S Q
q 0.862535 0 0 -1 0 365.713715 cm
13.636 361.078 m 254.736 231.258 l 495.832 361.078 l S Q
q 0.862535 0 0 -1 0 365.713715 cm
254.736 119.98 m 495.832 361.078 l S Q
q 0.862535 0 0 -1 0 365.713715 cm
254.736 8.707 m 495.832 361.078 l S Q
228.469 360.139 m 228.5 360.061 228.535 359.999 228.535 359.901 c 228.535
 359.823 228.484 359.585 228.18 359.565 c 228.18 359.253 l 228.484 359.272
 229.105 359.292 229.34 359.292 c 229.594 359.292 230.031 359.272 230.367
 359.253 c 230.367 359.565 l 230.047 359.565 229.797 359.565 229.594 359.764
 c 229.441 359.921 227.762 362.698 227.645 362.897 c 228.734 364.612 l 229.105
 365.163 229.527 365.378 230.016 365.397 c 230.016 365.714 l 229.746 365.694
 229.41 365.675 229.141 365.675 c 228.855 365.675 228.367 365.694 228.148
 365.714 c 228.148 365.397 l 228.316 365.378 228.469 365.28 228.469 364.964
 c 228.469 364.749 228.383 364.593 228.316 364.491 c 227.457 363.151 l 226.449
 364.788 l 226.348 364.925 226.348 365.003 226.348 365.046 c 226.348 365.261
 226.5 365.378 226.699 365.397 c 226.699 365.714 l 226.434 365.694 225.777
 365.675 225.559 365.675 c 225.27 365.675 224.852 365.694 224.531 365.714
 c 224.531 365.397 l 225.152 365.397 225.238 365.319 225.523 364.827 c 227.02
 362.444 l 225.777 360.491 l 225.473 360.018 225.121 359.585 224.414 359.565
 c 224.414 359.253 l 224.664 359.272 225.004 359.292 225.27 359.292 c 225.625
 359.292 226.113 359.272 226.262 359.253 c 226.262 359.565 l 226.047 359.585
 225.926 359.764 225.926 359.999 c 225.926 360.218 226.012 360.354 226.18
 360.632 c 226.516 361.143 226.836 361.675 227.188 362.186 c h
228.469 360.139 m f
233.18 362.964 m 233.18 363.198 233.18 363.198 232.961 363.198 c 232.473
 362.647 231.797 362.647 231.496 362.647 c 231.496 362.331 l 231.664 362.331
 232.168 362.331 232.574 362.569 c 232.574 358.097 l 232.574 357.8 232.574
 357.682 231.832 357.682 c 231.547 357.682 l 231.547 357.37 l 231.68 357.37
 232.605 357.409 232.875 357.409 c 233.109 357.409 234.051 357.37 234.219
 357.37 c 234.219 357.682 l 233.934 357.682 l 233.18 357.682 233.18 357.8
 233.18 358.097 c h
233.18 362.964 m f
228.754 246.241 m 228.785 246.163 228.82 246.104 228.82 246.003 c 228.82
 245.925 228.77 245.69 228.465 245.671 c 228.465 245.354 l 228.77 245.374
 229.391 245.393 229.629 245.393 c 229.879 245.393 230.316 245.374 230.652
 245.354 c 230.652 245.671 l 230.332 245.671 230.082 245.671 229.879 245.866
 c 229.727 246.022 228.047 248.804 227.93 248.999 c 229.023 250.714 l 229.391
 251.264 229.812 251.479 230.301 251.499 c 230.301 251.815 l 230.031 251.796
 229.695 251.776 229.426 251.776 c 229.141 251.776 228.652 251.796 228.434
 251.815 c 228.434 251.499 l 228.602 251.479 228.754 251.382 228.754 251.069
 c 228.754 250.85 228.668 250.694 228.602 250.593 c 227.742 249.257 l 226.734
 250.889 l 226.633 251.026 226.633 251.108 226.633 251.147 c 226.633 251.362
 226.785 251.479 226.988 251.499 c 226.988 251.815 l 226.719 251.796 226.062
 251.776 225.844 251.776 c 225.559 251.776 225.137 251.796 224.816 251.815
 c 224.816 251.499 l 225.438 251.499 225.523 251.421 225.809 250.929 c 227.305
 248.546 l 226.062 246.597 l 225.758 246.124 225.406 245.69 224.699 245.671
 c 224.699 245.354 l 224.953 245.374 225.289 245.393 225.559 245.393 c 225.91
 245.393 226.398 245.374 226.551 245.354 c 226.551 245.671 l 226.332 245.69
 226.211 245.866 226.211 246.104 c 226.211 246.319 226.297 246.456 226.465
 246.733 c 226.801 247.245 227.121 247.776 227.473 248.288 c h
228.754 246.241 m f
234.742 245.065 m 234.488 245.065 l 234.473 244.87 234.387 244.358 234.289
 244.276 c 234.238 244.218 233.664 244.218 233.547 244.218 c 232.168 244.218
 l 232.957 245.026 233.227 245.284 233.664 245.698 c 234.219 246.21 234.742
 246.761 234.742 247.589 c 234.742 248.651 233.949 249.304 232.992 249.304
 c 232.066 249.304 231.43 248.534 231.43 247.725 c 231.43 247.292 231.746
 247.233 231.832 247.233 c 232 247.233 232.219 247.389 232.219 247.706 c
 232.219 247.862 232.168 248.179 231.781 248.179 c 232.016 248.788 232.523
 248.987 232.875 248.987 c 233.633 248.987 234.02 248.296 234.02 247.589
 c 234.02 246.819 233.547 246.229 233.312 245.913 c 231.512 243.804 l 231.43
 243.725 231.43 243.706 231.43 243.472 c 234.523 243.472 l h
234.742 245.065 m f
359.141 247.6 m 359.176 247.522 359.211 247.464 359.211 247.366 c 359.211
 247.288 359.16 247.05 358.852 247.03 c 358.852 246.714 l 359.16 246.733
 359.789 246.753 360.023 246.753 c 360.281 246.753 360.723 246.733 361.062
 246.714 c 361.062 247.03 l 360.738 247.03 360.484 247.03 360.281 247.229
 c 360.129 247.386 358.43 250.163 358.309 250.358 c 359.414 252.073 l 359.789
 252.624 360.211 252.843 360.703 252.862 c 360.703 253.179 l 360.434 253.159
 360.094 253.139 359.82 253.139 c 359.531 253.139 359.039 253.159 358.82
 253.179 c 358.82 252.862 l 358.988 252.843 359.141 252.745 359.141 252.429
 c 359.141 252.214 359.055 252.054 358.988 251.956 c 358.121 250.616 l 357.102
 252.253 l 357 252.389 357 252.468 357 252.507 c 357 252.725 357.152 252.843
 357.355 252.862 c 357.355 253.179 l 357.086 253.159 356.422 253.139 356.203
 253.139 c 355.914 253.139 355.488 253.159 355.164 253.179 c 355.164 252.862
 l 355.793 252.862 355.879 252.784 356.168 252.292 c 357.68 249.905 l 356.422
 247.956 l 356.117 247.483 355.762 247.05 355.047 247.03 c 355.047 246.714
 l 355.301 246.733 355.641 246.753 355.914 246.753 c 356.27 246.753 356.762
 246.733 356.914 246.714 c 356.914 247.03 l 356.695 247.05 356.574 247.229
 356.574 247.464 c 356.574 247.682 356.66 247.819 356.832 248.093 c 357.172
 248.608 357.492 249.139 357.852 249.651 c h
359.141 247.6 m f
365.379 246.268 m 365.379 246.585 l 364.531 246.585 l 364.531 250.507 l
 364.531 250.682 364.531 250.761 364.379 250.761 c 364.273 250.761 364.242
 250.761 364.172 250.624 c 361.656 246.585 l 361.656 246.268 l 363.902 246.268
 l 363.902 245.561 l 363.902 245.245 363.902 245.147 363.273 245.147 c 363.07
 245.147 l 363.07 244.831 l 363.461 244.85 363.934 244.87 364.207 244.87
 c 364.496 244.87 364.973 244.85 365.363 244.831 c 365.363 245.147 l 365.16
 245.147 l 364.531 245.147 364.531 245.245 364.531 245.561 c 364.531 246.268
 l h
363.953 249.796 m 363.953 246.585 l 361.945 246.585 l h
363.953 249.796 m f
0.828 27.62 m 0.828 23.323 l 0 23.323 l 0 22.671 l 0.34 22.69 1.055 22.714
 1.504 22.714 c 1.977 22.714 2.691 22.69 3.012 22.671 c 3.012 23.323 l 2.184
 23.323 l 2.184 26.225 l 2.184 27.753 3.234 28.429 3.988 28.429 c 4.383 
28.429 4.648 28.143 4.648 27.077 c 4.648 23.323 l 3.82 23.323 l 3.82 22.671
 l 4.156 22.69 4.871 22.714 5.344 22.714 c 5.812 22.714 6.508 22.69 6.848
 22.671 c 6.848 23.323 l 6.02 23.323 l 6.02 26.225 l 6.02 27.753 7.055 28.429
 7.809 28.429 c 8.223 28.429 8.484 28.143 8.484 27.077 c 8.484 23.323 l 
7.656 23.323 l 7.656 22.671 l 7.996 22.69 8.711 22.714 9.164 22.714 c 9.633
 22.714 10.348 22.69 10.688 22.671 c 10.688 23.323 l 9.859 23.323 l 9.859
 26.925 l 9.859 28.362 9.238 28.929 7.996 28.929 c 6.906 28.929 6.285 28.233
 5.965 27.6 c 5.738 28.886 4.629 28.929 4.176 28.929 c 3.125 28.929 2.445
 28.296 2.051 27.425 c 2.051 28.929 l 0 28.819 l 0 28.167 l 0.734 28.167
 0.828 28.167 0.828 27.62 c h
0.828 27.62 m f
13.754 26.78 m 13.754 27.042 13.754 27.042 13.508 27.042 c 12.965 26.429
 12.211 26.429 11.871 26.429 c 11.871 26.081 l 12.062 26.081 12.625 26.081
 13.078 26.343 c 13.078 21.389 l 13.078 21.065 13.078 20.932 12.25 20.932
 c 11.93 20.932 l 11.93 20.585 l 12.078 20.585 13.113 20.628 13.414 20.628
 c 13.68 20.628 14.73 20.585 14.922 20.585 c 14.922 20.932 l 14.602 20.932
 l 13.754 20.932 13.754 21.065 13.754 21.389 c h
13.754 26.78 m f
438.004 19.097 m 438.004 14.8 l 437.176 14.8 l 437.176 14.147 l 437.516
 14.167 438.23 14.19 438.684 14.19 c 439.152 14.19 439.867 14.167 440.188
 14.147 c 440.188 14.8 l 439.359 14.8 l 439.359 17.702 l 439.359 19.229 
440.414 19.905 441.164 19.905 c 441.562 19.905 441.824 19.62 441.824 18.554
 c 441.824 14.8 l 440.996 14.8 l 440.996 14.147 l 441.336 14.167 442.051
 14.19 442.52 14.19 c 442.992 14.19 443.688 14.167 444.027 14.147 c 444.027
 14.8 l 443.199 14.8 l 443.199 17.702 l 443.199 19.229 444.23 19.905 444.984
 19.905 c 445.398 19.905 445.664 19.62 445.664 18.554 c 445.664 14.8 l 444.836
 14.8 l 444.836 14.147 l 445.172 14.167 445.887 14.19 446.34 14.19 c 446.809
 14.19 447.523 14.167 447.863 14.147 c 447.863 14.8 l 447.035 14.8 l 447.035
 18.397 l 447.035 19.839 446.414 20.405 445.172 20.405 c 444.082 20.405 
443.461 19.706 443.141 19.077 c 442.914 20.362 441.805 20.405 441.355 20.405
 c 440.301 20.405 439.621 19.772 439.227 18.901 c 439.227 20.405 l 437.176
 20.296 l 437.176 19.643 l 437.91 19.643 438.004 19.643 438.004 19.097 c
 h
438.004 19.097 m f
452.359 13.827 m 452.078 13.827 l 452.059 13.608 451.965 13.042 451.852
 12.956 c 451.797 12.889 451.156 12.889 451.027 12.889 c 449.484 12.889 
l 450.367 13.784 450.668 14.065 451.156 14.526 c 451.777 15.093 452.359 
15.702 452.359 16.62 c 452.359 17.796 451.477 18.514 450.406 18.514 c 449.371
 18.514 448.656 17.667 448.656 16.772 c 448.656 16.292 449.012 16.225 449.105
 16.225 c 449.293 16.225 449.539 16.401 449.539 16.749 c 449.539 16.925 
449.484 17.272 449.051 17.272 c 449.312 17.948 449.879 18.167 450.273 18.167
 c 451.121 18.167 451.551 17.405 451.551 16.62 c 451.551 15.768 451.027 
15.112 450.762 14.764 c 448.75 12.432 l 448.656 12.343 448.656 12.323 448.656
 12.061 c 452.117 12.061 l h
452.359 13.827 m f
127.508 261.862 m 127.508 261.444 l 127.641 261.444 127.809 261.444 127.918
 261.432 c 128.086 261.389 128.086 261.276 128.086 261.085 c 128.086 257.557
 l 128.086 257.112 127.977 256.472 127.52 256.472 c 127.387 256.472 127.328
 256.499 127.219 256.526 c 127.363 256.651 127.398 256.847 127.398 256.972
 c 127.398 257.28 127.195 257.53 126.918 257.53 c 126.629 257.53 126.438
 257.28 126.438 256.956 c 126.438 256.456 126.906 256.151 127.531 256.151
 c 128.195 256.151 128.914 256.624 128.914 257.557 c 128.914 261.932 l h
128.914 263.425 m 128.914 263.8 128.648 264.108 128.324 264.108 c 127.988
 264.108 127.727 263.8 127.727 263.425 c 127.727 263.034 127.988 262.729
 128.324 262.729 c 128.648 262.729 128.914 263.034 128.914 263.425 c h
128.914 263.425 m f
131.355 259.718 m 131.355 259.886 131.355 259.886 131.199 259.886 c 130.852
 259.495 130.371 259.495 130.152 259.495 c 130.152 259.272 l 130.273 259.272
 130.633 259.272 130.922 259.44 c 130.922 256.276 l 130.922 256.069 130.922
 255.983 130.395 255.983 c 130.191 255.983 l 130.191 255.761 l 130.285 255.761
 130.945 255.788 131.141 255.788 c 131.309 255.788 131.98 255.761 132.102
 255.761 c 132.102 255.983 l 131.898 255.983 l 131.355 255.983 131.355 256.069
 131.355 256.276 c h
131.355 259.718 m f
134.41 259.718 m 134.41 259.886 134.41 259.886 134.254 259.886 c 133.906
 259.495 133.426 259.495 133.207 259.495 c 133.207 259.272 l 133.328 259.272
 133.691 259.272 133.977 259.44 c 133.977 256.276 l 133.977 256.069 133.977
 255.983 133.449 255.983 c 133.246 255.983 l 133.246 255.761 l 133.34 255.761
 134.004 255.788 134.195 255.788 c 134.363 255.788 135.035 255.761 135.156
 255.761 c 135.156 255.983 l 134.953 255.983 l 134.41 255.983 134.41 256.069
 134.41 256.276 c h
134.41 259.718 m f
143.453 260.847 m 143.57 260.847 143.715 260.847 143.715 261.014 c 143.715
 261.194 143.57 261.194 143.465 261.194 c 138.871 261.194 l 138.766 261.194
 138.621 261.194 138.621 261.014 c 138.621 260.847 138.766 260.847 138.871
 260.847 c h
143.465 259.116 m 143.57 259.116 143.715 259.116 143.715 259.3 c 143.715
 259.468 143.57 259.468 143.453 259.468 c 138.871 259.468 l 138.766 259.468
 138.621 259.468 138.621 259.3 c 138.621 259.116 138.766 259.116 138.871
 259.116 c h
143.465 259.116 m f
148.504 261.069 m 149.129 261.307 149.574 261.921 149.574 262.632 c 149.574
 263.354 148.898 263.858 148.168 263.858 c 147.398 263.858 146.809 263.327
 146.809 262.643 c 146.809 262.35 146.977 262.182 147.203 262.182 c 147.434
 262.182 147.59 262.378 147.59 262.643 c 147.59 263.077 147.23 263.077 147.121
 263.077 c 147.348 263.522 147.855 263.632 148.129 263.632 c 148.453 263.632
 148.875 263.436 148.875 262.643 c 148.875 262.534 148.852 262.018 148.66
 261.628 c 148.43 261.194 148.168 261.167 147.973 261.167 c 147.914 261.151
 147.734 261.139 147.672 261.139 c 147.613 261.124 147.566 261.112 147.566
 261.026 c 147.566 260.929 147.613 260.929 147.746 260.929 c 148.082 260.929
 l 148.707 260.929 148.996 260.331 148.996 259.452 c 148.996 258.241 148.469
 257.991 148.129 257.991 c 147.793 257.991 147.215 258.143 146.953 258.659
 c 147.215 258.616 147.457 258.811 147.457 259.147 c 147.457 259.468 147.254
 259.647 147.035 259.647 c 146.844 259.647 146.605 259.522 146.605 259.132
 c 146.605 258.323 147.312 257.737 148.156 257.737 c 149.094 257.737 149.789
 258.546 149.789 259.452 c 149.789 260.179 149.297 260.874 148.504 261.069
 c h
148.504 261.069 m f
151.871 204.405 m 151.871 203.968 l 152.008 203.968 152.184 203.968 152.293
 203.956 c 152.469 203.913 152.469 203.796 152.469 203.593 c 152.469 199.929
 l 152.469 199.464 152.355 198.796 151.883 198.796 c 151.746 198.796 151.684
 198.827 151.57 198.854 c 151.719 198.987 151.758 199.186 151.758 199.319
 c 151.758 199.636 151.543 199.897 151.258 199.897 c 150.957 199.897 150.758
 199.636 150.758 199.304 c 150.758 198.784 151.246 198.464 151.895 198.464
 c 152.582 198.464 153.332 198.956 153.332 199.929 c 153.332 204.475 l h
153.332 206.026 m 153.332 206.417 153.059 206.737 152.719 206.737 c 152.371
 206.737 152.094 206.417 152.094 206.026 c 152.094 205.62 152.371 205.304
 152.719 205.304 c 153.059 205.304 153.332 205.62 153.332 206.026 c h
153.332 206.026 m f
155.871 202.175 m 155.871 202.35 155.871 202.35 155.707 202.35 c 155.344
 201.944 154.844 201.944 154.621 201.944 c 154.621 201.71 l 154.746 201.71
 155.121 201.71 155.418 201.886 c 155.418 198.597 l 155.418 198.378 155.418
 198.292 154.871 198.292 c 154.656 198.292 l 154.656 198.061 l 154.758 198.061
 155.445 198.089 155.645 198.089 c 155.82 198.089 156.52 198.061 156.645
 198.061 c 156.645 198.292 l 156.434 198.292 l 155.871 198.292 155.871 198.378
 155.871 198.597 c h
155.871 202.175 m f
158.707 200.218 m 159.145 200.218 159.457 199.87 159.457 199.175 c 159.457
 198.378 159.047 198.132 158.734 198.132 c 158.508 198.132 158.008 198.206
 157.785 198.597 c 158.047 198.597 158.109 198.815 158.109 198.96 c 158.109
 199.163 157.973 199.307 157.797 199.307 c 157.648 199.307 157.484 199.19
 157.484 198.929 c 157.484 198.323 158.059 197.929 158.734 197.929 c 159.508
 197.929 160.047 198.538 160.047 199.175 c 160.047 199.682 159.695 200.19
 159.082 200.335 c 159.66 200.581 159.871 201.061 159.871 201.464 c 159.871
 201.972 159.371 202.35 158.746 202.35 c 158.133 202.35 157.66 202.003 157.66
 201.479 c 157.66 201.261 157.785 201.147 157.945 201.147 c 158.121 201.147
 158.234 201.292 158.234 201.464 c 158.234 201.655 158.121 201.8 157.945
 201.811 c 158.145 202.089 158.52 202.159 158.734 202.159 c 158.984 202.159
 159.332 202.014 159.332 201.464 c 159.332 201.19 159.258 200.886 159.109
 200.698 c 158.934 200.452 158.77 200.436 158.496 200.409 c 158.359 200.393
 158.348 200.393 158.32 200.393 c 158.309 200.393 158.258 200.378 158.258
 200.307 c 158.258 200.218 158.309 200.218 158.41 200.218 c h
158.707 200.218 m f
168.445 203.347 m 168.57 203.347 168.723 203.347 168.723 203.522 c 168.723
 203.71 168.57 203.71 168.457 203.71 c 163.684 203.71 l 163.57 203.71 163.422
 203.71 163.422 203.522 c 163.422 203.347 163.57 203.347 163.684 203.347
 c h
168.457 201.55 m 168.57 201.55 168.723 201.55 168.723 201.737 c 168.723
 201.913 168.57 201.913 168.445 201.913 c 163.684 201.913 l 163.57 201.913
 163.422 201.913 163.422 201.737 c 163.422 201.55 163.57 201.55 163.684 
201.55 c h
168.457 201.55 m f
172.398 201.03 m 173.246 201.983 l 174.484 203.261 174.961 203.753 174.961
 204.679 c 174.961 205.737 174.246 206.475 173.273 206.475 c 172.371 206.475
 171.785 205.62 171.785 204.796 c 171.785 204.288 172.184 204.288 172.211
 204.288 c 172.348 204.288 172.621 204.389 172.621 204.78 c 172.621 205.014
 172.473 205.261 172.195 205.261 c 172.137 205.261 172.121 205.261 172.098
 205.245 c 172.273 205.854 172.711 206.186 173.172 206.186 c 173.898 206.186
 174.234 205.432 174.234 204.679 c 174.234 203.94 173.848 203.218 173.398
 202.636 c 171.871 200.667 l 171.785 200.565 171.785 200.534 171.785 200.319
 c 174.746 200.319 l 174.961 201.929 l 174.773 201.929 l 174.723 201.651
 174.672 201.245 174.586 201.1 c 174.535 201.03 174.008 201.03 173.836 201.03
 c h
172.398 201.03 m f
169.402 130.968 m 169.402 130.53 l 169.539 130.53 169.715 130.53 169.828
 130.518 c 170.004 130.475 170.004 130.358 170.004 130.155 c 170.004 126.491
 l 170.004 126.026 169.891 125.358 169.414 125.358 c 169.277 125.358 169.215
 125.389 169.102 125.417 c 169.254 125.546 169.289 125.749 169.289 125.882
 c 169.289 126.198 169.078 126.46 168.789 126.46 c 168.488 126.46 168.289
 126.198 168.289 125.866 c 168.289 125.347 168.777 125.026 169.426 125.026
 c 170.113 125.026 170.863 125.518 170.863 126.491 c 170.863 131.038 l h
170.863 132.589 m 170.863 132.979 170.59 133.3 170.25 133.3 c 169.902 133.3
 169.629 132.979 169.629 132.589 c 169.629 132.182 169.902 131.866 170.25
 131.866 c 170.59 131.866 170.863 132.182 170.863 132.589 c h
170.863 132.589 m f
173.402 128.737 m 173.402 128.913 173.402 128.913 173.238 128.913 c 172.879
 128.507 172.379 128.507 172.152 128.507 c 172.152 128.272 l 172.277 128.272
 172.652 128.272 172.953 128.448 c 172.953 125.159 l 172.953 124.94 172.953
 124.854 172.402 124.854 c 172.191 124.854 l 172.191 124.624 l 172.289 124.624
 172.977 124.651 173.176 124.651 c 173.352 124.651 174.051 124.624 174.176
 124.624 c 174.176 124.854 l 173.965 124.854 l 173.402 124.854 173.402 124.94
 173.402 125.159 c h
173.402 128.737 m f
177.527 125.796 m 177.34 125.796 l 177.328 125.651 177.266 125.276 177.191
 125.218 c 177.152 125.175 176.73 125.175 176.641 125.175 c 175.617 125.175
 l 176.203 125.768 176.402 125.956 176.73 126.261 c 177.141 126.636 177.527
 127.042 177.527 127.651 c 177.527 128.432 176.941 128.913 176.23 128.913
 c 175.543 128.913 175.066 128.347 175.066 127.753 c 175.066 127.432 175.305
 127.389 175.367 127.389 c 175.492 127.389 175.652 127.507 175.652 127.737
 c 175.652 127.854 175.617 128.085 175.328 128.085 c 175.504 128.534 175.879
 128.679 176.141 128.679 c 176.703 128.679 176.992 128.171 176.992 127.651
 c 176.992 127.085 176.641 126.651 176.465 126.421 c 175.129 124.87 l 175.066
 124.811 175.066 124.796 175.066 124.624 c 177.367 124.624 l h
177.527 125.796 m f
185.977 129.909 m 186.102 129.909 186.254 129.909 186.254 130.081 c 186.254
 130.272 186.102 130.272 185.992 130.272 c 181.215 130.272 l 181.105 130.272
 180.953 130.272 180.953 130.081 c 180.953 129.909 181.105 129.909 181.215
 129.909 c h
185.992 128.112 m 186.102 128.112 186.254 128.112 186.254 128.3 c 186.254
 128.475 186.102 128.475 185.977 128.475 c 181.215 128.475 l 181.105 128.475
 180.953 128.475 180.953 128.3 c 180.953 128.112 181.105 128.112 181.215
 128.112 c h
185.992 128.112 m f
191.266 132.792 m 191.266 133.022 191.266 133.038 191.078 133.038 c 190.578
 132.444 189.879 132.444 189.629 132.444 c 189.629 132.155 l 189.793 132.155
 190.254 132.155 190.668 132.401 c 190.668 127.604 l 190.668 127.272 190.641
 127.171 189.93 127.171 c 189.68 127.171 l 189.68 126.882 l 189.953 126.909
 190.641 126.909 190.969 126.909 c 191.277 126.909 191.98 126.909 192.254
 126.882 c 192.254 127.171 l 192.004 127.171 l 191.277 127.171 191.266 127.272
 191.266 127.604 c h
191.266 132.792 m f
281.383 165.718 m 281.383 165.284 l 281.52 165.284 281.695 165.284 281.809
 165.268 c 281.984 165.225 281.984 165.108 281.984 164.905 c 281.984 161.241
 l 281.984 160.776 281.871 160.112 281.395 160.112 c 281.258 160.112 281.195
 160.139 281.082 160.171 c 281.234 160.3 281.27 160.503 281.27 160.632 c
 281.27 160.952 281.059 161.214 280.77 161.214 c 280.469 161.214 280.27 
160.952 280.27 160.62 c 280.27 160.097 280.758 159.776 281.406 159.776 c
 282.094 159.776 282.844 160.272 282.844 161.241 c 282.844 165.792 l h
282.844 167.343 m 282.844 167.733 282.57 168.05 282.234 168.05 c 281.883
 168.05 281.609 167.733 281.609 167.343 c 281.609 166.936 281.883 166.616
 282.234 166.616 c 282.57 166.616 282.844 166.936 282.844 167.343 c h
282.844 167.343 m f
286.332 160.55 m 286.145 160.55 l 286.133 160.401 286.07 160.026 285.996
 159.968 c 285.957 159.925 285.531 159.925 285.445 159.925 c 284.422 159.925
 l 285.008 160.518 285.207 160.706 285.531 161.011 c 285.945 161.389 286.332
 161.796 286.332 162.401 c 286.332 163.186 285.746 163.663 285.031 163.663
 c 284.344 163.663 283.871 163.097 283.871 162.503 c 283.871 162.186 284.109
 162.143 284.172 162.143 c 284.297 162.143 284.457 162.257 284.457 162.491
 c 284.457 162.604 284.422 162.839 284.133 162.839 c 284.309 163.288 284.684
 163.432 284.945 163.432 c 285.508 163.432 285.797 162.925 285.797 162.401
 c 285.797 161.839 285.445 161.401 285.27 161.171 c 283.934 159.62 l 283.871
 159.561 283.871 159.55 283.871 159.374 c 286.172 159.374 l h
286.332 160.55 m f
288.559 163.491 m 288.559 163.663 288.559 163.663 288.398 163.663 c 288.035
 163.257 287.535 163.257 287.309 163.257 c 287.309 163.026 l 287.434 163.026
 287.809 163.026 288.109 163.198 c 288.109 159.909 l 288.109 159.694 288.109
 159.604 287.559 159.604 c 287.348 159.604 l 287.348 159.374 l 287.445 159.374
 288.133 159.405 288.336 159.405 c 288.508 159.405 289.211 159.374 289.336
 159.374 c 289.336 159.604 l 289.121 159.604 l 288.559 159.604 288.559 159.694
 288.559 159.909 c h
288.559 163.491 m f
297.957 164.659 m 298.082 164.659 298.234 164.659 298.234 164.835 c 298.234
 165.022 298.082 165.022 297.973 165.022 c 293.199 165.022 l 293.086 165.022
 292.934 165.022 292.934 164.835 c 292.934 164.659 293.086 164.659 293.199
 164.659 c h
297.973 162.862 m 298.082 162.862 298.234 162.862 298.234 163.054 c 298.234
 163.225 298.082 163.225 297.957 163.225 c 293.199 163.225 l 293.086 163.225
 292.934 163.225 292.934 163.054 c 292.934 162.862 293.086 162.862 293.199
 162.862 c h
297.973 162.862 m f
301.91 162.343 m 302.762 163.3 l 303.996 164.573 304.473 165.065 304.473
 165.995 c 304.473 167.05 303.762 167.792 302.785 167.792 c 301.887 167.792
 301.297 166.936 301.297 166.108 c 301.297 165.6 301.699 165.6 301.723 165.6
 c 301.859 165.6 302.137 165.702 302.137 166.097 c 302.137 166.327 301.984
 166.573 301.711 166.573 c 301.648 166.573 301.637 166.573 301.609 166.557
 c 301.785 167.167 302.223 167.499 302.684 167.499 c 303.41 167.499 303.746
 166.749 303.746 165.995 c 303.746 165.253 303.359 164.53 302.91 163.952
 c 301.387 161.979 l 301.297 161.878 301.297 161.85 301.297 161.632 c 304.258
 161.632 l 304.473 163.241 l 304.285 163.241 l 304.234 162.964 304.184 162.561
 304.098 162.413 c 304.047 162.343 303.523 162.343 303.348 162.343 c h
301.91 162.343 m f
353.207 207.026 m 353.207 206.593 l 353.348 206.593 353.52 206.593 353.633
 206.577 c 353.809 206.534 353.809 206.417 353.809 206.214 c 353.809 202.55
 l 353.809 202.085 353.695 201.421 353.223 201.421 c 353.082 201.421 353.02
 201.448 352.91 201.479 c 353.059 201.608 353.098 201.811 353.098 201.94
 c 353.098 202.261 352.883 202.522 352.598 202.522 c 352.297 202.522 352.098
 202.261 352.098 201.929 c 352.098 201.405 352.586 201.085 353.234 201.085
 c 353.922 201.085 354.672 201.581 354.672 202.55 c 354.672 207.1 l h
354.672 208.651 m 354.672 209.042 354.395 209.358 354.059 209.358 c 353.707
 209.358 353.434 209.042 353.434 208.651 c 353.434 208.245 353.707 207.925
 354.059 207.925 c 354.395 207.925 354.672 208.245 354.672 208.651 c h
354.672 208.651 m f
358.16 201.858 m 357.973 201.858 l 357.957 201.714 357.895 201.335 357.82
 201.276 c 357.785 201.233 357.359 201.233 357.27 201.233 c 356.246 201.233
 l 356.832 201.827 357.035 202.014 357.359 202.319 c 357.77 202.698 358.16
 203.104 358.16 203.71 c 358.16 204.495 357.57 204.972 356.859 204.972 c
 356.172 204.972 355.695 204.405 355.695 203.811 c 355.695 203.495 355.934
 203.452 355.996 203.452 c 356.121 203.452 356.285 203.565 356.285 203.8
 c 356.285 203.913 356.246 204.147 355.961 204.147 c 356.133 204.597 356.508
 204.741 356.77 204.741 c 357.332 204.741 357.621 204.233 357.621 203.71
 c 357.621 203.147 357.27 202.71 357.098 202.479 c 355.758 200.929 l 355.695
 200.87 355.695 200.858 355.695 200.682 c 357.996 200.682 l h
358.16 201.858 m f
360.047 202.843 m 360.484 202.843 360.797 202.495 360.797 201.8 c 360.797
 201.003 360.387 200.757 360.074 200.757 c 359.848 200.757 359.348 200.827
 359.125 201.218 c 359.387 201.218 359.449 201.436 359.449 201.581 c 359.449
 201.784 359.312 201.929 359.137 201.929 c 358.984 201.929 358.824 201.811
 358.824 201.554 c 358.824 200.944 359.398 200.554 360.074 200.554 c 360.848
 200.554 361.387 201.163 361.387 201.8 c 361.387 202.307 361.035 202.811
 360.422 202.96 c 360.996 203.206 361.211 203.682 361.211 204.089 c 361.211
 204.597 360.711 204.972 360.086 204.972 c 359.473 204.972 359 204.624 359
 204.104 c 359 203.886 359.125 203.768 359.285 203.768 c 359.461 203.768
 359.574 203.913 359.574 204.089 c 359.574 204.276 359.461 204.421 359.285
 204.436 c 359.484 204.71 359.859 204.784 360.074 204.784 c 360.324 204.784
 360.672 204.639 360.672 204.089 c 360.672 203.811 360.598 203.507 360.449
 203.319 c 360.273 203.073 360.109 203.057 359.836 203.03 c 359.699 203.014
 359.684 203.014 359.66 203.014 c 359.648 203.014 359.598 203.003 359.598
 202.929 c 359.598 202.843 359.648 202.843 359.746 202.843 c h
360.047 202.843 m f
369.785 205.968 m 369.91 205.968 370.059 205.968 370.059 206.143 c 370.059
 206.331 369.91 206.331 369.797 206.331 c 365.023 206.331 l 364.91 206.331
 364.762 206.331 364.762 206.143 c 364.762 205.968 364.91 205.968 365.023
 205.968 c h
369.797 204.171 m 369.91 204.171 370.059 204.171 370.059 204.362 c 370.059
 204.534 369.91 204.534 369.785 204.534 c 365.023 204.534 l 364.91 204.534
 364.762 204.534 364.762 204.362 c 364.762 204.171 364.91 204.171 365.023
 204.171 c h
369.797 204.171 m f
375.074 204.464 m 375.074 203.667 l 375.074 203.331 375.047 203.229 374.461
 203.229 c 374.297 203.229 l 374.297 202.94 l 374.625 202.972 375.035 202.972
 375.375 202.972 c 375.711 202.972 376.125 202.972 376.461 202.94 c 376.461
 203.229 l 376.285 203.229 l 375.699 203.229 375.688 203.331 375.688 203.667
 c 375.688 204.464 l 376.473 204.464 l 376.473 204.753 l 375.688 204.753
 l 375.688 208.956 l 375.688 209.143 375.688 209.202 375.547 209.202 c 375.484
 209.202 375.461 209.202 375.398 209.085 c 372.949 204.753 l 372.949 204.464
 l h
375.109 204.753 m 373.176 204.753 l 375.109 208.202 l h
375.109 204.753 m f
319.84 172.932 m 319.84 172.495 l 319.977 172.495 320.152 172.495 320.266
 172.483 c 320.441 172.436 320.441 172.323 320.441 172.12 c 320.441 168.452
 l 320.441 167.991 320.328 167.323 319.852 167.323 c 319.715 167.323 319.652
 167.354 319.539 167.382 c 319.691 167.511 319.727 167.714 319.727 167.847
 c 319.727 168.163 319.516 168.425 319.227 168.425 c 318.93 168.425 318.73
 168.163 318.73 167.831 c 318.73 167.307 319.215 166.991 319.867 166.991
 c 320.555 166.991 321.305 167.483 321.305 168.452 c 321.305 173.003 l h
321.305 174.554 m 321.305 174.944 321.027 175.264 320.691 175.264 c 320.34
 175.264 320.066 174.944 320.066 174.554 c 320.066 174.147 320.34 173.831
 320.691 173.831 c 321.027 173.831 321.305 174.147 321.305 174.554 c h
321.305 174.554 m f
324.789 167.761 m 324.602 167.761 l 324.59 167.616 324.527 167.237 324.453
 167.182 c 324.414 167.139 323.992 167.139 323.902 167.139 c 322.879 167.139
 l 323.465 167.733 323.664 167.921 323.992 168.225 c 324.402 168.6 324.789
 169.007 324.789 169.616 c 324.789 170.397 324.203 170.874 323.492 170.874
 c 322.805 170.874 322.328 170.311 322.328 169.718 c 322.328 169.397 322.566
 169.354 322.629 169.354 c 322.754 169.354 322.914 169.472 322.914 169.702
 c 322.914 169.819 322.879 170.05 322.59 170.05 c 322.766 170.499 323.141
 170.643 323.402 170.643 c 323.965 170.643 324.254 170.136 324.254 169.616
 c 324.254 169.05 323.902 168.616 323.727 168.386 c 322.391 166.835 l 322.328
 166.776 322.328 166.761 322.328 166.589 c 324.629 166.589 l h
324.789 167.761 m f
327.969 167.761 m 327.781 167.761 l 327.766 167.616 327.703 167.237 327.629
 167.182 c 327.594 167.139 327.168 167.139 327.078 167.139 c 326.055 167.139
 l 326.641 167.733 326.844 167.921 327.168 168.225 c 327.578 168.6 327.969
 169.007 327.969 169.616 c 327.969 170.397 327.379 170.874 326.668 170.874
 c 325.98 170.874 325.504 170.311 325.504 169.718 c 325.504 169.397 325.742
 169.354 325.805 169.354 c 325.93 169.354 326.094 169.472 326.094 169.702
 c 326.094 169.819 326.055 170.05 325.77 170.05 c 325.941 170.499 326.316
 170.643 326.578 170.643 c 327.141 170.643 327.43 170.136 327.43 169.616
 c 327.43 169.05 327.078 168.616 326.906 168.386 c 325.566 166.835 l 325.504
 166.776 325.504 166.761 325.504 166.589 c 327.805 166.589 l h
327.969 167.761 m f
336.418 171.874 m 336.543 171.874 336.691 171.874 336.691 172.046 c 336.691
 172.237 336.543 172.237 336.43 172.237 c 331.656 172.237 l 331.543 172.237
 331.395 172.237 331.395 172.046 c 331.395 171.874 331.543 171.874 331.656
 171.874 c h
336.43 170.077 m 336.543 170.077 336.691 170.077 336.691 170.264 c 336.691
 170.44 336.543 170.44 336.418 170.44 c 331.656 170.44 l 331.543 170.44 
331.395 170.44 331.395 170.264 c 331.395 170.077 331.543 170.077 331.656
 170.077 c h
336.43 170.077 m f
341.668 172.104 m 342.316 172.35 342.781 172.987 342.781 173.729 c 342.781
 174.479 342.082 175.003 341.316 175.003 c 340.52 175.003 339.906 174.452
 339.906 173.741 c 339.906 173.436 340.082 173.264 340.316 173.264 c 340.555
 173.264 340.719 173.468 340.719 173.741 c 340.719 174.19 340.344 174.19
 340.23 174.19 c 340.469 174.655 340.992 174.772 341.281 174.772 c 341.617
 174.772 342.055 174.569 342.055 173.741 c 342.055 173.628 342.031 173.089
 341.832 172.686 c 341.594 172.237 341.316 172.206 341.117 172.206 c 341.055
 172.19 340.867 172.179 340.805 172.179 c 340.742 172.163 340.691 172.147
 340.691 172.061 c 340.691 171.96 340.742 171.96 340.879 171.96 c 341.23
 171.96 l 341.879 171.96 342.18 171.339 342.18 170.425 c 342.18 169.163 
341.629 168.901 341.281 168.901 c 340.93 168.901 340.332 169.061 340.055
 169.597 c 340.332 169.554 340.582 169.757 340.582 170.104 c 340.582 170.44
 340.367 170.628 340.145 170.628 c 339.945 170.628 339.695 170.495 339.695
 170.093 c 339.695 169.249 340.43 168.643 341.305 168.643 c 342.281 168.643
 343.004 169.483 343.004 170.425 c 343.004 171.179 342.492 171.901 341.668
 172.104 c h
341.668 172.104 m f
268.941 101.46 m 268.941 101.026 l 269.078 101.026 269.254 101.026 269.367
 101.011 c 269.539 100.968 269.539 100.85 269.539 100.647 c 269.539 96.983
 l 269.539 96.518 269.43 95.854 268.953 95.854 c 268.816 95.854 268.754 
95.882 268.641 95.909 c 268.789 96.042 268.828 96.245 268.828 96.374 c 268.828
 96.694 268.617 96.956 268.328 96.956 c 268.027 96.956 267.828 96.694 267.828
 96.358 c 267.828 95.839 268.316 95.518 268.965 95.518 c 269.652 95.518 
270.402 96.011 270.402 96.983 c 270.402 101.534 l h
270.402 103.085 m 270.402 103.475 270.129 103.792 269.789 103.792 c 269.441
 103.792 269.164 103.475 269.164 103.085 c 269.164 102.679 269.441 102.358
 269.789 102.358 c 270.129 102.358 270.402 102.679 270.402 103.085 c h
270.402 103.085 m f
273.891 96.292 m 273.703 96.292 l 273.691 96.143 273.629 95.768 273.555
 95.71 c 273.516 95.667 273.09 95.667 273.004 95.667 c 271.977 95.667 l 
272.566 96.261 272.766 96.448 273.09 96.753 c 273.504 97.132 273.891 97.538
 273.891 98.143 c 273.891 98.929 273.305 99.405 272.59 99.405 c 271.902 
99.405 271.43 98.839 271.43 98.245 c 271.43 97.929 271.664 97.886 271.727
 97.886 c 271.852 97.886 272.016 97.999 272.016 98.233 c 272.016 98.347 
271.977 98.581 271.691 98.581 c 271.867 99.03 272.242 99.175 272.504 99.175
 c 273.066 99.175 273.352 98.667 273.352 98.143 c 273.352 97.581 273.004
 97.143 272.828 96.913 c 271.492 95.362 l 271.43 95.304 271.43 95.292 271.43
 95.116 c 273.727 95.116 l h
273.891 96.292 m f
277.203 96.175 m 277.203 96.405 l 276.578 96.405 l 276.578 99.288 l 276.578
 99.421 276.578 99.479 276.469 99.479 c 276.391 99.479 276.367 99.479 276.316
 99.378 c 274.469 96.405 l 274.469 96.175 l 276.117 96.175 l 276.117 95.651
 l 276.117 95.421 276.117 95.347 275.656 95.347 c 275.504 95.347 l 275.504
 95.116 l 275.793 95.132 276.141 95.143 276.344 95.143 c 276.555 95.143 
276.906 95.132 277.191 95.116 c 277.191 95.347 l 277.043 95.347 l 276.578
 95.347 276.578 95.421 276.578 95.651 c 276.578 96.175 l h
276.156 98.768 m 276.156 96.405 l 274.68 96.405 l h
276.156 98.768 m f
285.516 100.401 m 285.641 100.401 285.793 100.401 285.793 100.577 c 285.793
 100.764 285.641 100.764 285.527 100.764 c 280.754 100.764 l 280.645 100.764
 280.492 100.764 280.492 100.577 c 280.492 100.401 280.645 100.401 280.754
 100.401 c h
285.527 98.604 m 285.641 98.604 285.793 98.604 285.793 98.796 c 285.793
 98.968 285.641 98.968 285.516 98.968 c 280.754 98.968 l 280.645 98.968 
280.492 98.968 280.492 98.796 c 280.492 98.604 280.645 98.604 280.754 98.604
 c h
285.527 98.604 m f
290.805 103.284 m 290.805 103.518 290.805 103.534 290.617 103.534 c 290.117
 102.936 289.418 102.936 289.168 102.936 c 289.168 102.647 l 289.332 102.647
 289.793 102.647 290.207 102.893 c 290.207 98.1 l 290.207 97.764 290.18 
97.663 289.469 97.663 c 289.219 97.663 l 289.219 97.374 l 289.492 97.405
 290.18 97.405 290.504 97.405 c 290.816 97.405 291.516 97.405 291.793 97.374
 c 291.793 97.663 l 291.543 97.663 l 290.816 97.663 290.805 97.764 290.805
 98.1 c h
290.805 103.284 m f
227.863 139.284 m 227.898 139.21 227.93 139.151 227.93 139.054 c 227.93
 138.975 227.879 138.745 227.578 138.725 c 227.578 138.417 l 227.879 138.436
 228.5 138.456 228.734 138.456 c 228.984 138.456 229.418 138.436 229.754
 138.417 c 229.754 138.725 l 229.434 138.725 229.184 138.725 228.984 138.921
 c 228.832 139.073 227.16 141.792 227.047 141.987 c 228.133 143.663 l 228.5
 144.206 228.918 144.417 229.402 144.436 c 229.402 144.745 l 229.133 144.725
 228.801 144.706 228.531 144.706 c 228.25 144.706 227.762 144.725 227.547
 144.745 c 227.547 144.436 l 227.715 144.417 227.863 144.319 227.863 144.011
 c 227.863 143.8 227.781 143.643 227.715 143.55 c 226.859 142.237 l 225.859
 143.839 l 225.758 143.972 225.758 144.05 225.758 144.089 c 225.758 144.3
 225.91 144.417 226.109 144.436 c 226.109 144.745 l 225.844 144.725 225.191
 144.706 224.973 144.706 c 224.688 144.706 224.27 144.725 223.953 144.745
 c 223.953 144.436 l 224.57 144.436 224.656 144.358 224.938 143.878 c 226.426
 141.542 l 225.191 139.632 l 224.891 139.171 224.539 138.745 223.836 138.725
 c 223.836 138.417 l 224.086 138.436 224.422 138.456 224.688 138.456 c 225.039
 138.456 225.523 138.436 225.676 138.417 c 225.676 138.725 l 225.457 138.745
 225.34 138.921 225.34 139.151 c 225.34 139.362 225.426 139.499 225.59 139.768
 c 225.926 140.268 226.242 140.792 226.594 141.292 c h
227.863 139.284 m f
232.094 139.448 m 232.68 139.448 233.098 138.983 233.098 138.057 c 233.098
 136.999 232.543 136.671 232.125 136.671 c 231.824 136.671 231.156 136.764
 230.855 137.288 c 231.207 137.288 231.293 137.577 231.293 137.768 c 231.293
 138.038 231.109 138.233 230.875 138.233 c 230.672 138.233 230.457 138.077
 230.457 137.729 c 230.457 136.921 231.223 136.397 232.125 136.397 c 233.164
 136.397 233.883 137.21 233.883 138.057 c 233.883 138.733 233.414 139.409
 232.594 139.6 c 233.363 139.929 233.648 140.565 233.648 141.104 c 233.648
 141.78 232.98 142.284 232.145 142.284 c 231.324 142.284 230.691 141.819
 230.691 141.124 c 230.691 140.835 230.855 140.682 231.074 140.682 c 231.309
 140.682 231.457 140.874 231.457 141.104 c 231.457 141.358 231.309 141.55
 231.074 141.569 c 231.34 141.936 231.844 142.034 232.125 142.034 c 232.461
 142.034 232.93 141.839 232.93 141.104 c 232.93 140.741 232.828 140.335 
232.629 140.085 c 232.395 139.757 232.176 139.737 231.809 139.698 c 231.625
 139.679 231.609 139.679 231.574 139.679 c 231.559 139.679 231.492 139.659
 231.492 139.561 c 231.492 139.448 231.559 139.448 231.691 139.448 c h
232.094 139.448 m f
366.883 114.983 m 366.883 112.425 365.094 110.347 362.887 110.347 c 360.676
 110.347 358.887 112.425 358.887 114.983 c 358.887 117.546 360.676 119.62
 362.887 119.62 c 365.094 119.62 366.883 117.546 366.883 114.983 c h
366.883 114.983 m f
352.488 97.366 m 352.488 94.804 350.695 92.729 348.488 92.729 c 346.281
 92.729 344.488 94.804 344.488 97.366 c 344.488 99.925 346.281 102.003 348.488
 102.003 c 350.695 102.003 352.488 99.925 352.488 97.366 c h
352.488 97.366 m f
326.094 68.62 m 326.094 66.057 324.305 63.983 322.094 63.983 c 319.887 
63.983 318.094 66.057 318.094 68.62 c 318.094 71.179 319.887 73.257 322.094
 73.257 c 324.305 73.257 326.094 71.179 326.094 68.62 c h
326.094 68.62 m f
122.938 69.546 m 122.938 66.987 121.148 64.909 118.941 64.909 c 116.73 
64.909 114.941 66.987 114.941 69.546 c 114.941 72.108 116.73 74.182 118.941
 74.182 c 121.148 74.182 122.938 72.108 122.938 69.546 c h
122.938 69.546 m f
100.543 101.073 m 100.543 98.514 98.754 96.44 96.543 96.44 c 94.336 96.44
 92.547 98.514 92.547 101.073 c 92.547 103.636 94.336 105.71 96.543 105.71
 c 98.754 105.71 100.543 103.636 100.543 101.073 c h
100.543 101.073 m f
84.547 121.475 m 84.547 118.913 82.758 116.839 80.547 116.839 c 78.34 116.839
 76.551 118.913 76.551 121.475 c 76.551 124.034 78.34 126.112 80.547 126.112
 c 82.758 126.112 84.547 124.034 84.547 121.475 c h
84.547 121.475 m f
432.469 4.636 m 432.469 2.077 430.68 -0.001 428.469 -0.001 c 426.262 -0.001
 424.473 2.077 424.473 4.636 c 424.473 7.198 426.262 9.272 428.469 9.272
 c 430.68 9.272 432.469 7.198 432.469 4.636 c h
432.469 4.636 m f
18.164 5.565 m 18.164 3.003 16.371 0.929 14.164 0.929 c 11.953 0.929 10.164
 3.003 10.164 5.565 c 10.164 8.124 11.953 10.202 14.164 10.202 c 16.371 
10.202 18.164 8.124 18.164 5.565 c h
18.164 5.565 m f
223.715 353.3 m 223.715 350.737 221.926 348.663 219.719 348.663 c 217.508
 348.663 215.719 350.737 215.719 353.3 c 215.719 355.858 217.508 357.936
 219.719 357.936 c 221.926 357.936 223.715 355.858 223.715 353.3 c h
223.715 353.3 m f
224.516 242.022 m 224.516 239.464 222.727 237.386 220.516 237.386 c 218.309
 237.386 216.52 239.464 216.52 242.022 c 216.52 244.585 218.309 246.659 
220.516 246.659 c 222.727 246.659 224.516 244.585 224.516 242.022 c h
224.516 242.022 m f
224.516 131.675 m 224.516 129.116 222.727 127.038 220.516 127.038 c 218.309
 127.038 216.52 129.116 216.52 131.675 c 216.52 134.237 218.309 136.311 
220.516 136.311 c 222.727 136.311 224.516 134.237 224.516 131.675 c h
224.516 131.675 m f
93.02 128.19 m 93.152 127.616 93.59 127.237 94.105 127.237 c 94.523 127.237
 94.809 127.569 95 128.011 c 95.211 128.522 95.363 129.382 95.363 129.405
 c 95.363 129.557 95.27 129.557 95.23 129.557 c 95.098 129.557 95.098 129.491
 95.059 129.296 c 94.887 128.499 94.656 127.55 94.145 127.55 c 93.895 127.55
 93.762 127.725 93.762 128.19 c 93.762 128.499 93.914 129.163 94.008 129.671
 c 94.352 131.194 l 94.391 131.393 94.504 131.925 94.562 132.143 c 94.621
 132.475 94.734 133.007 94.734 133.097 c 94.734 133.339 94.562 133.472 94.391
 133.472 c 94.332 133.472 94.008 133.448 93.914 132.983 c 93.684 131.944
 93.152 129.472 93 128.741 c 92.98 128.675 92.504 127.55 91.609 127.55 c
 90.98 127.55 90.863 128.19 90.863 128.698 c 90.863 129.491 91.207 130.597
 91.512 131.569 c 91.664 132.011 91.723 132.21 91.723 132.475 c 91.723 133.097
 91.34 133.624 90.73 133.624 c 89.566 133.624 89.129 131.569 89.129 131.46
 c 89.129 131.304 89.242 131.304 89.262 131.304 c 89.395 131.304 89.395 
131.35 89.453 131.569 c 89.758 132.784 90.234 133.315 90.691 133.315 c 90.809
 133.315 90.996 133.296 90.996 132.85 c 90.996 132.522 90.863 132.1 90.789
 131.901 c 90.332 130.487 90.082 129.624 90.082 128.94 c 90.082 127.593 
90.922 127.237 91.57 127.237 c 92.371 127.237 92.809 127.878 93.02 128.19
 c h
93.02 128.19 m f
98.566 131.557 m 98.566 131.823 98.566 131.823 98.316 131.823 c 97.766 
131.202 97.004 131.202 96.66 131.202 c 96.66 130.85 l 96.852 130.85 97.422
 130.85 97.879 131.116 c 97.879 126.097 l 97.879 125.764 97.879 125.636 
97.039 125.636 c 96.715 125.636 l 96.715 125.28 l 96.867 125.28 97.918 125.323
 98.223 125.323 c 98.488 125.323 99.555 125.28 99.746 125.28 c 99.746 125.636
 l 99.422 125.636 l 98.566 125.636 98.566 125.764 98.566 126.097 c h
98.566 131.557 m f
103.41 131.557 m 103.41 131.823 103.41 131.823 103.164 131.823 c 102.609
 131.202 101.848 131.202 101.504 131.202 c 101.504 130.85 l 101.695 130.85
 102.266 130.85 102.723 131.116 c 102.723 126.097 l 102.723 125.764 102.723
 125.636 101.887 125.636 c 101.562 125.636 l 101.562 125.28 l 101.715 125.28
 102.762 125.323 103.066 125.323 c 103.336 125.323 104.402 125.28 104.594
 125.28 c 104.594 125.636 l 104.27 125.636 l 103.41 125.636 103.41 125.764
 103.41 126.097 c h
103.41 131.557 m f
133.809 70.698 m 133.941 70.124 134.383 69.745 134.895 69.745 c 135.316
 69.745 135.602 70.077 135.793 70.518 c 136 71.03 136.152 71.889 136.152
 71.913 c 136.152 72.065 136.059 72.065 136.02 72.065 c 135.887 72.065 135.887
 71.999 135.848 71.804 c 135.676 71.007 135.449 70.057 134.934 70.057 c 
134.688 70.057 134.551 70.233 134.551 70.698 c 134.551 71.007 134.703 71.671
 134.801 72.179 c 135.145 73.702 l 135.184 73.901 135.297 74.432 135.352
 74.651 c 135.41 74.983 135.523 75.514 135.523 75.604 c 135.523 75.847 135.352
 75.979 135.184 75.979 c 135.125 75.979 134.801 75.956 134.703 75.491 c 
134.477 74.456 133.941 71.979 133.789 71.249 c 133.77 71.182 133.293 70.057
 132.398 70.057 c 131.77 70.057 131.656 70.698 131.656 71.206 c 131.656 
71.999 132 73.104 132.305 74.077 c 132.457 74.518 132.512 74.718 132.512
 74.983 c 132.512 75.604 132.133 76.136 131.523 76.136 c 130.359 76.136 
129.922 74.077 129.922 73.968 c 129.922 73.811 130.035 73.811 130.055 73.811
 c 130.188 73.811 130.188 73.858 130.246 74.077 c 130.551 75.296 131.027
 75.823 131.484 75.823 c 131.598 75.823 131.789 75.804 131.789 75.358 c 
131.789 75.03 131.656 74.608 131.578 74.409 c 131.121 72.995 130.875 72.132
 130.875 71.448 c 130.875 70.1 131.711 69.745 132.359 69.745 c 133.16 69.745
 133.598 70.386 133.809 70.698 c h
133.809 70.698 m f
139.355 74.065 m 139.355 74.331 139.355 74.331 139.109 74.331 c 138.555
 73.71 137.793 73.71 137.449 73.71 c 137.449 73.358 l 137.641 73.358 138.211
 73.358 138.672 73.624 c 138.672 68.604 l 138.672 68.272 138.672 68.143 
137.832 68.143 c 137.508 68.143 l 137.508 67.788 l 137.66 67.788 138.707
 67.831 139.012 67.831 c 139.281 67.831 140.348 67.788 140.539 67.788 c 
140.539 68.143 l 140.215 68.143 l 139.355 68.143 139.355 68.272 139.355 
68.604 c h
139.355 74.065 m f
145.648 69.577 m 145.363 69.577 l 145.344 69.358 145.25 68.784 145.137 
68.694 c 145.078 68.628 144.43 68.628 144.297 68.628 c 142.734 68.628 l 
143.629 69.534 143.934 69.823 144.43 70.284 c 145.059 70.858 145.648 71.479
 145.648 72.409 c 145.648 73.6 144.754 74.331 143.668 74.331 c 142.621 74.331
 141.895 73.468 141.895 72.561 c 141.895 72.077 142.258 72.011 142.352 72.011
 c 142.543 72.011 142.789 72.186 142.789 72.538 c 142.789 72.718 142.734
 73.069 142.297 73.069 c 142.562 73.757 143.133 73.975 143.535 73.975 c 
144.391 73.975 144.832 73.202 144.832 72.409 c 144.832 71.546 144.297 70.882
 144.031 70.53 c 141.992 68.163 l 141.895 68.077 141.895 68.054 141.895 
67.788 c 145.402 67.788 l h
145.648 69.577 m f
108.125 101.292 m 108.254 100.733 108.684 100.366 109.188 100.366 c 109.594
 100.366 109.875 100.69 110.062 101.12 c 110.266 101.616 110.414 102.46 
110.414 102.479 c 110.414 102.632 110.32 102.632 110.285 102.632 c 110.152
 102.632 110.152 102.565 110.117 102.374 c 109.949 101.597 109.727 100.667
 109.223 100.667 c 108.98 100.667 108.852 100.839 108.852 101.292 c 108.852
 101.597 109 102.245 109.094 102.741 c 109.426 104.229 l 109.465 104.425
 109.578 104.94 109.633 105.159 c 109.688 105.483 109.801 105.999 109.801
 106.085 c 109.801 106.323 109.633 106.452 109.465 106.452 c 109.41 106.452
 109.094 106.432 109 105.979 c 108.777 104.964 108.254 102.546 108.105 101.835
 c 108.086 101.768 107.621 100.667 106.746 100.667 c 106.133 100.667 106.02
 101.292 106.02 101.792 c 106.02 102.565 106.355 103.647 106.652 104.597
 c 106.801 105.026 106.859 105.222 106.859 105.483 c 106.859 106.085 106.484
 106.604 105.891 106.604 c 104.754 106.604 104.324 104.597 104.324 104.487
 c 104.324 104.339 104.438 104.339 104.457 104.339 c 104.586 104.339 104.586
 104.382 104.645 104.597 c 104.941 105.784 105.406 106.304 105.852 106.304
 c 105.965 106.304 106.152 106.28 106.152 105.847 c 106.152 105.526 106.02
 105.116 105.945 104.921 c 105.5 103.538 105.258 102.698 105.258 102.026
 c 105.258 100.71 106.078 100.366 106.711 100.366 c 107.492 100.366 107.918
 100.991 108.125 101.292 c h
108.125 101.292 m f
113.543 104.585 m 113.543 104.843 113.543 104.843 113.301 104.843 c 112.762
 104.237 112.016 104.237 111.68 104.237 c 111.68 103.893 l 111.867 103.893
 112.426 103.893 112.871 104.151 c 112.871 99.253 l 112.871 98.929 112.871
 98.8 112.055 98.8 c 111.734 98.8 l 111.734 98.452 l 111.887 98.452 112.91
 98.495 113.207 98.495 c 113.469 98.495 114.512 98.452 114.695 98.452 c 
114.695 98.8 l 114.379 98.8 l 113.543 98.8 113.543 98.929 113.543 99.253
 c h
113.543 104.585 m f
117.773 101.671 m 118.426 101.671 118.891 101.151 118.891 100.116 c 118.891
 98.929 118.273 98.561 117.809 98.561 c 117.473 98.561 116.73 98.667 116.395
 99.253 c 116.785 99.253 116.879 99.573 116.879 99.792 c 116.879 100.093
 116.672 100.307 116.414 100.307 c 116.191 100.307 115.949 100.136 115.949
 99.749 c 115.949 98.843 116.805 98.257 117.809 98.257 c 118.965 98.257 
119.766 99.163 119.766 100.116 c 119.766 100.87 119.242 101.624 118.332 
101.843 c 119.188 102.21 119.504 102.921 119.504 103.526 c 119.504 104.28
 118.758 104.843 117.828 104.843 c 116.914 104.843 116.207 104.323 116.207
 103.546 c 116.207 103.222 116.395 103.05 116.637 103.05 c 116.898 103.05
 117.066 103.264 117.066 103.526 c 117.066 103.807 116.898 104.022 116.637
 104.042 c 116.934 104.452 117.492 104.561 117.809 104.561 c 118.184 104.561
 118.703 104.347 118.703 103.526 c 118.703 103.116 118.59 102.663 118.367
 102.382 c 118.105 102.014 117.867 101.991 117.457 101.948 c 117.25 101.929
 117.23 101.929 117.195 101.929 c 117.176 101.929 117.102 101.905 117.102
 101.8 c 117.102 101.671 117.176 101.671 117.324 101.671 c h
117.773 101.671 m f
348.16 83.679 m 348.293 83.104 348.734 82.729 349.246 82.729 c 349.668 
82.729 349.953 83.061 350.145 83.503 c 350.352 84.011 350.508 84.874 350.508
 84.893 c 350.508 85.05 350.41 85.05 350.371 85.05 c 350.238 85.05 350.238
 84.983 350.199 84.784 c 350.031 83.987 349.801 83.038 349.285 83.038 c 
349.039 83.038 348.906 83.214 348.906 83.679 c 348.906 83.987 349.059 84.651
 349.152 85.159 c 349.496 86.686 l 349.535 86.882 349.648 87.413 349.707
 87.636 c 349.762 87.968 349.875 88.495 349.875 88.585 c 349.875 88.827 
349.707 88.96 349.535 88.96 c 349.477 88.96 349.152 88.94 349.059 88.475
 c 348.828 87.436 348.293 84.96 348.141 84.233 c 348.125 84.167 347.648 
83.038 346.75 83.038 c 346.121 83.038 346.008 83.679 346.008 84.186 c 346.008
 84.983 346.352 86.089 346.656 87.061 c 346.809 87.503 346.863 87.702 346.863
 87.968 c 346.863 88.585 346.484 89.116 345.875 89.116 c 344.711 89.116 
344.273 87.061 344.273 86.948 c 344.273 86.796 344.387 86.796 344.406 86.796
 c 344.539 86.796 344.539 86.839 344.598 87.061 c 344.902 88.276 345.379
 88.807 345.836 88.807 c 345.949 88.807 346.141 88.784 346.141 88.343 c 
346.141 88.011 346.008 87.593 345.93 87.393 c 345.473 85.979 345.227 85.116
 345.227 84.429 c 345.227 83.081 346.062 82.729 346.711 82.729 c 347.512
 82.729 347.953 83.37 348.16 83.679 c h
348.16 83.679 m f
355.156 82.561 m 354.871 82.561 l 354.852 82.339 354.758 81.764 354.641
 81.675 c 354.586 81.608 353.938 81.608 353.805 81.608 c 352.242 81.608 
l 353.137 82.514 353.441 82.804 353.938 83.268 c 354.566 83.843 355.156 
84.46 355.156 85.389 c 355.156 86.581 354.262 87.311 353.176 87.311 c 352.125
 87.311 351.402 86.448 351.402 85.546 c 351.402 85.057 351.766 84.991 351.859
 84.991 c 352.051 84.991 352.297 85.167 352.297 85.522 c 352.297 85.698 
352.242 86.054 351.801 86.054 c 352.07 86.737 352.641 86.96 353.043 86.96
 c 353.898 86.96 354.336 86.186 354.336 85.389 c 354.336 84.526 353.805 
83.866 353.535 83.511 c 351.496 81.147 l 351.402 81.057 351.402 81.034 351.402
 80.768 c 354.91 80.768 l h
355.156 82.561 m f
358.555 87.046 m 358.555 87.311 358.555 87.311 358.305 87.311 c 357.754
 86.694 356.992 86.694 356.648 86.694 c 356.648 86.339 l 356.84 86.339 357.41
 86.339 357.867 86.604 c 357.867 81.589 l 357.867 81.257 357.867 81.124 
357.027 81.124 c 356.703 81.124 l 356.703 80.768 l 356.855 80.768 357.906
 80.815 358.211 80.815 c 358.477 80.815 359.547 80.768 359.734 80.768 c 
359.734 81.124 l 359.41 81.124 l 358.555 81.124 358.555 81.257 358.555 81.589
 c h
358.555 87.046 m f
374.555 114.28 m 374.688 113.706 375.129 113.331 375.641 113.331 c 376.062
 113.331 376.348 113.659 376.539 114.104 c 376.746 114.612 376.898 115.472
 376.898 115.495 c 376.898 115.651 376.805 115.651 376.766 115.651 c 376.633
 115.651 376.633 115.585 376.594 115.386 c 376.422 114.589 376.195 113.639
 375.68 113.639 c 375.434 113.639 375.301 113.815 375.301 114.28 c 375.301
 114.589 375.453 115.253 375.547 115.761 c 375.891 117.284 l 375.93 117.483
 376.043 118.014 376.098 118.237 c 376.156 118.565 376.27 119.097 376.27
 119.186 c 376.27 119.429 376.098 119.561 375.93 119.561 c 375.871 119.561
 375.547 119.538 375.453 119.077 c 375.223 118.038 374.688 115.561 374.535
 114.831 c 374.516 114.764 374.039 113.639 373.145 113.639 c 372.516 113.639
 372.402 114.28 372.402 114.788 c 372.402 115.585 372.746 116.69 373.051
 117.663 c 373.203 118.104 373.258 118.304 373.258 118.565 c 373.258 119.186
 372.879 119.718 372.27 119.718 c 371.105 119.718 370.668 117.663 370.668
 117.55 c 370.668 117.397 370.781 117.397 370.801 117.397 c 370.934 117.397
 370.934 117.44 370.992 117.663 c 371.297 118.878 371.773 119.405 372.23
 119.405 c 372.344 119.405 372.535 119.386 372.535 118.944 c 372.535 118.612
 372.402 118.19 372.324 117.991 c 371.867 116.577 371.621 115.718 371.621
 115.03 c 371.621 113.682 372.457 113.331 373.105 113.331 c 373.906 113.331
 374.344 113.972 374.555 114.28 c h
374.555 114.28 m f
381.551 113.159 m 381.266 113.159 l 381.246 112.94 381.152 112.366 381.035
 112.276 c 380.98 112.21 380.332 112.21 380.199 112.21 c 378.633 112.21 
l 379.531 113.116 379.836 113.405 380.332 113.87 c 380.961 114.444 381.551
 115.061 381.551 115.991 c 381.551 117.182 380.656 117.913 379.57 117.913
 c 378.52 117.913 377.797 117.05 377.797 116.143 c 377.797 115.659 378.156
 115.593 378.254 115.593 c 378.445 115.593 378.691 115.768 378.691 116.124
 c 378.691 116.3 378.633 116.651 378.195 116.651 c 378.465 117.339 379.035
 117.557 379.434 117.557 c 380.293 117.557 380.73 116.784 380.73 115.991
 c 380.73 115.128 380.199 114.464 379.93 114.112 c 377.891 111.745 l 377.797
 111.659 377.797 111.636 377.797 111.37 c 381.305 111.37 l h
381.551 113.159 m f
386.398 113.159 m 386.109 113.159 l 386.09 112.94 385.996 112.366 385.883
 112.276 c 385.824 112.21 385.176 112.21 385.043 112.21 c 383.48 112.21 
l 384.375 113.116 384.68 113.405 385.176 113.87 c 385.805 114.444 386.398
 115.061 386.398 115.991 c 386.398 117.182 385.5 117.913 384.414 117.913
 c 383.367 117.913 382.641 117.05 382.641 116.143 c 382.641 115.659 383.004
 115.593 383.098 115.593 c 383.289 115.593 383.539 115.768 383.539 116.124
 c 383.539 116.3 383.48 116.651 383.043 116.651 c 383.309 117.339 383.879
 117.557 384.281 117.557 c 385.137 117.557 385.578 116.784 385.578 115.991
 c 385.578 115.128 385.043 114.464 384.777 114.112 c 382.738 111.745 l 382.641
 111.659 382.641 111.636 382.641 111.37 c 386.148 111.37 l h
386.398 113.159 m f
396.312 135.827 m 396.441 135.268 396.871 134.901 397.371 134.901 c 397.781
 134.901 398.062 135.225 398.246 135.655 c 398.453 136.151 398.602 136.995
 398.602 137.014 c 398.602 137.167 398.508 137.167 398.473 137.167 c 398.34
 137.167 398.34 137.1 398.305 136.909 c 398.137 136.132 397.914 135.202 
397.41 135.202 c 397.168 135.202 397.035 135.374 397.035 135.827 c 397.035
 136.132 397.188 136.78 397.277 137.276 c 397.613 138.764 l 397.652 138.96
 397.762 139.475 397.82 139.694 c 397.875 140.014 397.988 140.534 397.988
 140.62 c 397.988 140.858 397.82 140.987 397.652 140.987 c 397.594 140.987
 397.277 140.968 397.188 140.514 c 396.961 139.499 396.441 137.081 396.293
 136.37 c 396.273 136.304 395.809 135.202 394.934 135.202 c 394.32 135.202
 394.207 135.827 394.207 136.323 c 394.207 137.1 394.543 138.182 394.84 
139.132 c 394.988 139.561 395.043 139.757 395.043 140.014 c 395.043 140.62
 394.672 141.139 394.078 141.139 c 392.941 141.139 392.512 139.132 392.512
 139.022 c 392.512 138.874 392.625 138.874 392.645 138.874 c 392.773 138.874
 392.773 138.917 392.828 139.132 c 393.129 140.319 393.594 140.835 394.039
 140.835 c 394.152 140.835 394.336 140.815 394.336 140.382 c 394.336 140.057
 394.207 139.647 394.133 139.456 c 393.688 138.073 393.445 137.233 393.445
 136.561 c 393.445 135.245 394.262 134.901 394.895 134.901 c 395.68 134.901
 396.105 135.526 396.312 135.827 c h
396.312 135.827 m f
403.145 134.737 m 402.863 134.737 l 402.848 134.518 402.754 133.96 402.641
 133.874 c 402.586 133.807 401.953 133.807 401.82 133.807 c 400.297 133.807
 l 401.172 134.694 401.469 134.972 401.953 135.425 c 402.566 135.987 403.145
 136.593 403.145 137.499 c 403.145 138.663 402.27 139.378 401.207 139.378
 c 400.184 139.378 399.477 138.534 399.477 137.651 c 399.477 137.175 399.828
 137.112 399.922 137.112 c 400.109 137.112 400.352 137.284 400.352 137.628
 c 400.352 137.8 400.297 138.147 399.867 138.147 c 400.129 138.815 400.688
 139.03 401.078 139.03 c 401.914 139.03 402.344 138.276 402.344 137.499 
c 402.344 136.655 401.82 136.011 401.562 135.663 c 399.57 133.354 l 399.477
 133.268 399.477 133.245 399.477 132.987 c 402.902 132.987 l h
403.145 134.737 m f
405.957 136.202 m 406.609 136.202 407.074 135.686 407.074 134.651 c 407.074
 133.464 406.461 133.097 405.996 133.097 c 405.66 133.097 404.918 133.202
 404.582 133.788 c 404.973 133.788 405.066 134.108 405.066 134.327 c 405.066
 134.628 404.859 134.843 404.602 134.843 c 404.375 134.843 404.133 134.671
 404.133 134.284 c 404.133 133.378 404.992 132.792 405.996 132.792 c 407.152
 132.792 407.949 133.698 407.949 134.651 c 407.949 135.405 407.43 136.159
 406.516 136.378 c 407.375 136.745 407.691 137.456 407.691 138.061 c 407.691
 138.815 406.945 139.378 406.016 139.378 c 405.102 139.378 404.395 138.858
 404.395 138.081 c 404.395 137.757 404.582 137.585 404.824 137.585 c 405.082
 137.585 405.25 137.8 405.25 138.061 c 405.25 138.343 405.082 138.557 404.824
 138.577 c 405.121 138.987 405.68 139.097 405.996 139.097 c 406.367 139.097
 406.891 138.882 406.891 138.061 c 406.891 137.651 406.777 137.198 406.555
 136.917 c 406.293 136.55 406.051 136.526 405.641 136.483 c 405.438 136.464
 405.418 136.464 405.383 136.464 c 405.363 136.464 405.289 136.44 405.289
 136.335 c 405.289 136.202 405.363 136.202 405.512 136.202 c h
405.957 136.202 m f
320.969 52.151 m 321.102 51.577 321.539 51.202 322.055 51.202 c 322.473
 51.202 322.758 51.534 322.949 51.975 c 323.16 52.483 323.312 53.343 323.312
 53.366 c 323.312 53.522 323.215 53.522 323.18 53.522 c 323.047 53.522 323.047
 53.456 323.008 53.257 c 322.836 52.46 322.605 51.511 322.094 51.511 c 321.844
 51.511 321.711 51.686 321.711 52.151 c 321.711 52.46 321.863 53.124 321.957
 53.632 c 322.301 55.155 l 322.34 55.354 322.453 55.886 322.512 56.108 c
 322.57 56.44 322.684 56.968 322.684 57.057 c 322.684 57.3 322.512 57.432
 322.34 57.432 c 322.281 57.432 321.957 57.413 321.863 56.948 c 321.633 
55.909 321.102 53.432 320.949 52.702 c 320.93 52.636 320.453 51.511 319.559
 51.511 c 318.926 51.511 318.812 52.151 318.812 52.659 c 318.812 53.456 
319.156 54.561 319.461 55.534 c 319.613 55.975 319.672 56.175 319.672 56.44
 c 319.672 57.057 319.289 57.589 318.68 57.589 c 317.516 57.589 317.078 
55.534 317.078 55.421 c 317.078 55.268 317.191 55.268 317.211 55.268 c 317.344
 55.268 317.344 55.311 317.402 55.534 c 317.707 56.749 318.184 57.28 318.641
 57.28 c 318.758 57.28 318.945 57.257 318.945 56.815 c 318.945 56.483 318.812
 56.061 318.738 55.862 c 318.281 54.448 318.031 53.589 318.031 52.901 c 
318.031 51.554 318.871 51.202 319.52 51.202 c 320.32 51.202 320.758 51.843
 320.969 52.151 c h
320.969 52.151 m f
327.965 51.034 m 327.676 51.034 l 327.66 50.811 327.562 50.237 327.449 
50.147 c 327.391 50.081 326.742 50.081 326.609 50.081 c 325.047 50.081 l
 325.941 50.987 326.246 51.276 326.742 51.741 c 327.371 52.315 327.965 52.932
 327.965 53.862 c 327.965 55.054 327.066 55.784 325.98 55.784 c 324.934 
55.784 324.207 54.921 324.207 54.014 c 324.207 53.53 324.57 53.464 324.664
 53.464 c 324.855 53.464 325.105 53.639 325.105 53.995 c 325.105 54.171 
325.047 54.526 324.609 54.526 c 324.875 55.21 325.445 55.429 325.848 55.429
 c 326.703 55.429 327.145 54.655 327.145 53.862 c 327.145 52.999 326.609
 52.335 326.344 51.983 c 324.305 49.616 l 324.207 49.53 324.207 49.507 324.207
 49.241 c 327.715 49.241 l h
327.965 51.034 m f
333.02 50.854 m 333.02 51.21 l 332.066 51.21 l 332.066 55.608 l 332.066
 55.807 332.066 55.893 331.895 55.893 c 331.777 55.893 331.742 55.893 331.664
 55.741 c 328.844 51.21 l 328.844 50.854 l 331.359 50.854 l 331.359 50.061
 l 331.359 49.706 331.359 49.597 330.656 49.597 c 330.426 49.597 l 330.426
 49.241 l 330.863 49.264 331.398 49.288 331.703 49.288 c 332.027 49.288 
332.562 49.264 333 49.241 c 333 49.597 l 332.77 49.597 l 332.066 49.597 
332.066 49.706 332.066 50.061 c 332.066 50.854 l h
331.418 54.811 m 331.418 51.21 l 329.168 51.21 l h
331.418 54.811 m f
0.900795 w
q 1 0 0 -0.914024 0 365.713715 cm
427.672 395.042 m 347.688 131.266 l S Q
351.688 242.952 m 351.688 240.389 349.898 238.315 347.688 238.315 c 345.48
 238.315 343.691 240.389 343.691 242.952 c 343.691 245.511 345.48 247.589
 347.688 247.589 c 349.898 247.589 351.688 245.511 351.688 242.952 c h
351.688 242.952 m f
386.078 137.241 m 386.078 134.679 384.289 132.604 382.082 132.604 c 379.871
 132.604 378.082 134.679 378.082 137.241 c 378.082 139.8 379.871 141.874
 382.082 141.874 c 384.289 141.874 386.078 139.8 386.078 137.241 c h
386.078 137.241 m f
Q Q
showpage
%%Trailer
end restore
%%EOF
